A0488001 02810100 82206555 49434320 4C544520 3532332E 3030202D 2D20526F
67657273 204D4E4F 5344830A 89302720 52300000 0137A508 81008200 84008B00
A6080606 67810F01 0201B082 0270A005 80008101 00810667 810F0102 01A212A1
10820278 2183023F 008B0102 C6010188 00A317A1 11820241 2183022F 058B010F
80010A88 01288302 656EA41F A1118202 41218302 2FE28B01 0D80010A 88011083
0A980372 02250300 001073A5 50A11382 04422100 2683022F 008B010E 80014C88
01F0831A 61184F10 A0000000 871002F3 10FFFF89 B00140FF 50045553 494D8201
0C831A61 184F10A0 00000087 1004F310 FFFF89B0 0142FF50 04495349 4DA68201
BDA11482 04422100 4683022F 068B0101 8002041A 88013083 1B8401D4 A4068301
0A950108 80010190 0080011E A4068301 0A950108 82012B83 118C02A0 E8900080
0107A406 83010A95 01088201 35831B84 01D4A406 83010A95 01088001 1B970080
0104A406 83010A95 01088201 2B831B84 01D4A406 83010A95 01088001 1B970080
0104A406 83010A95 01088201 2B830580 01019000 82014183 1B8401D4 A4068301
0A950108 80010190 0080011E A4068301 0A950108 82012B83 1B8401D4 A4068301
0A950108 80011B97 00800104 A4068301 0A950108 82012B83 1080011B 97008001
04A40683 010A9501 08820136 830B8001 1FA40683 010A9501 0882013B 83158401
32970080 01039000 800118A4 0683010A 95010882 0131831B 8401D4A4 0683010A
95010880 0107A406 83010A95 01088001 18970082 012B8316 8401D4A4 0683010A
95010880 015FA406 83010A95 01088201 30832084 01D4A406 83010A95 01088001
01900080 01029700 80015CA4 0683010A 95010882 0126831B 8401D4A4 0683010A
95010880 01019000 80015EA4 0683010A 95010882 012B8326 8401D4A4 0683010A
95010880 01019000 800102A4 06830101 95010880 015CA406 83010A95 0108A239
A0058000 810101A1 30A02E30 16800101 81083132 3334FFFF FFFF8201 01830106
84015530 1480010A 81088888 88888888 88888301 03840200 AAA328A0 05800081
0102A11F 300D8001 01810831 32333435 36373830 0E800200 81810831 32333435
363738A1 30A00580 00810103 A1273025 62238202 78218302 7FF18410 A0000000
871002F3 10FFFF89 B00140FF 8B0102C6 02018188 00A445A0 05800081 0104A12C
A12A8001 01810101 8210AAAA AAAAAAAA AAAAAAAA AAAAAAAA AAAA8310 AAAAAAAA
AAAAAAAA AAAAAAAA AAAAAAAA 83060002 00000000 840607FF FFFFFFFF A225A005
80008101 05A11CA0 1A301880 02008181 08313233 34FFFFFF FF820200 81830103
840155A1 820B5FA0 05800081 0106A182 0B543082 01508002 7FF16214 82044221
004B8302 6F068B01 01800204 1A8801B8 811B8401 D4A40683 010A9501 08800101
90008001 1EA40683 010A9501 08020130 81218401 D4A40683 010A9501 08800101
A4068301 01950108 80015EA4 0683010A 95010802 012A8121 8401D4A4 0683010A
95010880 0103A406 83010195 01088001 5CA40683 010A9501 0802012A 811B8401
D4A40683 010A9501 08800101 90008001 5EA40683 010A9501 08020130 81268401
D4A40683 010A9501 08800101 90008001 02A40683 01019501 0880015C A4068301
0A950108 02012581 118C02A0 E8900080 0107A406 83010A95 01080201 3A812C84
01D4A406 83010A95 01088001 01A40683 01019501 08800102 A4068301 81950108
80015CA4 0683010A 95010802 011F8116 800103A4 06830101 95010880 011CA406
83010A95 01080201 35811B84 01D4A406 83010A95 01088001 1B970080 0144A406
83010A95 01083013 62118202 41218302 6FD98B01 0280010F 8801E830 15621082
02412183 026FDC8B 01028001 01880081 0100301E 62118202 41218302 6F078B01
02800109 88013881 09083920 27606012 7467301F 62118202 41218302 6F7E8B01
0380010B 88015802 01048107 03022700 00FF0130 1F621182 02412183 026F738B
01038001 0E880160 02010781 07030227 0000FF01 30196211 82024121 83026FAD
8B010480 01048801 18810400 00000330 17621182 02412183 026F788B 01028001
02880130 81020040 30126210 82024121 83026FC4 8B010380 01DA8800 30176211
82024121 83026F05 8B010580 010A8801 10810265 6E302062 11820241 2183026F
388B0102 80010B88 0120810B 18CA178C 27F60500 40024030 16621182 02412183
026F088B 01038001 21880140 81010730 16621182 02412183 026F098B 01038001
21880148 81010730 1B621182 02412183 026F5B8B 01038001 06880178 8106F000
00F00000 30136211 82024121 83026F5C 8B010280 01038801 80301262 10820241
2183026F 3E8B0102 80010188 00301262 10820241 2183026F 3F8B0102 80010A88
00301362 11820241 2183026F 7B8B0103 80010C88 01683013 62118202 78218302
5F3B8B01 06C60201 81880030 19621182 02412183 024F208B 01038001 09880108
02010881 01073019 62118202 41218302 4F528B01 03800109 88011002 01088101
07308201 C080027F F1621282 02412183 026F618B 01028002 01A48801 88818201
A4030227 C080FFFF FF0000FF FFFF0000 FFFFFF00 00FFFFFF 0000FFFF FF0000FF
FFFF0000 FFFFFF00 00FFFFFF 0000FFFF FF0000FF FFFF0000 FFFFFF00 00FFFFFF
0000FFFF FF0000FF FFFF0000 FFFFFF00 00FFFFFF 0000FFFF FF0000FF FFFF0000
FFFFFF00 00FFFFFF 0000FFFF FF0000FF FFFF0000 FFFFFF00 00FFFFFF 0000FFFF
FF0000FF FFFF0000 FFFFFF00 00FFFFFF 0000FFFF FF0000FF FFFF0000 FFFFFF00
00FFFFFF 0000FFFF FF0000FF FFFF0000 FFFFFF00 00FFFFFF 0000FFFF FF0000FF
FFFF0000 FFFFFF00 00FFFFFF 0000FFFF FF0000FF FFFF0000 FFFFFF00 00FFFFFF
0000FFFF FF0000FF FFFF0000 FFFFFF00 00FFFFFF 0000FFFF FF0000FF FFFF0000
FFFFFF00 00FFFFFF 0000FFFF FF0000FF FFFF0000 FFFFFF00 00FFFFFF 0000FFFF
FF0000FF FFFF0000 FFFFFF00 00FFFFFF 0000FFFF FF0000FF FFFF0000 FFFFFF00
00FFFFFF 0000FFFF FF0000FF FFFF0000 FFFFFF00 00FFFFFF 0000FFFF FF0000FF
FFFF0000 FFFFFF00 00FFFFFF 0000FFFF FF0000FF FFFF0000 FFFFFF00 00FFFFFF
0000FFFF FF0000FF FFFF0000 FFFFFF00 00FFFFFF 0000FFFF FF0000FF FFFF0000
FFFFFF00 00304762 11820241 2183026F 628B0102 80013288 01988132 03022740
00030227 80000302 270080FF FFFF0000 FFFFFF00 00FFFFFF 0000FFFF FF0000FF
FFFF0000 FFFFFF00 00FFFFFF 00003016 62118202 41218302 6F318B01 02800101
88019081 0101301B 62108202 41218302 6F468B01 04800111 88008107 00524F47
45525330 21621382 04422100 0483026F B78B0104 80011488 01088104 19F1FF00
810411F2 FF003012 62108202 41218302 6FC38B01 03800104 88003014 62128204
42210020 83026F40 8B010380 01808800 30146212 82044221 00208302 6F498B01
028001A0 8800301D 62128204 4221000D 83026F4C 8B010280 011A8800 81010002
010C8101 00303A62 19820442 2100B083 026F3C8B 01038002 03708800 A504C102
00FF8101 00020200 AF810100 020200AF 81010002 0200AF81 01000202 00AF8101
00301262 10820241 2183026F 438B0103 80010288 00301962 17820442 21001E83
026F478B 01038001 1E8800A5 03C10100 302E6212 82044221 00278302 6F428B01
03800127 88000201 0B8115ED FFFFFFFF FFFFFFFF FFFFFFFF 07917150 979603F0
30186210 82024121 83026F45 8B010380 01148800 810400C7 012B3017 62118202
41218302 6F568B01 07800102 88012881 02000030 15621082 02412183 026F578B
01078001 64880081 01003031 62138204 42210014 83026FC5 8B010480 01A08801
C8810943 0786D2E7 B1289D02 02010B81 0C430A82 D2F7B92C 9FB78A58 2A305262
14820442 21000883 026FC68B 01048002 04B08801 D0810803 02270000 FFFE0181
08030222 0000FFFE 02810803 02880000 FFFE0281 08030216 0000FFFE 02810803
02870000 FFFE0281 08030226 0000FFFE 02301962 11820241 2183026F CD8B0102
80011388 01D88104 A311800F 30126210 82024121 83026F50 8B010380 01148800
30286212 82044221 00188302 6FC78B01 03800130 88008112 566F6963 656D6169
6CFF0791 41617222 67F8301D 62128204 4221000D 83026FC8 8B010380 011A8800
81010002 010C8101 00301C62 17820442 21000C83 026FC98B 01038001 188800A5
03C10100 81010130 19621782 04422100 0583026F CA8B0103 80010A88 00A503C1
0100301F 62128204 42210010 83026FCB 8B010380 01208800 81020100 02010E81
02020030 1E621182 02412183 026FE38B 01088001 128801F0 02010C81 06030227
00000130 15621382 04422100 3683026F E48B0103 80013688 01C03014 80006210
82027821 83027F10 8B0102C6 01018800 3081AF62 13820442 21004B83 026F068B
01018002 02EE8800 811B8401 D4A40683 010A9501 08800101 90008001 1EA40683
010A9501 08020130 81168401 D4A40683 010A9501 0880015F A4068301 0A950108
02013581 118C02A0 E8900080 0107A406 83010A95 01080201 3A812184 01D4A406
83010A95 01088001 03A40683 01019501 0880015C A4068301 0A950108 02012A81
218401D4 A4068301 0A950108 800101A4 06830101 95010880 015EA406 83010A95
01083016 62108202 41218302 6F548B01 02800115 88008102 85003012 62108202
78218302 5F3A8B01 03C60101 88003066 62148204 42210020 83024F3A 8B010480
02028088 01108116 3431312D 41737369 7374616E 6365FFFF FFFF0381 14F10201
0A811723 4155544F FFFFFFFF FFFFFFFF FFFFFFFF FF04812B 88F60201 09811723
54415849 FFFFFFFF FFFFFFFF FFFFFFFF FF04818B 92F43016 62148204 4221000F
83024F60 8B010480 02012C88 0138301A 62188204 42210002 83024F20 8B010480
01288801 70A503C1 01003017 62118202 41218302 4F248B01 04800102 88015881
02000030 19621182 02412183 024F228B 01048001 04880168 81040000 00003017
62118202 41218302 4F238B01 04800102 88016081 02000030 1A621882 04422100
0283024F 508B0104 80012888 0120A503 C1010030 38621282 04422100 5083024F
308B0105 80015088 008122A8 19C0034F 3A02C403 4F6007C6 034F8005 C9034F20
0EC5034F 5004AA05 C8034F4C 03301A62 18820442 21000183 024F808B 01048001
14880128 A503C101 00304D62 13820442 21000A83 024F4C8B 01048001 32880118
81084275 73696E65 73730201 02810646 616D696C 79020104 81074672 69656E64
73020103 81085365 72766963 65730201 0281054F 74686572 302C8002 7F106212
82044221 004B8302 6FE58B01 0480014B 88008112 80107465 6C3A2B31 37303537
39363933 3030A130 A0058000 810107A1 27302562 23820278 2183027F F28410A0
00000087 1004F310 FFFF89B0 0142FF8B 0102C602 01818800 A445A005 80008101
08A12CA1 2A800101 81010182 100CBC10 9A4EDEF9 635B734B 3BACED49 54831004
8C84BD2C 51A7D509 0F1220D2 4C82CF83 06000200 00000084 0607FFFF FFFFFFA1
820281A0 05800081 0109A182 02763081 C280027F F2621382 04422100 3283026F
068B0101 8001FA88 01B8811B 8401D4A4 0683010A 95010880 01019000 80011EA4
0683010A 95010802 01178121 8401D4A4 0683010A 95010880 0101A406 83010195
01088001 5EA40683 010A9501 08020111 811B8401 D4A40683 010A9501 08800101
90008001 5EA40683 010A9501 08020117 81218401 D4A40683 010A9501 08800103
A4068301 01950108 80015CA4 0683010A 95010802 0111811B 8401D4A4 0683010A
95010880 011B9700 800144A4 0683010A 95010830 17621182 02412183 026F078B
01028001 02880138 81028000 30186211 82024121 83026FAD 8B010380 01038801
18810300 00003038 62118202 41218302 6F038B01 02800132 88012881 23802169
6D732E6D 6E633732 302E6D63 63333032 2E336770 706E6574 776F726B 2E6F7267
30166214 82044221 004B8302 6F048B01 02800202 EE880120 30486211 82024121
83026F02 8B010280 01738801 10813380 31333032 37323036 30363231 34373736
40696D73 2E6D6E63 3732302E 6D636333 30322E33 6770706E 6574776F 726B2E6F
7267302E 62128204 42210027 83026F42 8B010480 01278800 02010B81 15EDFFFF
FFFFFFFF FFFFFFFF FFFF0791 71509796 03F0303A 62198204 422100B0 83026F3C
8B010480 02037088 00A504C1 0200FF81 01000202 00AF8101 00020200 AF810100
020200AF 81010002 0200AF81 01003012 62108202 41218302 6F438B01 04800102
88003019 62178204 4221001E 83026F47 8B010480 011E8800 A503C101 00301480
00621082 02782183 02DDD08B 0102C601 01880030 19621282 02412183 0213B08B
032F060C 80010388 00810301 01013014 80006210 82027821 83027F20 8B0102C6
01018800 A682017C A0058000 81010AA1 524F07A0 00000151 53504F08 A0000001
51535041 4F08A000 00015100 00004F08 A0000001 51000000 820382FC 8083010F
C90E8102 02558102 80008201 F08301F0 EA11800F 01000001 00000002 011203B2
010000A2 81D83022 95013882 01018301 01301730 15800180 86103844 C6ADBB72
A5AA4A59 AE4136CF 506A3022 95013482 01028301 01301730 15800180 86105B9A
60664FE9 BBECCDD6 77CBEC81 6D8E3022 9501C882 01038301 01301730 15800180
86106341 E4B86518 6391D9BA D342C548 2BFA3022 95013882 01018301 20301730
15800180 8610456E 63727970 74696F6E 53656372 65743022 95013482 01028301
20301730 15800180 86105065 72736F6E 616C6973 6174696F 6E4B3022 9501C882
01038301 20301730 15800180 86104B65 79456E63 72797074 696F6E4B 6579A344
04420070 3F663D73 3B06072A 864886FC 6B01600B 06092A86 4886FC6B 02020263
0906072A 864886FC 6B03640B 06092A86 4886FC6B 04025564 0B06092A 864886FC
6B048000 A88204DF A0058000 81010BA1 82047F4F 0CD27600 01180002 FFF1002F
894F08A0 00000151 000000C4 82046301 0016DECA FFED0102 0400010C D2760001
180002FF F1002F89 02001F00 16001F00 14004400 86002502 9D001600 5D000001
3A000400 02000605 01000400 44050201 07A00000 00620101 000110A0 00000009
0005FFFF FFFF8912 00000001 0110A000 00008710 05FFFFFF FF891320 00000301
06A00000 01510000 0107A000 00006200 01030014 0110D276 00011800 02FFF100
2F89C001 AB01002A 06002545 80030300 03050500 0000B2FF FF006400 BF01AC80
02008108 01088107 00820000 83080109 07029D02 005A8005 00610005 00F08047
01390012 0340188C 000A1811 00F6048D 00048700 1805048D 00038701 7A05328F
00063D18 1D1E8C00 072E1B18 1D044118 1D258B00 081B8D00 0987021B 8302048E
02000B00 1B830202 8E02000B 0A1B048B 000C7004 28047A04 21188B00 0D60037A
198B000E 2D1A031A 03251100 FC535B38 1A032575 002B0001 FFB00009 1A042575
00170001 00760009 197B000F 037B000F 928D0010 7010116D 008D0011 7008116E
008D0011 7A02301E 046B0719 67041877 01770522 1D7500AC 00040001 00150002
002A0013 0083007B 00A88D00 133B188C 0014AD01 030239AD 01040239 A800858D
00152D1A 1A8E0100 1613AD00 041A8E01 0016148E 05001606 3BAD0003 AD000425
38AD0004 1A8E0100 16140443 5B388D00 17048E02 001817AD 01030239 AD010408
39AD0210 7B8E0200 0B007037 2E8D0017 038E0200 1817702B AD010326 6225AD01
03266111 AD010426 620BAD02 107B8E02 000B00AD 01033E26 04433970 06188C00
197A0512 8D00132C 1904AD00 03251082 8E04001A 1719AD00 05AD0004 258D001B
8E04001A 0E198E01 001A1831 1E10206B 0FAD0103 0839AD01 043E2604 43397A06
62590205 5903FB1E 1F412906 1E1606A5 0091191E 59020125 2907191E 59020125
8D001B32 1F10818D 001B6B0E 191E5902 01258D00 1B327010 1F10818D 001B6F08
1167008D 00111607 75004B00 01000A00 091F046D 0E1FAD00 926C0811 67008D00
11AD0003 191E2538 191E0441 AD00051F 04438D00 1C3BAD00 041F0443 5B38AD01
030239AD 01040839 AD02107B 8E02000B 00700811 69848D00 111E1F41 31A8FF6F
03780310 7B001D03 068D001E 600CAD02 058E0200 0B00700A AD02058E 02000B02
7A054118 8B000E28 04150405 8D001F60 08116B00 8D001119 1E150403 1F8D001C
3B180306 8B00207A 02101100 FF1C5378 08001600 04000200 02030003 03018003
00030101 00000000 00050086 00210200 00010200 00020200 00000680 080F0680
080D0181 0D000100 00000600 00110380 03020681 10000680 03000181 09000300
00080380 03030380 0A010500 00020600 026E0680 07010184 02000681 0E000600
024F0682 03000182 01000681 0F000181 04000600 016F0181 05000600 02950680
10020500 00000681 0B010680 10040380 0A080900 5D002120 081F0309 8D05130F
03051605 05170606 0609170C 03180560 0B0B0A08 0505260A 00380708 06080808
070C040A 09060B07 28040408 08290510 07090512 08051307 051D0F06 0D0C0406
39070B09 081B141B 090E0509 0A080808 0907A253 30514F0C D2760001 180002FF
F1002F89 4F10D276 00011800 02FFF100 2F89C001 AB014F10 D2760001 180002FF
F1002F89 C001AB01 82030000 00C900EA 168008FF 00100000 00000081 040001FF
00820400 01FF00A8 8204D1A0 05800081 010CA182 04424F10 A0000000 77030760
11100000 0000002A 4F08A000 00015100 0000C482 04220100 1ADECAFF ED010204
000110A0 00000077 03076011 10000000 00002A02 001F001A 001F0014 004E007E
0035024F 000A0060 00000000 00000000 00000501 0004004E 05000107 A0000000
62000100 0110A000 00000900 05FFFFFF FF891100 00000201 07A00000 00620101
000110A0 00000009 0005FFFF FFFF8912 00000001 0110A000 00008710 05FFFFFF
FF891320 00000300 140110A0 00000077 03076011 10000100 00002A00 D6060035
00800002 00020103 0000004A 00670084 44820309 00080507 000001A1 FFFF019E
017C01A5 01F30210 82020083 08010983 07008400 0007024F 00081118 8C000B10
11900B2C 18048D00 14870018 113F0011 2F008B00 0DAD0004 07061903 048E0700
0E063BAD 00040707 19041903 258E0700 0E063B18 19041903 25048D00 10870101
2C7A0230 AD01117F FF8E0200 0E01AD01 1D8E0200 0E01AD01 1E8E0200 0E017A02
30AD0011 3F008E02 000E01AD 001D8E02 000E01AD 001E8E02 000E017A 0552AD01
117FFF8E 02000E01 AD011F8E 02000E01 AD011604 191E101C 8E05000E 001E4129
051E0541 29061606 16056D22 19160625 10806B0B 19160605 418D0016 78160619
16060441 25054141 290670DC 03780631 8F00173D 8C00192E 1B181D04 41181D25
8B001C1B 048D0014 87021B8D 000C8703 1B100890 0B87041B 101C048D 000F8705
1B8B0011 1B11DDD0 1113B08B 00121B83 02031B83 0403058E 05000E04 3B1B8304
03250453 046B0C1B 8303107F 8E020013 001B8304 03250553 056B0B1B 8303048E
02001300 1B1B8306 1B830503 116F7B11 6F7B8B00 1589071B 1B850790 0B87081B
8308031B 8507028D 00183B1B 04048D00 0F87097A 0310188F 001A3D8C 001B8706
18AD0683 00870218 AD068301 870A7A01 10188C00 1D7A0020 7A013018 7701201D
75001100 02000100 0D007F00 0D188C00 1E7A0510 1811DDD0 1113B08B 0012AD02
05AD0903 048E0500 0E043BAD 09032504 6A037AAD 0A116F7B 8E02000E 01AD0A03
AD0803AF 078E0500 0E057A02 30AD0211 3F008E02 000E01AD 021D8E02 000E01AD
021E8E02 000E017A 0542AD0A 1F191E10 1C8E0500 0E001E41 29041E05 41290516
0516046D 22191605 2510806B 0B191605 05418D00 16781605 19160504 41250541
41290570 DC037808 000A0000 00000000 00000000 05007E00 1F020000 00020000
01020010 01020010 00020010 04020010 05020010 07020010 08020010 03020010
06020010 02068000 00068310 00030000 02018100 00068208 0D068103 02030010
08030010 0A018309 00068103 00030000 03068210 04010010 00068210 03060001
97010000 00060000 01038203 02068203 00060001 BA090060 0031120C 0E1A070A
080B0A08 0B0A0858 06070911 040B0A0A 0A0A030C 04040304 0D0D0302 02030202
32030A08 0A03030A 0A080B00 2B050A0C 0C100C10 08080D08 080D080D 2017040C
05061006 0A0D1513 12150709 04171C0D 0B130D0D 08080F20 A2818130 7F4F10A0
00000077 03076011 10000000 00002A4F 10A00000 00770307 60111000 01000000
2A4F10A0 00000077 03076011 0000FE00 002A0082 03000000 C900EA40 800AFF00
10000002 01020000 81180001 000010A0 00000087 1002F310 FFFF89B0 0140FF01
00008218 00010000 10A00000 00871002 F310FFFF 89B00140 FF010000 A74CA005
80008101 0D4F09A0 00000559 10100001 4F08A000 00015100 0000A005 0403B000
01810112 04010004 0100301E 8010A000 00008710 02F310FF FF89B001 40FF8104
02000100 82040200 0100A74C A0058000 81010E4F 09A00000 05591010 00024F08
A0000001 51000000 A0050403 B0000281 01120401 00040100 301E8010 A0000000
871004F3 10FFFF89 B00142FF 81040200 01008204 02000100 AA07A005 80008101
0F