A0488001 02810100 82204154 54205549 43432D47 204D324D 20476C6F 62616C20
53494D20 4175746F 6D6F830A 89211380 00717510 0017A508 81008200 84008B00
A6080606 67810F01 0201B082 0296A005 80008101 00810667 810F0102 01A212A1
10820278 2183023F 008B0102 C6010188 00A317A1 11820241 2183022F 058B0112
80010A88 01288302 454EA41F A1118202 41218302 2FE28B01 1180010A 88011083
0A981310 05999999 999999A5 50A11382 04422100 2683022F 008B0108 80017288
01F0831A 61184F10 A0000000 871002FF FFFFFF89 03020000 50045553 494D8201
0C831A61 184F10A0 00000087 1004FFFF FFFF8903 02000050 04495349 4DA68201
E3A11482 04422100 3083022F 068B0101 80020510 88013083 1B8401D4 A4068301
0A950108 80010190 0080011E A4068301 0A950108 82011583 118C02A0 E8900080
0107A406 83010A95 01088201 1F830B80 0104A406 83010A95 01088201 25831680
0104A406 83010A95 01088401 D4A40683 010A9501 0882011A 83058001 01900082
012B831B 8401D4A4 0683010A 95010880 01019000 80011EA4 0683010A 95010882
01158310 80011B97 00800104 A4068301 0A950108 82012083 10800101 90008001
1EA40683 010A9501 08820120 830B8001 1FA40683 010A9501 08820125 83108001
07A40683 010A9501 08800118 97008201 20831584 01329700 80010390 00800118
A4068301 0A950108 82011B83 118C02A0 E8900080 0147A406 83010A95 01088201
1F830B8C 02A0E890 00800107 90008201 25831B84 01D4A406 83010A95 01088001
01900080 015EA406 83010A95 01088201 15831B84 01D4A406 83010A95 01088001
03900080 015CA406 83010A95 01088201 15832184 01D4A406 83010A95 01088001
01A40683 01019501 0880015E A4068301 0A950108 82010F83 208401D4 A4068301
0A950108 80010190 00800102 97008001 5CA40683 010A9501 08820110 83268401
D4A40683 010A9501 08800101 90008001 02A40683 01019501 0880015C A4068301
0A950108 A236A005 80008101 01A12DA0 2B301380 01018108 31313131 FFFFFFFF
82010183 01063014 80010A81 08F5B015 8609E6B7 99830103 840200AA A328A005
80008101 02A11F30 0D800101 81083434 38313936 3138300E 80020081 81083032
36393139 3938A181 D1A00580 00810103 A181C730 1F80027F DE621282 02412183
026F6F8B 032F0609 80010688 00810520 03100310 30186213 82024121 83026F5F
8B032F06 09800201 00880081 01FF301B 62128202 41218302 80708B03 2F060A80
01058800 81050000 00000030 1B621282 02412183 0280718B 032F060A 80010588
00810500 00000000 301B6212 82024121 83028072 8B032F06 0A800105 88008105
00000000 00301B62 12820241 21830280 738B032F 060A8001 05880081 05000000
00003016 62148204 46210008 83026FFF 8B032F06 0B800150 8800A130 A0058000
810104A1 27302562 23820278 2183027F F18410A0 00000087 1002FFFF FFFF8903
0200008B 010CC602 01818800 A445A005 80008101 05A12CA1 2A800101 81010182
10AAAAAA AAAAAAAA AAAAAAAA AAAAAAAA AA831045 1DE0472D 5552CE2E A5AF4B47
41F3B083 06000200 00000084 0607FFFF FFFFFFA2 22A00580 00810106 A119A017
30158002 00818108 32323232 FFFFFFFF 82020081 830103A1 820C2AA0 05800081
0107A182 0C1F3082 01E18002 7FF16214 82044221 00308302 6F068B01 01800202
A08801B8 811B8401 D4A40683 010A9501 08800101 90008001 5EA40683 010A9501
08020115 81118C02 A0E89000 800147A4 0683010A 95010802 011F8126 840132A4
0683010A 95010884 01D4A406 83010A95 01088001 01900080 015EA406 83010A95
01080201 0A811B84 01D4A406 83010A95 01088001 03900080 015CA406 83010A95
01080201 15812684 0132A406 83010A95 01088401 D4A40683 010A9501 08800103
90008001 5CA40683 010A9501 0802010A 81218401 D4A40683 010A9501 08800101
A4068301 01950108 80015EA4 0683010A 95010802 010F8116 800101A4 06830101
95010880 011EA406 83010A95 01080201 1A811680 0103A406 83010195 01088001
1CA40683 010A9501 0802011A 81108001 01900080 011EA406 83010A95 01080201
20812184 01D4A406 83010A95 01088001 03A40683 01019501 0880015C A4068301
0A950108 02010F81 268401D4 A4068301 0A950108 80010190 00800102 A4068301
01950108 80015CA4 0683010A 95010802 010A8111 8C02A0E8 90008001 07A40683
010A9501 0802011F 812C8401 D4A40683 010A9501 08800101 A4068301 01950108
800102A4 06830181 95010880 015CA406 83010A95 01080201 04811080 011B9700
800104A4 0683010A 95010830 38621482 04422100 2083028F 068B038F 06018001
40880081 10800101 90008001 04A40683 010A9501 08020110 810B8001 44A40683
010A9501 08301362 11820278 2183027F 668B0102 C6020181 88003013 62118202
78218302 5F308B01 02C60201 81880030 1980047F F17F6662 11820278 2183025F
408B0102 C6020181 88003015 62108202 41218302 4F408B01 01800101 88008101
01303462 10820241 2183024F 418B0101 80012088 00812014 0A3C1E3C 1E000000
00000000 00000000 00000000 00000000 00000000 00000030 1A621082 02412183
024F428B 01018001 06880081 06181818 00000030 34621082 02412183 024F438B
01048001 20880081 20000000 00000000 00000000 00000000 00000000 00000000
00000000 00000000 00301562 10820241 2183024F 448B0104 80010188 00810100
30328002 7FF16210 82024121 83026F15 8B010680 011A8800 811A01F0 02000380
04C005C0 06000700 08830984 C05DFF00 FF00FF00 30156210 82024121 83026FDC
8B010680 01018800 81010130 1E621182 02412183 026F078B 01078001 09880138
81090839 01519099 99999930 1F621182 02412183 026F7E8B 01088001 0B880158
02010481 07130014 0000FF01 301F6211 82024121 83026F73 8B010880 010E8801
60020107 81071300 140000FF 01301962 11820241 2183026F AD8B0109 80010488
01188104 00000003 30176211 82024121 83026F78 8B010780 01028801 30810202
00301262 10820241 2183026F C48B010A 8001DA88 00301762 11820241 2183026F
058B010B 80010A88 01108102 454E3021 62118202 41218302 6F388B01 0680010C
88012081 0C000A10 8C273600 00400210 04301662 11820241 2183026F 088B0108
80012188 01408101 07301662 11820241 2183026F 098B0108 80012188 01488101
07301B62 11820241 2183026F 5B8B0108 80010688 01788106 F00000F0 00003013
62118202 41218302 6F5C8B01 07800103 88018030 13621182 02412183 026F7B8B
010A8001 2D880168 30136211 82027821 83025F3B 8B010CC6 02018188 00301962
11820241 2183024F 208B0108 80010988 01080201 08810107 30196211 82024121
83024F52 8B010880 01098801 10020108 81010730 82021080 027FF162 12820241
2183026F 618B0106 800201F4 88018881 8201F413 00144000 13001480 00090181
80000901 81008013 00380080 13013000 80130180 00801300 01008013 00980080
13005900 80130190 00801301 40008013 00548000 13005400 80130043 00801300
16008013 00230080 03022740 00030227 80000302 87400003 02878000 FFFFFF00
00FFFFFF 0000FFFF FF0000FF FFFF0000 FFFFFF00 00FFFFFF 0000FFFF FF0000FF
FFFF0000 FFFFFF00 00FFFFFF 0000FFFF FF0000FF FFFF0000 FFFFFF00 00FFFFFF
0000FFFF FF0000FF FFFF0000 FFFFFF00 00FFFFFF 0000FFFF FF0000FF FFFF0000
FFFFFF00 00FFFFFF 0000FFFF FF0000FF FFFF0000 FFFFFF00 00FFFFFF 0000FFFF
FF0000FF FFFF0000 FFFFFF00 00FFFFFF 0000FFFF FF0000FF FFFF0000 FFFFFF00
00FFFFFF 0000FFFF FF0000FF FFFF0000 FFFFFF00 00FFFFFF 0000FFFF FF0000FF
FFFF0000 FFFFFF00 00FFFFFF 0000FFFF FF0000FF FFFF0000 FFFFFF00 00FFFFFF
0000FFFF FF0000FF FFFF0000 FFFFFF00 00FFFFFF 0000FFFF FF0000FF FFFF0000
FFFFFF00 00FFFFFF 0000FFFF FF0000FF FFFF0000 FFFFFF00 00FFFFFF 0000FFFF
FF0000FF FFFF0000 FFFFFF00 00FFFFFF 0000FFFF FF0000FF FFFF0000 FFFFFF00
00FFFFFF 0000FFFF FF0000FF FFFF0000 FFFFFF00 00FFFFFF 0000FFFF FF0000FF
FFFF0000 FFFFFF00 00FFFFFF 0000FFFF FF0000FF FFFF0000 FFFFFF00 00FFFFFF
0000FFFF FF000030 47621182 02412183 026F628B 01068001 32880198 81321300
14400013 00148000 FFFFFF00 00FFFFFF 0000FFFF FF0000FF FFFF0000 FFFFFF00
00FFFFFF 0000FFFF FF0000FF FFFF0000 30166211 82024121 83026F31 8B010780
01018801 90810101 30156213 82044221 00048302 6FB78B01 01800114 88010830
14621282 04422100 2083026F 408B010A 80018088 00301B62 19820442 2100B083
026F3C8B 01088002 06E08800 A504C102 00FF3012 62108202 41218302 6F438B01
08800102 88003019 62178204 4221001E 83026F47 8B010880 011E8800 A503C101
00305662 13820442 21002E83 026F428B 01088002 01CC8800 812E534D 53205365
7474696E 6773FFFF FFFFFFFF E1FFFFFF FFFFFFFF FFFFFFFF FF079191 07739608
F0FFFFFF FF0000A7 8105456D 70747902 01298105 456D7074 79301762 11820241
2183026F 568B010D 80010288 01288102 00003015 62108202 41218302 6F578B01
0D800164 88008101 00307962 13820442 21001883 026FC58B 01018001 F08801C8
81074305 8441AA89 0A020111 8110430E 8641AA89 0A6AA6C7 F2F7B0CC 66030201
08810D43 0B834FB3 19E42CD3 EF6FF91A 02010B81 11430F87 E3329B5D 6787E5A0
301D342D 06010201 07810A43 0880CDB0 3C4D4FB7 CB02010E 810A4308 8741AA89
0A224A01 30796213 82044221 00088302 6FC68B01 018001A0 8801D081 08130014
FA00FB8F 02810813 0014FB90 FC940181 08130014 FC95FDE7 02810813 D1DD0000
FFFE0181 0813D2DD 0000FFFE 01810813 D3DD0000 FFFE0181 0813D4DD 0000FFFE
01810813 D5DD0000 FFFE0181 0809F181 0000FFFE 04810813 D0DD0000 FFFE0130
18621182 02412183 026FD98B 01078001 0F8801E8 81031300 14301E62 11820241
2183026F E38B0108 80011288 01F00201 0C810613 00140000 01301562 13820442
21003683 026FE48B 01088001 368801C0 30158000 62118202 78218302 7F108B01
0CC60201 81880030 81BF6213 82044221 00308302 6F068B01 01800201 B0880081
1B8401D4 A4068301 0A950108 80010190 0080011E A4068301 0A950108 02011581
118C02A0 E8900080 0107A406 83010A95 01080201 1F812184 01D4A406 83010A95
01088001 03A40683 01019501 0880015C A4068301 0A950108 02010F81 218401D4
A4068301 0A950108 800101A4 06830101 95010880 015EA406 83010A95 01080201
0F811680 0103A406 83010195 01088001 1CA40683 010A9501 0802011A 810B8001
1FA40683 010A9501 08301362 11820278 2183025F 3A8B0102 C6020181 8800301A
62188204 42210022 83024F3A 8B010380 01448801 08A503C0 0140301A 62188204
42210002 83024F21 8B010380 01048801 58A503C1 01003017 62118202 41218302
4F248B01 03800102 8801F081 02000030 19621182 02412183 024F228B 01038001
048801E0 81040000 00003017 62118202 41218302 4F238B01 03800102 8801E881
02000030 1A621882 04422100 0283024F 098B0103 80010488 0148A503 C1010030
37621282 04422100 2183024F 308B0104 80012188 008121A8 0FC0034F 3A01C503
4F0909C9 034F210B AA0EC203 4F4A08C7 024F4BCB 034F3D0F 30156213 82044221
000D8302 4F4A8B01 03800182 88011830 16621482 04422100 2883024F 4B8B0103
80020190 88012030 15621382 04422100 0F83024F 3D8B0105 80019688 0178302C
80027F10 62128204 4221004B 83026FE5 8B010580 014B8800 81128010 74656C3A
2B313331 32333134 39383130 30176212 82044221 00FF8302 6F538B01 068001FF
88008101 00A130A0 05800081 0108A127 30256223 82027821 83027FF2 8410A000
00008710 04FFFFFF FF890302 00008B01 0DC60201 818800A4 45A00580 00810109
A12CA12A 80010181 01018210 AAAAAAAA AAAAAAAA AAAAAAAA AAAAAAAA 8310FF72
2A0FEAC0 876C92C1 9C8A973E 37828306 00020000 00008406 07FFFFFF FFFFA222
A0058000 81010AA1 19A01730 15800200 81810832 323232FF FFFFFF82 02008183
0103A182 0798A005 80008101 0BA18207 8D303C80 027FF262 14820442 21002083
028F068B 038F0601 80014088 00811080 01019000 800104A4 0683010A 95010802
0110810B 800144A4 0683010A 95010830 81936214 82044221 00328302 6F068B01
01800202 EE8801B8 811B8401 D4A40683 010A9501 08800101 90008001 1EA40683
010A9501 08020117 81168001 01A40683 01019501 0880011E A4068301 0A950108
02011C81 10800101 90008001 1EA40683 010A9501 08020122 81168001 03A40683
01019501 0880011C A4068301 0A950108 02011C81 1080011B 97008001 04A40683
010A9501 08301762 11820241 2183026F 078B0102 80010288 01388102 80003018
62118202 41218302 6FAD8B01 03800103 88011881 03000000 30226211 82024121
83026F03 8B010280 01328801 28810D80 0B6F6E65 2E617474 2E6E6574 304E6214
82044221 004B8302 6F048B01 02800201 2C880120 8121801F 7369703A 33313031
35303939 39393939 39393940 6F6E652E 6174742E 6E657402 012A8102 80000201
49810280 00020149 81028000 30366211 82024121 83026F02 8B010280 014B8801
10812180 1F333130 31353039 39393939 39393939 40707269 76617465 2E617474
2E6E6574 30576212 82044221 002E8302 6F428B01 0480018A 8800812D 534D5320
53657474 696E6773 FFFFFFFF FFFFE1FF FFFFFFFF FFFFFFFF FFFFFF07 91910773
9608F0FF FFFFFF00 00020101 8105456D 70747902 01298105 456D7074 79301580
00621182 02782183 027F668B 010CC602 01818800 30286212 82024121 83026FD1
8B032F06 0E800110 88000201 01810F00 FF000000 00000000 00000000 00003026
62128202 41218302 6FD28B03 2F060F80 01108800 81100000 00000000 00000000
00000000 00003015 62138202 78218302 5F108B03 2F060CC6 02018188 00303F62
12820241 2183024F 108B032F 06108001 29880081 29496E66 696E656F 6EFFFF53
4C493937 43465831 4D303050 45FF0080 000347D8 06551804 93E00020 00073054
62128202 41218302 4F118B03 2F061080 01468800 813E4F62 65727468 7572FFFF
5553494D 2056332E 31FFFFFF FFFFFF49 4F323735 FFFFFFFF FFFFFFFF FFFF5631
2E30FFFF FFFFFFFF FFFFFFFF FF523130 2E312E30 303D6212 82024121 83024F12
8B032F06 10800145 88008127 55494343 2D472056 332E31FF FFFFFF56 31312E31
312E3030 3031FFFF FFFFFFFF FFFFFF34 30393530 1C621282 02412183 024F138B
032F0610 80011588 0081063F 3F3F3F3F 3F301980 027F6662 13820278 2183025F
308B032F 060CC602 01818800 301A6212 82024121 83024F30 8B032F06 0E800104
88008104 01000001 30706214 82044221 00078302 4F318B03 2F060E80 01468800
81070000 00000000 00810700 00000000 00008107 00000000 00000081 07000000
00000000 81070000 00000000 00810700 00000000 00008107 00000000 00000081
07000000 00000000 81070000 00000000 00810700 00000000 0000302E 62148204
42210003 83024F33 8B032F06 0E80010F 88008103 13F00081 0303F200 810333F4
008103DD FD018102 00003019 62128202 41218302 4F348B03 2F060E80 01038800
81031300 14307062 14820442 21000783 024F358B 032F060E 80014688 00810700
00000000 00008107 00000000 00000081 07000000 00000000 81070000 00000000
00810700 00000000 00008107 00000000 00000081 07000000 00000000 81070000
00000000 00810700 00000000 00008107 00000000 00000030 17621282 02412183
024F368B 032F060E 80010188 00810103 30196212 82024121 83024F37 8B032F06
0E800103 88008103 000F0C30 22621482 04422100 0283024F 388B032F 060E8001
0A880081 0244F081 0244F181 0254F030 70621482 04422100 0783024F 398B032F
060E8001 46880081 07000000 00000000 81070000 00000000 00810700 00000000
00008107 00000000 00000081 07000000 00000000 81070000 00000000 00810700
00000000 00008107 00000000 00000081 07000000 00000000 81070000 00000000
00301462 12820241 2183024F 408B032F 06088001 2D880030 1980027F 66621382
02412183 026FD38B 032F060F 80020100 88003015 62138202 78218302 5F208B03
2F060CC6 02018188 00301462 12820241 2183024F 208B032F 06108001 09880030
36621282 02412183 024F218B 032F0610 80012088 00812000 00000000 00000000
00000000 00000000 00000000 00000000 00000000 00000030 18621282 02412183
024F228B 032F0610 80010288 00810203 01301C62 12820241 2183024F 238B032F
06108001 06880081 06030403 000F0030 2A621282 02412183 024F248B 032F0610
80011888 0081140A 81111143 0020FFFF FFFFFF07 91414027 9508F030 16621482
04422100 0783024F 258B032F 06108001 46880030 18621282 02412183 024F268B
032F0610 80010288 00810201 01301462 12820241 2183024F 278B032F 06108001
09880030 26621282 02412183 024F288B 032F0610 80011088 00811000 00000000
00000000 00000000 00000030 14621282 02412183 024F298B 032F0610 80010C88
00301462 12820241 2183024F 308B032F 06108001 8C880030 1980027F 66621382
02782183 025F408B 032F0602 C6020181 88003014 62128202 41218302 4F448B03
2F060F80 01018800 30148000 62108202 78218302 7F208B01 02C60101 8800A682
012AA005 80008101 0DA14D4F 07A00000 01515350 4F08A000 00015153 50414F08
A0000001 51000000 4F08A000 00015100 00008203 82FC8083 010FC90B 81028000
81028104 8201F0EA 0F800D01 00100000 02010003 00005500 A2819830 22950138
82010183 01013017 30158001 808610F8 19583910 2919DEAB 90894719 8438FA30
22950134 82010283 01013017 30158001 808610F8 19583910 2919DEAB 90894719
8438FA30 2A9501C8 82010383 0101301F 301D8001 808618FF FFFFFFFF FFFFFFFF
FFFFFFFF FFFFFFFF FFFFFFFF FFFFFF30 2295013C 82010183 01403017 30158001
858610F8 19583910 2919DEAB 90894719 8438FAA3 37043500 70326630 732E0607
2A864886 FC6B0160 0B06092A 864886FC 6B020202 63090607 2A864886 FC6B0364
0B06092A 864886FC 6B048000 A882043E A0058000 81010EA1 8203CD4F 10A00000
00770107 00133000 00000000 014F08A0 00000151 000000C4 8203AD01 001ADECA
FFED0102 04000110 A0000000 77010700 13300000 00000001 02001F00 1A001F00
14003100 4E001E01 8F000A00 41000000 CB000600 00000003 01000400 31030301
07A00000 00620101 000110A0 00000009 0005FFFF FFFF8912 00000000 0110A000
00000900 05FFFFFF FF891100 00000300 140110A0 00000077 01070013 30000100
00000100 1906001E 43800301 00010504 000100C7 FFFF018C 00CB0059 81080108
81070080 02000701 8F030068 805A00C4 001100CD 802F00FE 00120115 8073018A
00120531 8F000C3D 8C00052E 1B181D04 41181D25 8B00088D 00073D7F 00021090
8E02000E 00048D00 067F0003 7A021018 8C000911 0100900B 7F000118 07900B87
007A0544 8D000A28 048D000B 28050329 0615041D 048E0300 0F023B15 04037B00
01031504 8E01000F 038E0500 0F063B15 058E0100 0D0D1505 7B000105 15048E01
000F0305 438E0400 0D0E1505 8E01000D 18290616 061F6C15 1E1E0443 5B31600D
15058E01 000D1829 0670EA70 0428077A 01301877 05217B00 03113F00 8E020010
017B0003 117FDE8E 02001001 7B000311 6F6F8E02 0010017B 000303AD 0003078E
05001004 3B70192D AD000310 2038AD00 040638AD 00051010 38AD0006 06387B00
03113F00 8E020010 017B0003 117FDE8E 02001001 7B000311 6F5F8E02 0010017B
0003037B 00010304 8E050010 043B7B00 01032510 AD6B2018 10ADAD00 0425AD00
03258B00 041810DA AD000625 AD000525 8B000470 1E1810DA AD000625 AD000525
8B000418 10ADAD00 0425AD00 03258B00 0470032D 7A00207A 08000A00 06000300
00000000 0005004E 00130200 00000500 00000500 00020500 00040300 00800600
00440682 03000681 10000380 03020680 03000681 0C000681 0E000100 00000181
05000181 09000181 03000182 00000181 0D000182 02000900 41000E57 9C0D0605
0641040A 040C040A 04002F07 08080504 0C030406 05030708 0C050D08 07050806
07070716 13070407 04070409 1E070407 04070404 0605140E 100E0B00 CB010001
00000300 04000681 08810780 02000200 00000028 FF080000 000028FF 08000002
002AFF0A 00000400 2E800000 59003200 6C000100 00050100 C7004A00 02000000
00080100 CB005100 BF000200 01070101 8C005300 01000000 00000900 19003F00
29000000 00018400 44003500 13000000 00001300 28002800 2A002E00 32003500
37003B00 3F003500 420046FF FFFFFFFF FFFFFFFF FFFFFFFF FF01B005 68109005
68200004 33310110 06368200 05681090 04B43105 68103005 6810500B 68006368
00200241 066800A1 A2643062 4F10A000 00007701 07001330 00000000 00014F10
A0000000 77010700 13300001 00000001 4F10A000 00007701 07001330 00000100
01008203 000000C9 04000100 00EF08C7 02FFFFC8 02FFFFEA 158007FF 00100000
00008104 00010000 82040001 0000A882 1322A005 80008101 0FA18212 B24F10A0
00000521 0002FFF1 F41089A0 0001504F 08A00000 01510000 00C48212 9201001A
DECAFFED 01020400 0110A000 00052100 02FFF1F4 1089A000 01500200 1F001A00
1F001400 6101DA00 310D0400 9A022000 00000000 2A001500 51060100 04006106
000107A0 00000062 00010001 10A00000 00090005 FFFFFFFF 89110000 00020107
A0000000 62010100 0110A000 00000900 05FFFFFF FF891200 00000101 10A00000
00871005 FFFFFFFF 89132000 00000110 A0000000 090005FF FFFFFF89 13000000
03001401 10A00000 05210002 FFF1F410 89000001 5000AC06 00310080 00010001
01020000 0047008F 44820323 00120506 0000017D FFFF017A 01660181 0CA58202
00830801 09830700 84000007 0D040701 83018703 0C002401 83818703 0E002503
AC802103 CF004E03 D0802D03 FF004E07 24800C07 32006008 1480F309 13002509
08800809 13002502 10188C00 3E18048D 00358700 7A09421D 1100FF53 29051811
3F00112F 008B0053 AD001605 07061A1F 59030104 8E070059 063BAD00 16050707
1A1F1A1F 0443258E 07005906 3B1A1F1A 1F044325 048D0026 28041504 770230AD
00113F00 8E020059 01AD001D 8E020059 01AD001E 8E020059 017A0531 8F00273D
8C00332E 1B181D04 41181D25 8B00341B 048D0035 87011B8D 003D8702 1B830210
7F8E0200 3F001B83 02048E02 003F001B 7B00407B 00409203 8C00451B 8B00467A
0510188C 00521810 0A900B87 03181009 900B8704 18100990 0B870518 1009900B
87061810 09900B87 07181020 900B8708 18101090 0B870918 100F900B 870A1810
10900B87 0B180490 0B870C18 100C900B 870D1810 0C900B87 0E180790 0B870F18
11009604 8D004D87 10180490 0B3D0303 3887117A 0310188F 00553D8C 00588712
18AD1283 0087017A 00207A01 30187704 241D107F 6B12AD02 038E0200 3F0A1804
88131804 88141D04 A300C4AE 149800BF 7B00282D 18038814 188C0029 188C002A
188C002B 188C002C AD02101E 8E02003F 0A188C00 2D98008A 188C002E 8D002F2E
188C0030 29041816 041B8C00 31290516 05615018 8C0032AE 156005AD 062DAE16
6041AE17 603D188C 00366137 188C0037 6108188C 0038602B 188C0039 188C003A
188C003B 188C003C 18038918 18038919 1803891A AD02AF1B 8E02003F 0A180388
13160510 306B0AAE 1560067B 00412D16 0510206B 0AAE1560 067B0042 2D700AAE
1560067B 00432D18 1A8C0044 1D1013A3 00A9AE13 9900A48D 002F2D18 3D851904
418919AF 19AF1CAF 18AF1D45 41A3008B 183D8518 04418918 181A8C00 47321F61
79188C00 48605E18 1A8C0049 2904183D 851A0441 891A1604 611BAD02 101E8E02
003F0A18 04881318 8C004A18 8C004B18 8C004C16 0410306B 0FAD0210 1E8E0200
3F0A1804 88131604 10206B17 AF1A0443 AF1E6C0F AD02101E 8E02003F 0A180488
137017AD 02101E8E 02003F0A 18048813 188C004A 188C004B 70062D7A 2D7A7A02
30AD0111 3F008E02 005901AD 01117F66 8E020059 011E600C AD01115F 208E0200
5901AD01 1D8E0200 59017A05 10AD0111 3F008E02 005901AD 01117F66 8E020059
01AD0111 5F408E02 005901AD 01114F44 8E020059 01AD0103 AD0C03AD 0C928E05
0059043B 7A02201D 63081D11 01004178 1D780510 AD01113F 008E0200 5901AD01
112FE28E 02005901 AD0103AD 0303AD03 928E0500 59043B7A 0511AD12 04AD0405
8B004F2C 19116F07 8E020059 011903AD 0403AD04 928E0500 59043B70 032CAD01
113F008E 02005901 AD01117F 208E0200 5901AD01 116F078E 02005901 AD0103AD
0403AD04 928E0500 59043B70 032C7A05 1018114F 22048C00 50AD0103 AD100305
8E050059 043B1818 AD100325 8C005189 1F18AD10 04258820 7A051018 114F2304
8C0050AD 0103AD10 0310068E 05005904 3B1818AD 1003258C 0051891C AF1C6106
1804891C 1818AD10 04258C00 51891DAF 1D610618 04891D18 18AD1005 258C0051
891E18AD 10068D00 54891BAF 1B113BC4 6E06AF1B 63081811 3BC4891B AF1B6106
1804891B 18AD1008 2588217A 05101811 4F24048C 0050AD01 03AD1003 10188E05
0059043B AD1003AD 0D03AD0D 928D0056 3BAD10AD 0D92AD0E 03AD0E92 8D00563B
7A051018 116FD203 8C0050AD 0103AD09 03AD0992 8E050059 043B7A05 1018114F
28048C00 50AD0103 AD0B03AD 0B928E05 0059043B 7A051018 114F2704 8C0050AD
0103AD05 03AD0592 8E050059 043B7A05 1318101E 8D005788 22181100 8E8D0057
88231810 198D0057 881703AD 0803AD08 928D005A 3B18117F 66115F20 114F218B
005B301D AD08926E 10AD0103 AD08031D 8E050059 057032AD 0103AD08 03AD0892
8E050059 051DAD08 92433103 321F1E6D 18AD01AD 08921F41 7B005C03 048E0500
59055903 0170E87A 05101811 6FD1038C 0050AD01 03AD1003 10068E05 0059043B
AD100725 61081803 88157006 18048815 AD100825 61081803 88167006 18048816
7A0112AE 15600DAE 226106AE 23600504 70030330 AE166011 AE17600D AE226106
AE236005 04700303 311D6105 1E600404 78037805 2018114F 20048C00 50AD0103
19031992 8E050059 057A0510 18114F28 048C0050 AD0103AD 0903AD09 928E0500
59057A06 1118AD10 7B005D92 18AD0D8C 005E417B 005F9241 258C0051 04413018
114F3004 8C0050AD 0103AD10 7B005D92 18AD0D8C 005E417B 005F9241 1D8E0500
59057A05 4018114F 29048C00 50AD011F 19031E8E 05005905 7A0212AE 23600AAE
20046B05 04700303 30AE2261 0AAE2004 6A050470 0303311D 61051E60 04037804
78073603 29051D60 121A1026 0410828E 04006117 10143270 111A1026 10081082
8E040061 17106232 1A8E0100 61182904 59050116 04600C16 04046A07 1604056B
558D0062 28071507 1F048E03 00630229 06160604 6A071606 056B3B1D 60161507
1FAD0603 8E040063 083BAD06 10080238 70221507 1FAD0603 8E040063 083B7014
28081507 1F0404AD 06031009 8E070063 093B0378 16041030 6C051030 78160504
43AF1FA4 FF631020 78051103 301DAD06 926D17AD 071DAD06 1D257B00 641D2553
381D0441 5B3070E7 AD07037B 006503AD 07928D00 66610404 78037805 10AD0503
AD0603AD 05928D00 66610403 78047805 10AD0B03 AD0903AD 0B928D00 66610403
78047804 23191026 0310828E 04006117 198E0100 6118311E 600A1E04 6A061E05
6B358D00 62280415 04101304 8E030063 02321F04 6A061F05 6B1D1504 1013AD0A
038E0400 63083BAD 11031504 8E010063 035B3803 78104078 071A1811 4F25048C
0050AD01 030503AD 10031007 8E070059 063BAD10 0325026B 11AD1004 25026B0A
AD100525 02A200D9 05301D9A 00D3AD10 1D25100F 53321F10 0D6A11AD 0A1D2510
0F53311F 1E6A05A8 00B71D04 6B05A800 A8AD101D 251100F0 535B2905 160510D0
6A16AD0A 1D251100 F0535B29 04160516 046A05A8 008B1D99 007FAD0A 068D0054
2906AD10 068D0054 2907AD10 088D0054 29081606 622E1607 62101606 16076C05
04700303 29097005 03290916 08621016 0616086E 05047003 03290A70 3104290A
702C1607 62070429 09700E16 0616076C 05047003 03290916 08620703 290A700E
16061608 6E050470 0303290A 16096008 160A6004 04781D04 435B30A8 FF2FA8FF
042C0378 0110AE21 75002100 02000100 0D000200 17188C00 67600404 78037818
8C006761 04047803 78047802 22199231 03321F1E 6D0F191F 25026B04 1F785903
0170F11E 78062504 900B3D03 03382805 04900B3D 03033828 06191013 0310838E
04006117 19087B00 5C03038E 0500680F 18AD0E8C 005E311E 65101910 06AD0E04
1E04438E 0500680F 1505037B 00699205 415B3815 05033E25 AD049205 415B415B
38150503 3E25AD05 9205415B 415B3815 05033E25 AD069205 415B415B 38150503
3E25AD08 9205415B 415B3815 05033E25 AD099205 415B415B 38150503 3E25AD03
9205415B 415B3815 05033E25 AD110325 05415B41 5B381505 033E25AD 0B920541
5B415B38 1505033E 25AD0C92 05415B41 5B380332 7B005D03 AD101F7B 005D928D
00563B1F 7B005D92 4132AD0D 03AD101F 18AD0D8C 005E8D00 563B1F18 AD0D8C00
5E41327B 005F03AD 101F7B00 5F928D00 563B1F7B 005F9241 32150503 AD101F15
05928D00 563B1F15 05924132 7B006A03 AD101F7B 006A928D 00563B1F 7B006A92
41327B00 6903AD10 1F7B0069 928D0056 3B1F7B00 69924132 7B006B03 AD101F7B
006B928D 00563B1F 7B006B92 4132AD04 03AD101F AD04928D 00563B1F AD049241
327B006C 03AD101F 7B006C92 8D00563B 1F7B006C 924132AD 0503AD10 1FAD0592
8D00563B 1FAD0592 41327B00 6D03AD10 1F7B006D 928D0056 3B1F7B00 6D924132
AD0603AD 101FAD06 928D0056 3B1FAD06 9241327B 006E03AD 101F7B00 6E928D00
563B1F7B 006E9241 32150603 AD08925B 38150603 AD101F04 8D00563B 590301AD
0803AD10 1FAD0892 8D00563B 1FAD0892 41327B00 6F03AD10 1F7B006F 928D0056
3B1F7B00 6F924132 AD0903AD 101FAD09 928D0056 3B1FAD09 9241327B 007003AD
101F7B00 70928D00 563B1F7B 00709241 32AD0303 AD101FAD 03928D00 563B1FAD
03924132 7B007103 AD101F7B 0071928D 00563B1F 7B007192 4132AD11 03AD101F
AD11928D 00563B1F AD119241 32AD0A03 AD101FAD 1103258D 00563B1F AD110325
41327B00 7203AD10 1F7B0072 928D0056 3B1F7B00 72924132 AD0B03AD 101FAD0B
928D0056 3B1FAD0B 92413218 8C00737B 007403AD 101F7B00 74928D00 563B1F7B
00749241 32AD0C03 AD101FAD 0C928D00 563B1FAD 0C924132 19100BAD 10031F8E
0500680F 198E0100 61182904 16046011 1604046A 0C160405 6A071604 076B0403
78160410 306C0510 30781020 780510AD 0603AD05 03AD0592 8D00563B 18114F27
048C0050 AD0103AD 0603AD06 928E0500 59057A05 438D0075 2804AD01 113F008E
02005901 AD011D8E 02005901 AD011E8E 02005901 AD011F15 04031504 928E0500
59002905 05290616 0616056D 25150416 06251080 6B0C1504 16060541 8D005478
16061504 16060441 25054141 290670D9 03780800 9A002A00 15001503 00015003
00025001 030009AA AAAAAAAA AAAAAAAA 030009BB BBBBBBBB BBBBBBBB 030009CC
CCCCCCCC CCCCCCCC 030009DD DDDDDDDD DDDDDDDD 03000100 03000211 00030003
00F4FF03 0002EE01 03000220 0A030001 21030002 22090300 02230903 00022409
03000125 03000226 10030002 27100300 02280103 0009F0FF FF0F0000 00000003
00090001 01030000 00000000 00000005 01DA0076 02000000 02000E01 02000E00
02000E02 02000E03 02000E04 02000E05 02000E06 02000E07 02000E08 02000E09
02000E0A 02000E0B 02000E0C 02000E0D 02000E0E 02000E0F 02000E10 02000E11
02000E18 02000E17 02000E12 02000E13 02000E16 02000E20 02000E21 02000E22
02000E1E 02000E1B 02000E1C 02000E1D 02000E19 02000E1A 02000E1F 02000E14
02000E15 01830D00 01810200 06810302 01000E00 05000004 06000521 060004ED
06000507 0600059A 060005D3 06000401 06830E00 0600068B 060006B3 060004D3
060000F2 03820302 06810300 0600075B 0600078D 060007A1 0600042B 0600049E
06000384 060003AA 06831000 06800000 01830900 05000002 05000008 0500000A
05000006 06000605 06000675 03000E08 060007B5 06000916 06000957 06000C7F
0600061C 06000635 0682080D 01800200 03000001 06000311 06000377 06820300
03000002 06821004 01000000 06821001 06830B02 06000039 01810000 06830B04
03000E0A 0500000C 0500000E 0600093D 05000010 01800500 01830500 06831100
01830000 05000026 05000028 06821000 0600080A 01830200 05000000 05000012
05000018 0500001A 0500001C 0500001E 05000020 05000014 05000016 05000022
0600033D 05000024 06850100 09022001 28451612 250A0823 06030A24 07070707
07070707 06070706 0A0A0D03 0202110A 04070B12 2F040304 28040402 0209080E
0A130B04 02020202 09041A04 060B140B 0804040B 040B130A 0D0A0B0A 0A0A0A03
03190A0A 03030C03 12030C0A 0A0A0303 17030C07 03040D03 0D070206 04070206
04070306 02070802 0603040D 030B0303 07020303 12030314 03031403 03120908
03031605 030B0303 090B021F 030B0806 02080605 04040904 04041D17 03030C07
1A03071C 0E040A04 74090B12 1A0D0503 12070E03 030E0303 47091B05 0B07070E
0D161118 08087C6B 0C1B0E0E 0E0E0E0E 0F0E0F12 03040B0B 15141616 12030308
09120303 08091203 03080915 080B0303 08091203 03080912 03030809 12030308
05030309 0A120303 080D1203 03080834 03030F03 03100A08 0800F407 08080808
08080605 1610130D 10080807 040C0506 0B090503 05040761 13041F16 09040404
08050703 05090A13 06060604 04041412 0E0A060E 23080716 0904040E 1B0F0904
120A0D08 0D0A0A0A 0E1B0A0E 0E090D0E 0A0A0E10 0B0B140C 0B131309 2D0C0E0F
0C0D0D0D 0D0D0B09 080C0E12 10170611 0C5F0B0C 0D0A0704 060B0807 04070C0A
3C110917 0A1A1414 2D110714 14120610 0B150B12 0E700808 890A4006 06071107
89070405 0F030805 0704050F 0A070405 06070405 06070405 0F0A0704 050F0A07
04050F0A 07040515 100A0704 050F0A07 04050F0A 0704050F 140B0704 050F0B03
0704050F 12063209 0D070B08 080E1EA2 6330614F 10A00000 05210002 FFF1F410
89A00001 504F10A0 00000521 0002FFF1 F4108900 0001504F 10A00000 05210002
FFF1F410 89100001 50820300 0000C900 EF08C702 FFFFC802 FFFFEA18 800A2000
10000002 01000000 81040001 00008204 00010000 A88213DB A0058000 810110A1
8213414F 10A00000 05210002 FFF1F410 89A00002 544F08A0 00000151 000000C4
82132101 001ADECA FFED0102 04000110 A0000005 210002FF F1F41089 A0000254
02001F00 1A001F00 14007401 5E00350E 45005D02 10000000 00000E00 07003E07
01000400 74070001 07A00000 00620001 030107A0 00000062 01010001 10A00000
00090005 FFFFFFFF 89120000 00010110 A0000000 871005FF FFFFFF89 13200000
000110A0 00000009 0005FFFF FFFF8911 00000000 0110A000 00000900 05FFFFFF
FF891300 00000002 10A00000 00770003 FFFFFFFF 89107100 02030014 0110A000
00052100 02FFF1F4 10890000 025400AA 06003580 4581030B 00040506 000000FE
FFFF00DA 00E30102 0D458102 00820801 09820700 83000000 00000080 00020002
01020000 0DD60DF3 070E4512 01F3002C 0221001B 02220027 024B001C 01E68066
024E001C 025B8025 0282001B 0283802A 02AF001C 04BB802C 04E9002D 06DF8059
073A001B 08428051 0896001B 08948002 0896001B 0951801E 0970001C 09918033
09C6001C 09C88031 09FB001C 0A018032 0A39001C 0A348005 0A39001C 0A7C8076
0AF4001C 0AF68074 0B6C001C 0C258049 0C6E001C 0CE6804D 0D36001B 0310188C
000F1803 88001803 88011811 00AA048D 000E8702 7A05328F 00103D8C 00112E1B
181D0441 181D258B 00128D00 14280415 04048E02 001A0015 04107F8E 02001A00
1B8B002A 7A012011 6D008D00 307A0310 188F0045 3D8C000D 870318AD 03830487
0518AD03 83068707 7A013018 7702201D 75002A00 04000100 1B000F00 25001300
25007F00 15188C00 13701118 03880818 8C001570 07181D8C 00167A04 118D0014
2C7B0017 037B0017 928D0018 602F18AD 0504058C 00196117 18AD0504 068C0019
610D18AD 0504100C 8C001960 1019100F 8E02001A 00180389 09701419 100F8E02
001A0360 0A19100F 8E02001A 027A0513 18AD058C 001DAD05 116FD28E 02001E01
188D001F 03117F66 116FD28B 002030AD 02031D03 8D00213B AD0503AD 02031D8E
05001E05 18AD0504 100D8C00 1998008F 18AD058C 001DAD05 116FD18E 02001E01
AD020303 38AD0503 AD020304 8E05001E 05188C00 226162AD 02038D00 2331AD07
116F7B8E 02001E01 AD038D00 1F03116F 7B116F7B 8B002432 1E1F8D00 2532AD07
03AD0205 1F8E0500 1E057003 2E18AD05 8C002618 8D001F03 117F2011 6F7B8B00
20321E1F 8D002532 AD0503AD 02051F8E 05001E05 70032E70 642D7061 18AD0504
038C0019 6057AD03 8D001F03 116F7B11 6F7B8B00 2431AD02 031E028D 00213BAD
0703AD02 031E8E05 001E0570 032D18AD 058C0026 188D001F 03117F20 116F7B8B
002031AD 02031E02 8D00213B AD0503AD 02031E8E 05001E05 70032D18 AD0518AD
05068C00 278C0028 3B18AD05 18AD0505 8C002760 05047003 038C0029 3B180388
0AAE0004 6B0B1804 8C002B18 03880018 8C002C7A 0726AE08 60037A18 AD058C00
2E3118AD 058C002F 32AD0210 0E0338AD 02100F03 38180388 0B1D100F A302498D
00312804 1504101B 048E0300 32029802 35150403 8E020032 04750151 00020001
00860002 000D18AD 058C0033 188C0034 980213AE 0A99020E 188C0035 046B5B18
04880A18 04890918 04880118 AD058C00 36AD0511 4F378E02 001E01AD 0503AD02
03058E05 001E043B AD02038D 00232905 1605113B C46E0616 05630711 3BC42905
16056105 0429058D 00142806 15061605 8E02001A 0AA801AE 188C0037 A801A718
AD058C00 33032905 18AD0504 068C0019 606118AD 0503048C 00196057 04290518
038C0038 1100E053 61490529 05188C00 39042906 03290716 077B003A 926D20AD
0210077B 003A1607 268D003B 3B188C00 3C600703 29067007 59070170 DC160660
1218AD05 048C0029 60091811 6F158C00 3D188C00 3498012E AE0A6109 188C0037
A80123AE 0A04A301 1DAE0105 6B291605 75002200 02000000 0D000200 1E18038C
00381100 E0536004 700A188C 0039188C 003EA800 F1188C00 378D0014 28061506
101E8E02 001A0AA8 00DC1504 10130403 AD020508 8E070032 093B18AD 0504058C
00196075 18AD0503 038C0019 606B114F 31290610 478D003F 603E1810 068C0038
1100FC53 61328D00 40280715 07103FAD 02038E04 0032083B AD020325 10086B09
114F3929 06700DAD 02032560 07114F35 29067004 280718AD 058C0036 AD051606
8E02001E 0118AD05 18AD058C 00416005 04700303 8C004218 AD050406 8C001960
1218AD05 03048C00 19600818 AD058C00 43188C00 34602EAE 0A610818 8C003770
24AE0A04 6B1FAE01 056B0818 8C003E70 14188C00 378D0014 28061506 101E8E02
001A0A70 3FAE0104 6B3AAF09 188C0044 6B2A1805 88011818 8C003588 0C18AD05
0310068C 00196009 18068C00 2B700718 038C002B 188C0046 700A183D 85090441
8909AD02 100E2598 010E8D00 47046A4E 03290403 29051605 AD02100E 256D3FAD
02101016 05418D00 23290616 06113F00 6B070429 04701E16 04601716 06117F20
6B10AD02 10101605 41117FFF 8D003B3B 03290416 0505415B 290570BC 03290418
04880803 29051605 066D3D8D 00482806 15060404 10828E04 00491715 061012AD
02100FAD 02100E25 04418E05 004A0F15 068E0100 49181100 FC536107 04290470
07590501 70C21803 88081604 613B18AD 051E8C00 283B18AD 051F8C00 293BAE0B
6055AE01 066B0D18 048C002B 18038801 704518AE 0C8C002B 18188C00 44054789
09180488 017030AE 0B602CAE 01056B1A 18038909 18048800 8D001428 05150510
1E8E0200 1A0A700F AE01066B 0A180389 09180388 017A0420 18190405 8C001960
11181903 038C0019 60081819 038C0042 7A053018 1918191E 8C00278C 00286009
18116F31 8C003D7A 07211819 8C003619 114F338E 02001E01 19030503 AD021007
068E0700 1E063BAD 0210078D 002360EA 188C003C 60E4AD02 10092531 1E750024
00020000 000D0001 000D1819 1E600504 7003038C 0029600D 18116F15 8C003D70
04700270 032D7A04 21AD0210 10AD0210 0E254111 3F008D00 3B31AD02 1E117F20
8D003B31 AD021E1D 8D003B31 AD02100E 1E101043 5B38AD02 100F3E25 04415B38
7A041118 04880BAD 021010AD 02100E25 41113F00 8D003B30 AD021D11 7FFF8D00
3B30AD02 1D117F66 8D003B30 AD021D11 5F308D00 3B30AD02 1D114F36 8D003B30
AD02100E 1D101043 5B38AD02 100F3E25 04415B38 7A022019 113F008E 02001E01
19117F66 8E02001E 017A0220 18198C00 1D19115F 308E0200 1E017A05 4018198C
001D191E 6007116F D1700511 6FD28E02 001E0119 1FAD0203 048E0500 1E043BAD
02032560 05047003 03780530 18198C00 3619114F 308E0200 1E01191E AD020304
8E05001E 043BAD02 03257807 22190305 03AD0210 0710078E 07001E06 3B7B004B
03AD0210 0710078D 004C60E3 188C004D 60DD1180 0031AD02 088D0023 11800043
32AD0210 0A8D0023 11800043 1F6E121F AD02100C 8D002311 8000436E 04047870
AE2D0378 0110188C 003C600B 188C004E 60050470 03037803 10187B00 4F038C00
50780411 AD020625 301D1100 F053610C AD02061D 1100F055 5B38AD02 10082530
1D1100F0 53610DAD 0210081D 1100F055 5B38187B 0051048C 00507803 35AD0205
1E418D00 2332AD02 10071E41 8D002329 04032905 1605066D 2C191605 26290616
04160653 29071607 1F160653 6A0E1607 160611DD DD536A04 03781605 04415B29
0570D304 78022019 113F008E 02001E01 19117F20 8E02001E 017A0521 18198C00
2619116F 318E0200 1E011903 AD020304 8E05001E 043BAD02 0325782D AD07116F
318E0200 1E01AD07 03AD0203 048E0500 1E043BAD 02032578 05320332 18198C00
2619116F 318E0200 1E011903 AD020304 8E05001E 043BAD02 03251E6A 14AD0203
1E381903 AD020304 8E05001E 05043270 042804AD 07116F31 8E02001E 01AD0703
AD020304 8E05001E 043BAD02 03251E6A 15AD0203 1E38AD07 03AD0203 048E0500
1E050432 70042804 1F780522 18198C00 2619116F 158E0200 1E010331 191EAD02
03058E05 001E043B AD020325 10C06B11 AD020425 11008053 60050470 03037859
020270DA 2DAD0711 6F158E02 001E0103 32AD071F AD020305 8E05001E 043BAD02
032510C0 6B11AD02 04251100 80536005 04700303 78590302 70D90535 03320329
04032905 03290618 198C0026 19116F15 8E02001E 01042905 191604AD 0203058E
05001E04 3BAD0203 2510C06B 1AAD0204 25321F11 00805360 05047003 031E6B1B
03290570 16AD0203 25026B0A AD020310 C0387007 59040270 C1160504 6B21AD02
041E6009 1100801F 55700610 7F1F535B 38191604 AD020305 8E05001E 05700428
07AD0711 6F158E02 001E0104 2906AD07 1604AD02 03058E05 001E043B AD020325
10C06B1A AD020425 321F1100 80536005 04700303 1E6B1B03 29067016 AD020325
026B0AAD 020310C0 38700759 040270C0 1606046B 22AD0204 1E600911 00801F55
7006107F 1F535B38 AD071604 AD020305 8E05001E 05700428 07160561 06160660
04047803 78022019 117F668E 02001E01 19115F30 8E02001E 0119114F 368E0200
1E017A05 21AD072D 181A8C00 52AD0203 1D381A03 AD020304 8E05001E 057A0511
AD072C18 198C0052 1903AD02 03048E05 001E043B AD020325 7804218D 00482D1A
10261D10 828E0400 49171A8E 01004918 7802118D 00142C19 038E0200 1A0A7A04
11048D00 532C1819 04100C8C 00196017 18190306 8C001960 0E181903 078C0019
60050470 03037807 130330AD 02062531 AD02063E 2510F055 3818AD05 8C0036AD
05114F38 8E02001E 01AD0503 0503AD02 03058E07 001E063B AD02043E 2510F055
38AD0203 25AD0205 256BE0AD 020425AD 0206256B D6043070 D22EAD02 061E381D
600C1803 8800188C 00377017 1805880A 18038909 18068801 18048C00 2B188C00
467A0510 18AD058C 0036AD05 114F378E 02001E01 AD0505AD 0203048E 05001E04
3BAD0203 251100FF 53780210 1805880A 18038909 18038801 7A07118D 00402C19
10130403 AD020506 8E070032 093B7A05 11AD0203 038D003B 3B18AD05 8C001D18
8D001F03 115F3011 4F408B00 2030AD05 03AD0205 1D8E0500 1E043B8D 001F031D
028D0021 3B1D6519 AD02031D 8D003B3B AD02058D 001F031D 8D004C60 04037870
052C0478 04780220 1C1D6D04 1C781D78 0552AD05 1F8E0200 1E01AD05 1604191E
101C8E05 001E001E 4129051E 05412906 16061605 6D221916 06251080 6B0B1916
0605418D 00237816 06191606 04412505 41412906 70DC0378 0811188C 00541011
900B2C18 048D0053 87041811 3F00112F 008B0055 AD040407 06190304 8E07001E
063BAD04 04070719 04190325 8E07001E 063B1819 04190325 048D0056 8706012C
7A0230AD 04113F00 8E02001E 01AD041D 8E02001E 01AD041E 8E02001E 017A0552
AD06117F FF8E0200 1E01AD06 1F8E0200 1E01AD06 1604191E 101C8E05 001E001E
4129051E 05412906 16061605 6D221916 06251080 6B0B1916 0605418D 00237816
06191606 04412505 41412906 70DC0378 08005D00 0E000700 07030007 00000000
00000003 0010FFFF FFFFFFFF FFFFFFFF FFFFFFFF FFFF0300 05000080 40110300
04FFFEFF 01040012 13F013F1 13F213F3 13F413F5 13F603F2 33F40400 06F0000F
00000F04 0006F000 00F0000F 00000000 05015E00 57020001 04020001 08020001
02020001 03020027 00020001 00020027 01020001 01020001 0A020001 09020001
07020001 05020001 0606000D 8D068108 0D068103 00010001 00060000 91038103
02060001 83068210 00060001 30060002 E9050000 0406820B 01060007 F0018209
00018402 00018002 00060007 CA018400 00068501 00030001 0A068110 0306000C
E4068110 04030027 0206000D 3B060009 3A060008 1F060009 8D06000A 6F030001
0806000B 9806000B E601820D 00060009 4F060009 FF068107 0106820C 00018200
00060006 AB06000B F406000B B3060007 DF06000C BF06000B CE06000C CE050000
08068110 06060008 AC060007 3C06000C 1C06820B 00068211 00060008 40060006
C6060006 DD06000C 97010027 00060007 76068600 0F06820E 00018205 00018202
00050000 00068110 00060008 99060008 B7050000 0A060008 F0050000 0C06000B
7A068403 00068000 00030027 01068403 02090210 00F49A04 0A460302 02030202
27220A0A 141A0519 09030A0C 050A0503 0F070A16 030D1A03 12091009 030D1409
030D030B 0312020C 09060706 0608300C 0E040403 050A030A 38090A2C 23160B06
470B0A2A 090F1005 0A030F0A 0A0B0A05 1F050A07 031E0402 1607231F 1E042507
0807040C 050C0404 04070412 0704490B 0F33040D 0A080A0F 02040D0A 0A0A0A0A
4B0A1D0A 0B10150B 0F340C0A 0D160966 0A060A03 0A190A07 070F0A03 0A070503
250A0815 0C030A08 350A0818 0712160D 0D040A08 18071213 04390807 0C0A0A57
050A050A 050A0904 06040B0A 0A04040F 050A030A 0D04040E 0D091403 17082208
4E0C0E1A 070A080B 0A080118 07080808 08080808 08080808 08080808 08080610
08040C03 09090509 0704310A 07060404 040A0A0B 090E0A0A 09050A09 0C0A0909
1105080A 060A060C 0A040A06 0C11070A 090C0A04 0A090C0E 030B090F 080E071A
0B0B1404 0C15090C 081C0A08 090B0A0A 0D0B0A06 05170904 0B220C04 07030A12
0A0A0C08 090D2608 0A09080A 08040A10 06030A0E 0B0B0707 04151C26 1F0C1407
20080F0C 051E0A1A 09080B03 0908080E 09062209 1A0A082C 0A0A0A0A 20090908
09100B14 080B1705 0A060C0C 0F13060D 0435040B 0A400909 080B110C 10080B18
100C1910 080D280E 30080F59 0E105A1B 09090C0F 0C0A0C0B 06070708 0909091F
090E3413 0409090C 1F0E0C07 040A0C05 060B0705 1E0D2018 0A0C0C10 0C100808
0D080D20 A2818C30 81894F10 A0000005 210002FF F1F41089 A0000254 4F10A000
00052100 02FFF1F4 10890000 02544F10 A0000005 210002FF F1F41089 10000254
82030000 00C900EF 08C702FF FFC802FF FFEA4080 0A100000 00000201 02000081
18000100 0010A000 00008710 02FFFFFF FF890302 00000100 00821800 01000010
A0000000 871002FF FFFFFF89 03020000 010000A7 46A00580 00810111 4F09A000
00015100 0000014F 08A00000 01510000 00A00504 033F0001 81011204 01000401
00301880 10A00000 00871002 FFFFFFFF 89030200 00810100 820100A7 46A00580
00810112 4F09A000 00015100 0000024F 08A00000 01510000 00A00504 033F0002
81011204 01000401 00301880 10A00000 00871004 FFFFFFFF 89030200 00810100
820100AA 07A00580 00810113