A0 4F 80 01 02 81 01 00 82 14 47 53 4D 41 20 50 72 6F 66 69 6C 65 20 50 61 63 6B 61 67 65 83 0A 
89 89 98 09 01 12 34 56 78 16 A5 06 81 00 84 00 8B 00 A6 10 06 06 67 81 0F 01 02 01 06 06 67 81 
0F 01 02 04 87 0B A0 09 06 07 91 33 86 99 42 11 F0 B0 82 01 F9 A0 05 80 00 81 01 01 81 06 67 81 
0F 01 02 01 A2 07 A1 05 C6 03 01 02 0A A3 05 A1 03 8B 01 0F A4 0C 83 0A 98 98 89 90 10 21 43 65 
87 61 A5 28 A1 0A 82 04 42 21 00 26 80 02 00 98 83 1A 61 18 4F 10 A0 00 00 00 87 10 02 FF 33 FF 
01 89 00 00 01 00 50 04 55 53 49 4D A6 82 01 9E A1 0A 82 04 42 21 00 25 80 02 02 2B 83 1B 80 01 
01 90 00 80 01 02 A4 06 83 01 01 95 01 08 80 01 58 A4 06 83 01 0A 95 01 08 82 01 0A 83 16 80 01 
01 A4 06 83 01 01 95 01 08 80 01 5A A4 06 83 01 0A 95 01 08 82 01 0F 83 0B 80 01 5B A4 06 83 01 
0A 95 01 08 82 01 1A 83 0A 80 01 01 90 00 80 01 5A 97 00 82 01 1B 83 16 80 01 03 A4 06 83 01 01 
95 01 08 80 01 58 A4 06 83 01 0A 95 01 08 82 01 0F 83 16 80 01 11 A4 06 83 01 01 95 01 08 80 01 
4A A4 06 83 01 0A 95 01 08 82 01 0F 83 21 80 01 03 A4 06 83 01 01 95 01 08 80 01 58 A4 06 83 01 
0A 95 01 08 84 01 32 A4 06 83 01 01 95 01 08 82 01 04 83 21 80 01 01 A4 06 83 01 01 95 01 08 80 
01 02 A4 06 83 01 81 95 01 08 80 01 58 A4 06 83 01 0A 95 01 08 82 01 04 83 1B 80 01 01 90 00 80 
01 1A A4 06 83 01 01 95 01 08 80 01 40 A4 06 83 01 0A 95 01 08 82 01 0A 83 10 80 01 01 90 00 80 
01 5A A4 06 83 01 0A 95 01 08 82 01 15 83 15 80 01 01 90 00 80 01 18 A4 06 83 01 0A 95 01 08 80 
01 42 97 00 82 01 10 83 10 80 01 01 A4 06 83 01 01 95 01 08 80 01 5A 97 00 82 01 15 83 16 80 01 
13 A4 06 83 01 01 95 01 08 80 01 48 A4 06 83 01 0A 95 01 08 82 01 0F 83 0B 80 01 5E A4 06 83 01 
0A 95 01 08 82 01 1A 83 25 80 01 01 90 00 80 01 02 A0 10 A4 06 83 01 01 95 01 08 A4 06 83 01 02 
95 01 08 80 01 58 A4 06 83 01 0A 95 01 08 A3 3F A0 05 80 00 81 01 03 A1 36 30 11 80 01 01 81 08 
30 30 30 30 30 30 30 30 82 02 00 99 30 0D 80 01 02 81 08 31 32 33 34 35 36 37 38 30 12 80 02 00 
81 81 08 39 32 39 34 35 36 37 38 82 02 00 88 A2 41 A0 05 80 00 81 01 04 A1 38 A0 36 30 10 80 01 
01 81 08 31 32 33 34 FF FF FF FF 82 01 01 30 10 80 01 02 81 08 31 30 30 30 FF FF FF FF 82 01 02 
30 10 80 01 0A 81 08 35 36 37 38 FF FF FF FF 83 01 01 B3 7C A0 05 80 00 81 01 02 81 06 67 81 0F 
01 02 04 A2 1D A1 1B 83 02 7F F1 84 10 A0 00 00 00 87 10 02 FF 33 FF 01 89 00 00 01 00 C6 03 01 
81 0A A3 0B 83 09 08 29 43 01 91 34 87 67 65 A4 06 A1 04 C7 02 2F 06 A8 0F 83 0D 0A 2E 17 8C E7 
32 04 00 00 00 00 00 00 AD 13 83 11 02 47 53 4D 41 20 65 55 49 43 43 FF FF FF FF FF FF AE 03 83 
01 00 B2 04 83 02 00 40 B6 06 83 04 19 F1 FF 01 A2 25 A0 05 80 00 81 01 28 A1 1C A0 1A 30 18 80 
02 00 81 81 08 39 32 33 38 FF FF FF FF 82 02 00 81 83 01 01 84 01 22 A4 3A A0 05 80 00 81 01 05 
A1 31 A1 2F 80 01 01 81 01 01 82 10 00 01 02 03 04 05 06 07 08 09 0A 0B 0C 0D 0E 0F 83 10 01 02 
03 04 05 06 07 08 09 0A 0B 0C 0D 0E 0F 00 86 03 01 02 03 A6 82 01 2C A0 05 80 00 81 01 06 A1 48 
4F 07 A0 00 00 01 51 53 50 4F 08 A0 00 00 01 51 53 50 41 4F 08 A0 00 00 01 51 00 00 00 82 03 82 
FC 80 83 01 0F C9 0E 81 02 80 00 81 02 03 70 82 01 F0 87 01 F0 EA 11 80 0F 01 00 00 01 00 00 00 
02 01 12 03 B2 01 00 00 A2 81 D8 30 22 95 01 38 82 01 01 83 01 01 30 17 30 15 80 01 88 86 10 11 
22 33 44 55 66 77 88 99 10 11 12 13 14 15 16 30 22 95 01 34 82 01 02 83 01 01 30 17 30 15 80 01 
88 86 10 11 22 33 44 55 66 77 88 99 10 11 12 13 14 15 16 30 22 95 01 C8 82 01 03 83 01 01 30 17 
30 15 80 01 88 86 10 11 22 33 44 55 66 77 88 99 10 11 12 13 14 15 16 30 22 95 01 38 82 01 01 83 
01 30 30 17 30 15 80 01 88 86 10 11 22 33 44 55 66 77 88 99 10 11 12 13 14 15 16 30 22 95 01 34 
82 01 02 83 01 30 30 17 30 15 80 01 88 86 10 11 22 33 44 55 66 77 88 99 10 11 12 13 14 15 16 30 
22 95 01 C8 82 01 03 83 01 30 30 17 30 15 80 01 88 86 10 11 22 33 44 55 66 77 88 99 10 11 12 13 
14 15 16 A6 81 C7 A0 05 80 00 81 01 07 A1 50 4F 07 A0 00 00 01 51 53 50 4F 08 A0 00 00 01 51 53 
50 41 4F 10 A0 00 00 05 59 10 10 01 02 73 64 56 61 6C 75 65 4F 08 A0 00 00 01 51 00 00 00 82 03 
80 80 00 83 01 0F C9 04 81 02 80 00 EA 11 80 0F 01 00 00 01 00 00 00 02 01 12 03 6C 75 65 00 A2 
6C 30 22 95 01 38 82 01 01 83 01 01 30 17 30 15 80 01 80 86 10 11 22 33 44 55 66 77 88 11 22 33 
44 55 66 77 88 30 22 95 01 34 82 01 02 83 01 01 30 17 30 15 80 01 80 86 10 11 22 33 44 55 66 77 
88 11 22 33 44 55 66 77 88 30 22 95 01 C8 82 01 03 83 01 01 30 17 30 15 80 01 80 86 10 11 22 33 
44 55 66 77 88 11 22 33 44 55 66 77 88 A7 20 A0 03 81 01 09 4F 09 A0 00 00 05 59 10 10 00 01 A0 
05 04 03 B0 00 00 81 01 12 04 01 00 04 01 00 A7 40 A0 03 81 01 0A 4F 09 A0 00 00 05 59 10 10 00 
02 A0 05 04 03 B0 00 20 81 01 12 04 01 00 04 01 00 30 1E 80 10 A0 00 00 00 87 10 02 FF 33 FF 01 
89 00 00 01 00 81 04 02 00 01 00 82 04 02 00 01 00 AA 07 A0 05 80 00 81 01 63 
