A0328001 02810100 820C4F46 52202D20 45537631 2E32830A 89330116 20269999
9970A506 81008400 8B00A608 06066781 0F010201 B0820863 A0058000 81010081
0667810F 010201A2 12A11082 02782183 023F008B 0102C601 018800A3 1CA11682
02412183 022F058B 01088001 0A880128 A503C001 40830266 72A424A1 16820241
2183022F E28B0109 80010A88 0110A503 C0014083 0A983310 61026299 999907A5
36A11882 04422100 2683022F 008B0124 80012688 01F0A503 C0014083 1A61184F
10A00000 00871002 FF33FF01 89000001 00500455 53494DA6 8207C0A1 19820442
21006483 022F068B 01018002 0E748801 30A503C0 0140833A 80010190 0080011E
A4068301 0A950108 8401D4A0 10A40683 010C9501 08A40683 010B9501 08800140
A010A406 83010C95 0108A406 83010B95 01088201 2A83118C 02A0E890 00800107
A4068301 0A950108 82015383 0B800104 A4068301 0A950108 82015983 16800104
A4068301 0A950108 8401D4A4 0683010A 95010882 014E8305 80010190 0082015F
83108001 1B970080 0104A406 83010A95 01088201 54834F80 01019000 80011AA0
10A40683 010A9501 08A40683 010B9501 08800104 A4068301 0A950108 800140A0
10A40683 010C9501 08A40683 010B9501 088401D4 A010A406 83010C95 0108A406
83010B95 01088201 15836480 01019000 800102A0 10A40683 01019501 08A40683
010B9501 08800104 A4068301 0A950108 800118A0 10A40683 010A9501 08A40683
010B9501 08800140 A010A406 83010C95 0108A406 83010B95 01088401 D4A010A4
0683010C 950108A4 0683010B 95010883 15800101 90008001 02970080 011CA406
83010A95 01088201 4F831580 01019000 80011A97 00800104 A4068301 0A950108
82014F83 15800101 90008001 06A40683 010A9501 08800118 97008201 4F833F80
011FA010 A4068301 0A950108 A4068301 0B950108 800140A0 10A40683 010C9501
08A40683 010B9501 088401D4 A010A406 83010C95 0108A406 83010B95 01088201
25834080 015EA010 A4068301 0C950108 A4068301 0B950108 8401E8A4 0683010C
95010884 01D4A010 A4068301 0C950108 A4068301 0B950108 840188A4 06830101
95010882 01248310 800105A4 0683010A 95010880 01029700 82015483 1B800101
A4068301 01950108 80010297 0080011C A4068301 0A950108 82014983 4A800103
A010A406 83010A95 0108A406 83010B95 01088001 1CA40683 010A9501 08800140
A010A406 83010C95 0108A406 83010B95 01088401 D4A010A4 0683010C 950108A4
0683010B 95010882 011A834A 800101A0 10A40683 010A9501 08A40683 010B9501
08800102 A010A406 83010C95 0108A406 83010B95 01088001 1CA40683 010A9501
08800140 A010A406 83010C95 0108A406 83010B95 01088201 1A834080 0101A010
A4068301 01950108 A4068301 0B950108 800110A4 06830101 95010880 010EA406
83010A95 01088001 40A010A4 0683010C 950108A4 0683010B 95010882 01248340
800103A4 06830101 95010880 011CA406 83010A95 01088001 40A010A4 0683010C
950108A4 0683010B 95010884 01D4A010 A4068301 0C950108 A4068301 0B950108
82012483 5F800101 A010A406 83010195 0108A406 83010B95 01088001 1AA010A4
0683010A 950108A4 0683010B 95010880 0104A406 83010A95 01088001 40A010A4
0683010C 950108A4 0683010B 95010884 01D4A010 A4068301 0C950108 A4068301
0B950108 82010583 40800103 A010A406 83010195 0108A406 83010B95 01088001
10A40683 01019501 0880010C A4068301 0A950108 800140A0 10A40683 010C9501
08A40683 010B9501 08820124 833A8001 01900080 011EA406 83010A95 01088401
D4A010A4 0683010C 950108A4 0683010B 95010880 0140A010 A4068301 0C950108
A4068301 0B950108 82012A83 1A80015F A010A406 83010C95 0108A406 83010B95
01088401 E8900082 014A830B 800104A4 0683010A 95010882 01598316 800104A4
0683010A 95010884 01D4A406 83010A95 01088201 4E830580 01019000 82015F83
5C800118 A010A406 83010A95 0108A406 83010B95 01088001 07A018A4 0683010A
950108A4 0683010E 950108A4 0683010B 95010880 0140A010 A4068301 0C950108
A4068301 0B950108 8401D4A0 10A40683 010C9501 08A40683 010B9501 08820108
833A8001 01900080 011EA406 83010A95 01088001 40A010A4 0683010C 950108A4
0683010B 95010884 01D4A010 A4068301 0C950108 A4068301 0B950108 82012A83
64800101 90008001 02A010A4 06830101 950108A4 0683010B 95010880 0104A406
83010A95 01088001 18A010A4 0683010A 950108A4 0683010B 95010880 0140A010
A4068301 0C950108 A4068301 0B950108 8401D4A0 10A40683 010C9501 08A40683
010B9501 08835F80 0103A010 A4068301 01950108 A4068301 0B950108 800104A4
0683010A 95010880 0118A010 A4068301 0A950108 A4068301 0B950108 800140A0
10A40683 010C9501 08A40683 010B9501 088401D4 A010A406 83010C95 0108A406
83010B95 01088201 05833580 0103A010 A4068301 01950108 A4068301 0B950108
80011CA4 0683010A 95010880 0140A010 A4068301 0C950108 A4068301 0B950108
82012F83 0A800103 90008001 1C970082 015A8335 800119A0 10A40683 010A9501
08A40683 010B9501 08800102 A010A406 83010C95 0108A406 83010B95 01088001
04A40683 010A9501 0882012F 833A8001 01900080 0142A010 A4068301 0A950108
A4068301 0B950108 80011CA4 0683010A 95010884 01D4A010 A4068301 0A950108
A4068301 0B950108 82012A83 2A800101 A010A406 83010195 0108A406 83010B95
01088001 1EA010A4 0683010A 950108A4 0683010B 95010882 013A834F 80010190
00800102 A010A406 83010A95 0108A406 83010B95 01088001 18A40683 010A9501
08800140 A010A406 83010C95 0108A406 83010B95 01088401 D4A010A4 0683010C
950108A4 0683010B 95010882 0115832B 800103A4 06830101 95010880 011CA406
83010A95 01088001 40A010A4 0683010C 950108A4 0683010B 950108A2 6FA00580
00810101 A166A064 30138001 01810830 303030FF FFFFFF82 01018301 06301080
010A8108 933F5784 5F706921 83010330 1380010B 8108FFFF FFFFFFFF FFFF8301
03840100 30108001 0C810893 3F57845F 70692183 01033014 80010E81 08FFFFFF
FFFFFFFF FF830103 840200AA A328A005 80008101 02A11F30 0D800101 81083132
33343536 3738300E 80020081 81083132 33343536 3738A130 A0058000 810104A1
27302562 23820278 2183027F F08410A0 00000087 1002FF33 FF018900 0001008B
010DC602 01818800 A44AA005 80008101 05A131A1 2F800101 81010182 10AAAAAA
AAAAAAAA AAAAAAAA AAAAAAAA AA831011 22334455 66778899 AABBCCDD EEFF0086
030493E0 83060000 20000000 84060000 00200000 A222A005 80008101 06A119A0
17301580 02008181 08303030 30FFFFFF FF820200 81830103 A1820FCF A0058000
810107A1 820FC430 8206B480 027FF062 19820442 21007483 026F068B 01128002
0CB08801 B8A503C0 0140814F 80010190 0080011A A010A406 83010A95 0108A406
83010B95 01088001 04A40683 010A9501 08800140 A010A406 83010C95 0108A406
83010B95 01088401 D4A010A4 0683010C 950108A4 0683010B 95010802 01258121
800103A4 06830101 95010880 0104A406 83010A95 01088001 18A40683 01819501
08020153 815F8001 03A010A4 06830101 950108A4 0683010B 95010880 0118A010
A4068301 0A950108 A4068301 0B950108 800104A4 0683010A 95010880 0140A010
A4068301 0C950108 A4068301 0B950108 8401D4A0 10A40683 010C9501 08A40683
010B9501 08020115 81748001 01A010A4 06830101 950108A4 0683010B 95010880
0102A010 A4068301 81950108 A4068301 0B950108 800104A4 0683010A 95010880
0118A010 A4068301 0A950108 A4068301 0B950108 800140A0 10A40683 010C9501
08A40683 010B9501 088401D4 A010A406 83010C95 0108A406 83010B95 01088135
800101A0 10A40683 01019501 08A40683 010B9501 0880011E A4068301 0A950108
800140A0 10A40683 010C9501 08A40683 010B9501 0802013F 811B8001 03A40683
01019501 0880011C A4068301 0A950108 84013297 00020159 810B8001 1FA40683
010A9501 08020169 812B8001 5EA010A4 0683010C 950108A4 0683010B 95010884
01E8A406 83010C95 01088401 88A40683 01019501 08020149 81648001 01900080
0102A010 A4068301 01950108 A4068301 0B950108 800104A4 0683010A 95010880
0140A010 A4068301 0C950108 A4068301 0B950108 800118A0 10A40683 010A9501
08A40683 010B9501 088401D4 A010A406 83010C95 0108A406 83010B95 01080201
10815580 0103A010 A4068301 01950108 A4068301 0B950108 800118A0 10A40683
010A9501 08A40683 010B9501 08800104 A4068301 0A950108 840132A4 06830101
95010880 0140A010 A4068301 0C950108 A4068301 0B950108 02011F81 4A80011C
A4068301 0A950108 800102A0 10A40683 010C9501 08A40683 010B9501 08800101
A010A406 83010A95 0108A406 83010B95 01088401 D4A010A4 0683010C 950108A4
0683010B 95010802 012A8110 80011B97 00800104 A4068301 0A950108 02016481
1B800118 97008001 43A40683 010C9501 08800104 A4068301 0A950108 02015981
25800107 A4068301 0A950108 80011897 00800140 A010A406 83010C95 0108A406
83010B95 01080201 4F813580 0103A010 A4068301 01950108 A4068301 0B950108
80011CA4 0683010A 95010880 0140A010 A4068301 0C950108 A4068301 0B950108
02013F81 5F800101 A010A406 83010195 0108A406 83010B95 01088001 1AA010A4
0683010A 950108A4 0683010B 95010880 0104A406 83010A95 01088001 40A010A4
0683010C 950108A4 0683010B 95010884 01D4A010 A4068301 0C950108 A4068301
0B950108 02011581 40800103 A4068301 01950108 80011CA4 0683010A 95010880
0140A010 A4068301 0C950108 A4068301 0B950108 8401D4A0 10A40683 010C9501
08A40683 010B9501 08020134 813A8001 01900080 011EA406 83010A95 01088001
40A010A4 0683010C 950108A4 0683010B 95010884 01D4A010 A4068301 0C950108
A4068301 0B950108 02013A81 40800101 A4068301 01950108 80011EA4 0683010A
95010880 0140A010 A4068301 0C950108 A4068301 0B950108 8401D4A0 10A40683
010C9501 08A40683 010B9501 08020134 814F8001 01900080 011AA010 A4068301
0A950108 A4068301 0B950108 800104A4 0683010A 95010880 0140A010 A4068301
0C950108 A4068301 0B950108 8401D4A0 10A40683 010C9501 08A40683 010B9501
08020125 814A8001 03A010A4 06830101 950108A4 0683010B 95010880 0118A010
A4068301 0A950108 A4068301 0B950108 800104A4 0683010A 95010880 0140A010
A4068301 0C950108 A4068301 0B950108 02012A81 4A800101 A010A406 83010195
0108A406 83010B95 01088001 1AA010A4 0683010A 950108A4 0683010B 95010880
0104A406 83010A95 01088001 40A010A4 0683010C 950108A4 0683010B 95010802
012A812B 800103A4 06830101 95010880 011CA406 83010A95 01088001 40A010A4
0683010C 950108A4 0683010B 95010802 0149813A 80010190 0080011A A010A406
83010A95 0108A406 83010B95 01088001 04A40683 010A9501 08800140 A010A406
83010C95 0108A406 83010B95 01080201 3A811680 0103A406 83010195 01088001
1CA40683 010A9501 0802015E 81108001 01900080 011EA406 83010A95 01080201
64811680 0101A406 83010195 01088001 1EA40683 010A9501 0802015E 81218001
01A40683 01019501 08800102 A4068301 81950108 80011CA4 0683010A 95010830
1E621182 02412183 026F078B 01058001 09880138 81090829 80106840 99999930
1F621182 02412183 026F7E8B 01198001 0B880158 02010481 0702F810 0000FF01
301F6211 82024121 83026F73 8B011980 010E8801 60020107 810702F8 100000FF
01301962 11820241 2183026F AD8B011A 80010488 01188104 01000102 30176211
82024121 83026F78 8B011B80 01028801 30810200 02301762 15820241 2183026F
C48B0111 80012E88 00A503C0 0140301C 62168202 41218302 6F058B01 0980010A
880110A5 03C00140 81026672 30266216 82024121 83026F38 8B011080 010C8801
20A503C0 0140810C 0A0E178C E3320400 00000000 301B6216 82024121 83026F08
8B011780 01218801 40A503C0 01408101 07301B62 16820241 2183026F 098B0117
80012188 0148A503 C0014081 01073020 62168202 41218302 6F5B8B01 15800106
880178A5 03C00140 8106F000 00F00000 30186216 82024121 83026F5C 8B011680
01038801 80A503C0 01403018 62168202 41218302 6F7B8B01 03800112 880168A5
03C00140 30136211 82027821 83025F3B 8B0108C6 02018188 00301962 11820241
2183024F 208B0119 80010988 01080201 08810107 30196211 82024121 83024F52
8B011980 01098801 10020108 81010730 1A621582 02412183 024F648B 01138001
018800A5 03C00140 81010030 17621582 02412183 024F638B 01178001 108800A5
03C00140 301A8002 7FF06211 82024121 83026F31 8B011B80 01018801 90810103
30226215 82024121 83026F46 8B011480 01118800 A503C001 40810902 4F72616E
67652046 30306218 82044221 00148302 6FB78B01 148001C8 880108A5 03C00140
811411F2 FF4E756D 05726F20 64277572 67656E63 651F3014 62128204 4221001C
83026F40 8B011980 011C8800 30146212 82044221 001C8302 6F498B01 1B800138
88003014 62128204 4221001C 83026F3B 8B011C80 01388800 30176215 82024121
83026F3E 8B011080 01048800 A503C001 40301262 10820241 2183026F 3F8B011B
80010488 00304262 12820442 21002C83 026F428B 01198001 58880081 2C4E6F20
43656E74 7265204D 6573732E FFE1FFFF FFFFFFFF FFFFFFFF FFFF0791 33860940
00F0FFFF FFFF0000 A8301D62 16820241 2183026F 568B0104 80010388 0128A503
C0014081 03000000 301A6215 82024121 83026F57 8B010480 01C88800 A503C001
40810100 301A6218 82044221 00288302 6FC58B01 188001C8 8801C8A5 03C00140
301A6218 82044221 00088302 6FC68B01 148001A0 8801D0A5 03C00140 301E6216
82024121 83026FCD 8B011080 011F8801 D8A503C0 01408104 A3028000 30426216
82024121 83026F61 8B011080 01288801 88A503C0 01400201 03812500 00FFFFFF
0000FFFF FF0000FF FFFF0000 FFFFFF00 00FFFFFF 0000FFFF FF0000FF FFFF0000
30176215 82024121 83026FC3 8B011180 01048800 A503C001 40301A62 18820442
21000F83 026F4F8B 01038001 1E8801B0 A503C001 40301B62 19820442 2100B083
026F3C8B 01198002 01608800 A504C102 00FF3012 62108202 41218302 6F438B01
19800102 8800301A 62188204 4221001E 83026F47 8B011980 013C8800 A504C102
00FF3014 80006210 82027821 83027F10 8B0102C6 01018800 308203C5 62188204
42210069 83026F06 8B010180 0206F988 00A503C0 0140813A 80010190 0080011E
A4068301 0A950108 800140A0 10A40683 010C9501 08A40683 010B9501 088401D4
A010A406 83010C95 0108A406 83010B95 01080201 2F815F80 0103A010 A4068301
01950108 A4068301 0B950108 800104A4 0683010A 95010880 0118A010 A4068301
81950108 A4068301 0B950108 800140A0 10A40683 010C9501 08A40683 010B9501
088401D4 A010A406 83010C95 0108A406 83010B95 01080201 0A815F80 0103A010
A4068301 01950108 A4068301 0B950108 800118A0 10A40683 010A9501 08A40683
010B9501 08800104 A4068301 0A950108 800140A0 10A40683 010C9501 08A40683
010B9501 088401D4 A010A406 83010C95 0108A406 83010B95 01080201 0A816980
0101A010 A4068301 01950108 A4068301 0B950108 800102A0 10A40683 01819501
08A40683 010B9501 08800118 A010A406 83010A95 0108A406 83010B95 01088001
40A010A4 0683010C 950108A4 0683010B 95010884 01D4A010 A4068301 0C950108
A4068301 0B950108 81548001 01A010A4 06830101 950108A4 0683010B 95010880
011EA010 A4068301 0A950108 A4068301 0B950108 800140A0 10A40683 010C9501
08A40683 010B9501 088401D4 A010A406 83010C95 0108A406 83010B95 01080201
15816480 0103A010 A4068301 01950108 A4068301 0B950108 800104A4 0683010A
95010880 0118A010 A4068301 0A950108 A4068301 0B950108 800140A0 10A40683
010C9501 08A40683 010B9501 08840132 97008401 D4A010A4 0683010C 950108A4
0683010B 95010802 0105814A 80011BA0 10A40683 010A9501 08A40683 010B9501
08800104 A4068301 0A950108 800140A0 10A40683 010C9501 08A40683 010B9501
088401D4 A010A406 83010C95 0108A406 83010B95 01080201 1F813580 015EA010
A4068301 0C950108 A4068301 0B950108 8401E8A4 0683010C 95010884 01D4A010
A4068301 0C950108 A4068301 0B950108 02013481 1B800101 90008001 02A40683
01019501 0880011C A4068301 0A950108 02014E81 21800103 A4068301 01950108
80011CA4 0683010A 95010884 0132A406 83010195 01080201 48811680 011DA406
83010A95 01088001 02A40683 010C9501 08020153 81108001 1B970080 0104A406
83010A95 01080201 59811B80 01199700 800102A4 0683010C 95010880 0104A406
83010A95 01080201 4E811080 0107A406 83010A95 01088001 18970002 01598116
800103A4 06830101 95010880 011CA406 83010A95 01080201 53811680 0101A406
83010195 01088001 1EA40683 010A9501 08020153 810B8001 1FA40683 010A9501
08301462 12820278 2183025F 3A8B032F 060DC601 01880030 15621382 04422100
1C83024F 3A8B010F 80013888 01D0301A 62188204 42210002 83024F09 8B010F80
01048801 48A503C1 01003022 62128204 4221005A 83024F30 8B011080 01B48800
810CA80A C0034F3A 1AC5034F 09093016 80027F10 62108202 41218302 6F548B01
1180010E 88003023 80006215 82024121 83022FE1 8B010A80 01088800 A503C001
40810899 99999999 99AF02A6 8201EFA0 05800081 0108A158 4F07A000 00015153
504F08A0 00000151 5350414F 0F893301 FFFF2000 FF33FFFF 89000000 4F0F8933
01FFFF20 00FF33FF FF890000 00820382 FC808301 0FC90881 02025581 028000EA
0F800D01 00100000 02011203 00000000 A2820144 30229501 38820101 83010430
17301580 01808610 F8195839 102919DE AB908947 198438FA 30229501 34820102
83010430 17301580 01808610 F8195839 102919DE AB908947 198438FA 30229501
C8820103 83010430 17301580 01808610 F8195839 102919DE AB908947 198438FA
30229501 38820101 83010830 17301580 01888610 F8195839 102919DE AB908947
198438FA 30229501 34820102 83010830 17301580 01888610 F8195839 102919DE
AB908947 198438FA 30229501 C8820103 83010830 17301580 01888610 F8195839
102919DE AB908947 198438FA 30229501 38820101 83012030 17301580 01808610
456E6372 79707469 6F6E5365 63726574 30229501 34820102 83012030 17301580
01808610 50657273 6F6E616C 69736174 696F6E4B 30229501 C8820103 83012030
17301580 01808610 4B657945 6E637279 7074696F 6E4B6579 A3440442 00703F66
3D733B06 072A8648 86FC6B01 600B0609 2A864886 FC6B0202 02630906 072A8648
86FC6B03 640B0609 2A864886 FC6B0402 55640B06 092A8648 86FC6B04 8000A739
A0058000 8101094F 09A00000 01510000 00014F0F 893301FF FF2000FF 33FFFF89
000000A0 050403B0 00008101 12040402 01070C04 04020107 0CA759A0 05800081
010A4F09 A0000001 51000000 024F0F89 3301FFFF 2000FF33 FFFF8900 0000A005
0403B000 01810112 04040201 070C0404 0201070C 301E8010 A0000000 871002FF
33FF0189 00000100 81040201 070C8204 0201070C AA07A005 80008101 0B