enable profile

D15F8202838106069126180100008B51400D91263898302685F77F16000000000000283D027000003815163912120000015F36E58D814E1CD1324A3DE06725EDF61A37C184EE8AC6339B1C1015A3BC04119B33946D535422119BB5B868695DB34D


notif confirm 0001

D14F8202838106069126180100008B41400D91263898302685F77F16000000000000282D02700000281516391212000001F1291587995495C7974823023CE9BEFE8044F7C63D8A6A1D9D4E706A68996393



TAR: 000001
Counter: 0000000005
D13F8202838106069126180100008B31400D91261883388832F97F16000000000000281D027000001815163912120000010EC949339A818BDC08AA9060C53F96D3

Counter: 000000000A
D13F8202838106069126180100008B31400D91261883388832F97F16000000000000281D027000001815163912120000010E2A9C97E5A6766E756B67643E561A7C

Counter: 0000000015
D13F8202838106069126180100008B31400D91261883388832F97F16000000000000281D027000001815163912120000014E8D733CCB894E92144621B1C875A75D

Counter: 000000001A
D13F8202838106069126180100008B31400D91261883388832F97F16000000000000281D02700000181516391212000001A6F040A51CE10CCA66F17E19B6473C42

Counter: 0000000025
D13F8202838106069126180100008B31400D91261883388832F97F16000000000000281D02700000181516391212000001FEB664ED6952168DA813E5ED58D78F29


notif 01 counter 08
D14F8202838106069126180100008B41400D91261883388832F97F16000000000000282D027000002815163912120000015F11B7B7C36A6B534023374C4B31C273BF5DA7E737AD95DBAF24339D4EDB7220

notif 02 counter 09
D14F8202838106069126180100008B41400D91261883388832F97F16000000000000282D02700000281516391212000001DF88C34FEB22C6028BB07C7230927B264371A3F7B7BF7E52667900044E2BCE6C

