A04C8001 02810100 82204C54 45205265 6C203920 48545450 73203132 384B2050
6F737470 61696420 4445830A 89610232 12423000 016FA50C 81008200 84008700
88008B00 A6080606 67810F01 0201B082 02C3A005 80008101 00810667 810F0102
01A212A1 10820278 2183023F 008B0102 C6010188 00A317A1 11820241 2183022F
058B0110 80010A88 01288302 656EA41F A1118202 41218302 2FE28B01 0680010A
88011083 0A981620 23212403 0010F6A5 4DA11382 04422100 2083022F 008B0106
80014088 01F0831B 61194F10 A0000000 871002FF FFFFFF89 03010000 50054F50
54555382 01058316 61144F0C A0000000 871004FF FFFFFF89 50044953 494DA682
0213A114 82044221 00318302 2F068B01 01800203 10880130 83268401 D4A40683
010C9501 08800101 90008001 1EA40683 010B9501 08800140 A4068301 0C950108
82010B83 118C02A0 E8900080 0107A406 83010A95 01088201 20831080 011B9700
800104A4 0683010A 95010882 01218326 8401D4A4 0683010C 95010880 011B9700
800104A4 0683010D 95010880 0140A406 83010C95 01088201 0B830580 01019000
82012C83 268401D4 A4068301 0C950108 80010190 0080011E A4068301 0B950108
800140A4 0683010C 95010882 010B8310 80011B97 00800104 A4068301 0A950108
82012183 268401D4 A4068301 0C950108 80011B97 00800104 A4068301 0D950108
800140A4 0683010C 95010882 010B8321 8401D4A4 0683010C 95010880 011FA406
83010B95 01088001 40A40683 010C9501 08820110 831C8C02 A0E89000 800107A4
0683010A 95010880 0140A406 83010C95 01088201 15832184 01D4A406 83010C95
01088001 1FA40683 010D9501 08800140 A4068301 0C950108 82011083 0B80011F
A4068301 0D950108 82012683 1C8C02A0 E8900080 0107A406 83010B95 01088001
40A40683 010C9501 08820115 83118C02 A0E89000 800107A4 0683010B 95010882
0120831B 8401D4A4 0683010D 95010880 01019000 80015EA4 0683010D 95010882
01168331 8401D4A4 0683010C 95010880 01019000 800102A4 06830101 95010880
011CA406 83010B95 01088001 40A40683 010C9501 08A278A0 05800081 0101A16F
A06D3013 80010181 08303030 30FFFFFF FF820101 83010630 1480010A 8108933F
57845F70 69218301 03840200 AA301480 010B8108 933F5784 5F706921 83010384
0200AA30 1480010C 8108933F 57845F70 69218301 03840200 AA301480 010D8108
933F5784 5F706921 83010384 0200AAA3 28A00580 00810102 A11F300D 80010181
08313233 34353637 38300E80 02008181 08313233 34353637 38A130A0 05800081
0104A127 30256223 82027821 83027FF0 8410A000 00008710 02FFFFFF FF890301
00008B01 0DC60201 818800A4 45A00580 00810105 A12CA12A 80010181 01018210
AAAAAAAA AAAAAAAA AAAAAAAA AAAAAAAA 8310D2E3 2674AD72 80381C0A D4503DA0
2FE78306 07FFFFFF FFFF8406 07FFFFFF FFFFA222 A0058000 810106A1 19A01730
15800200 81810830 303030FF FFFFFF82 02008183 0103A182 0F56A005 80008101
07A1820F 4B308201 FF80027F F0621482 04422100 3783026F 068B0102 8002025D
8801B881 16800101 A4068301 01950108 80011EA4 06830101 95010802 01218126
8401D4A4 0683010C 95010880 01019000 80011EA4 0683010B 95010880 0140A406
83010C95 01080201 11812C84 01D4A406 83010C95 01088001 01A40683 01019501
0880011E A4068301 0B950108 800140A4 0683010C 95010802 010B811C 8C02A0E8
90008001 07A40683 010B9501 08800140 A4068301 0C950108 02011B81 2C8401D4
A4068301 0C950108 800103A4 06830101 95010880 011CA406 83010B95 01088001
40A40683 010C9501 0802010B 81318401 D4A40683 010C9501 08800101 90008001
02A40683 01019501 0880011C A4068301 0B950108 800140A4 0683010C 95010802
01068137 8401D4A4 0683010C 95010880 0101A406 83010195 01088001 02A40683
01819501 0880011C A4068301 0B950108 800140A4 0683010C 95010881 37840132
A4068301 01950108 800101A4 06830101 95010880 0102A406 83018195 01088001
18A40683 010B9501 08800140 A4068301 0C950108 81118C02 A0E89000 800107A4
0683010A 95010802 01268126 8401D4A4 0683010C 95010880 011B9700 800104A4
0683010D 95010880 0140A406 83010C95 01080201 11813184 01D4A406 83010C95
01088001 03A40683 010B9501 08800104 A4068301 0D950108 80011897 00800140
A4068301 0C950108 30156210 82024121 83026FDC 8B010380 01018800 81010130
14621282 04422100 6483026F E28B0103 8001C888 00301362 11820278 2183025F
408B0104 C6020181 88003015 62108202 41218302 4F418B01 05800132 88008101
00305662 10820241 2183024F 438B0103 8001B488 00814205 F52025F5 2025F510
25F01015 F00115F5 2004F494 04F40404 F40104F4 8904F469 04F43004 F45404F4
5904F413 04F43904 F40904F4 2904F420 04F40704 F44904F4 79301D62 12820442
21001E83 024F448B 01058001 3C880081 01000201 1D810100 302F6212 82044221
001E8302 4F458B01 03800196 88008101 0002011D 81010002 011D8101 0002011D
81010002 011D8101 00301262 10820241 2183024F 468B0105 80016688 00301462
12820442 21001E83 024F478B 01038001 1E880030 15621082 02412183 024F488B
01038001 01880081 01023015 62108202 41218302 4F498B01 03800101 88008101
00301762 10820241 2183024F 4A8B0105 80010388 00810305 F5203015 62108202
41218302 4F4B8B01 03800101 88008101 00302280 027FF062 11820241 2183026F
078B0103 80010988 01388109 08595020 23601840 13301F62 11820241 2183026F
7E8B0105 80010B88 01580201 04810705 F5200000 FF01301F 62118202 41218302
6F738B01 0580010E 88016002 01078107 05F52000 00FF0130 19621182 02412183
026FAD8B 01028001 04880118 81040000 00023017 62118202 41218302 6F788B01
03800102 88013081 02000230 12621082 02412183 026FC48B 01058001 64880030
17621182 02412183 026F058B 01068001 0A880110 8102656E 30236211 82024121
83026F38 8B010380 010E8801 20810E86 FF97FDFF 3EFC77EA 8BFF0200 00301662
11820241 2183026F 088B0105 80012188 01408101 07301662 11820241 2183026F
098B0105 80012188 01488101 07301B62 11820241 2183026F 5B8B0105 80010688
01788106 F00000F0 00003013 62118202 41218302 6F5C8B01 03800103 88018030
15621082 02412183 026F3E8B 01038001 22880081 01033015 62108202 41218302
6F3F8B01 03800122 88008101 02302162 11820241 2183026F 7B8B0105 80010C88
0168810C 05F51005 F53005F5 7005F560 30136211 82027821 83025F3B 8B0104C6
02018188 00301962 11820241 2183024F 208B0105 80010988 01080201 08810107
30196211 82024121 83024F52 8B010580 01098801 10020108 81010730 12621082
02412183 024F638B 01058001 10880030 15621082 02412183 024F648B 01038001
01880081 01003081 E280027F F0621182 02412183 026F618B 01038001 C8880188
8181C805 F520C080 25F520C0 8025F510 C08025F0 10C08015 F001C080 15F520C0
8004F494 C08004F4 04C08004 F401C080 04F489C0 8004F469 C08004F4 30C08004
F454C080 04F459C0 8004F413 C08004F4 39C08004 F409C080 04F429C0 8004F420
C08004F4 07C08004 F449C080 04F479C0 80FFFFFF 0000FFFF FF0000FF FFFF0000
FFFFFF00 00FFFFFF 0000FFFF FF0000FF FFFF0000 FFFFFF00 00FFFFFF 0000FFFF
FF0000FF FFFF0000 FFFFFF00 00FFFFFF 0000FFFF FF0000FF FFFF0000 FFFFFF00
00FFFFFF 0000FFFF FF000030 29621182 02412183 026F628B 01038001 14880198
811405F5 20C08005 F509C080 FFFFFF00 00FFFFFF 00003016 62118202 41218302
6F318B01 03800101 88019081 0105301E 62108202 41218302 6F468B01 02800111
8800810A 00594553 204F5054 55533045 62138204 42210016 83026FB7 8B010280
016E8801 08811600 F0FF456D 65726765 6E637920 41757374 FFFFFFFF 07811611
F2FF456D 65726765 6E6379FF FFFFFFFF FFFFFFFF 07301562 13820442 21000F83
026F4F8B 01058001 2D8801B0 30516212 82044221 00228302 6F428B01 05800144
8800811B 534D5343 2031FDFF FFFFFFFF FFFFFFFF FFFFFF07 91161491 0900F102
0107811B 534D5343 2030FDFF FFFFFFFF FFFFFFFF FFFFFF07 91161491 0900F030
12621082 02412183 026F458B 01058001 28880030 14621282 04422100 1E83026F
408B0105 80013C88 00307462 12820442 21002683 026F3B8B 01078001 72880081
1C456D65 7267656E 63792054 5459FFFF FFFFFFFF FFFFFFFF FF038101 F602010A
811C456D 65726765 6E637920 41757374 2EFFFFFF FFFFFFFF FFFF0381 00F00201
0A811C45 6D657267 656E6379 FFFFFFFF FFFFFFFF FFFFFFFF FFFFFF03 8111F230
23621282 04422100 0D83026F 4B8B0107 80012788 00810100 02010C81 01000201
0C810100 30166211 82024121 83026F56 8B010780 01018801 28810100 30166210
82024121 83026FB5 8B010380 01028800 81020000 30156210 82024121 83026FB6
8B010580 01018800 81010030 15621082 02412183 026F578B 01078001 C8880081
01003013 62118202 41218302 6F488B01 03800128 88017030 12621082 02412183
026F508B 01058001 50880030 1A621882 04462100 0383026F 398B0108 80011E88
01E0A503 C1010030 17621082 02412183 026F378B 01078001 03880081 03000000
30196210 82024121 83026F41 8B010780 01058800 02010381 02000030 2A621382
04422100 1983026F C58B0102 8001C888 01C88113 430981D9 E214F484 52AB5345
06854F28 B53A0530 29621382 04422100 0883026F C68B0102 80014088 01D08108
05F52000 00FFFE01 810805F5 090000FF FE013012 62108202 41218302 6F328B01
03800130 88003012 62108202 41218302 6F2C8B01 05800110 88003012 62108202
41218302 6FB18B01 038001C8 8800301B 62108202 41218302 6FB28B01 03800107
88008107 00000000 0000FC30 12621082 02412183 026FB38B 01038001 C8880030
1B621082 02412183 026FB48B 01038001 07880081 07000000 000000FC 30146212
82044221 00118302 6FD38B01 03800155 88003012 62108202 41218302 6FD68B01
0580016A 88003015 62138204 4221004C 83026FDA 8B010380 02017C88 00301462
12820442 21002483 026FFA8B 01038001 D8880030 12621082 02412183 026FD08B
01038001 A0880030 12621082 02412183 026FD28B 01078001 A0880030 14621282
04422100 A083026F D18B0105 8001A088 00301962 12820442 21002283 026FCE8B
01058001 22880081 03000001 302F6212 82044221 000D8302 6FCF8B01 05800141
88008101 0002010C 81010002 010C8101 0002010C 81010002 010C8101 00301E62
11820241 2183026F E38B0105 80011288 01F00201 0C810605 F5200000 01301562
13820442 21005683 026FE48B 01058001 568801C0 30136211 82027821 83025F50
8B0104C6 02018188 00301562 13820442 21006483 024F818B 01058001 64880108
30156213 82044221 00328302 4F828B01 05800132 88011030 15621382 04422100
3283024F 838B0105 80019688 01183015 62138204 42210064 83024F84 8B010380
01648801 20301562 13820442 21003283 024F858B 01038001 32880128 30156213
82044221 00328302 4F868B01 03800196 88013030 2080027F F0621182 02412183
026FCD8B 01038001 1C8801D8 8107A305 800305F5 20301862 11820241 2183026F
D98B0103 80012488 01E88103 05F52030 15621082 02412183 026FDB8B 01038001
01880081 01023014 80006210 82027821 83027F10 8B010AC6 01018800 3082011C
62138204 42210037 83026F06 8B010180 0201B888 00812684 01D4A406 83010C95
01088001 01900080 011EA406 83010B95 01088001 40A40683 010C9501 08020111
812C8401 D4A40683 010C9501 08800103 A4068301 01950108 80011CA4 0683010B
95010880 0140A406 83010C95 01080201 0B813184 01D4A406 83010C95 01088001
01900080 011AA406 83010195 01088001 04A40683 010B9501 08800140 A4068301
0C950108 02010681 218401D4 A4068301 0C950108 80011FA4 0683010B 95010880
0140A406 83010C95 01080201 16811C8C 02A0E890 00800107 A4068301 0B950108
800140A4 0683010C 95010802 011B812C 8401D4A4 0683010C 95010880 0101A406
83010195 01088001 1EA40683 010B9501 08800140 A4068301 0C950108 30146212
82044221 000A8302 6FE58B01 02800132 88003015 62138204 4221001C 83026FE0
8B010380 02011888 00301462 12820442 21003283 026FE18B 01038001 FA880030
1B621082 02412183 026F548B 01048001 20880081 0785054F 50545553 30126210
82027821 83025F3A 8B0105C6 01018800 30246213 82044221 000D8302 4F4A8B01
02800127 88011881 01000201 0C810100 02010C81 01003015 62138204 4221000F
83024F4F 8B010280 012D8801 B0307562 13820442 21002683 024F3A8B 01028001
72880108 811C2043 616C6C20 57616974 696E6720 4F6EFFFF FFFFFFFF FFFF0381
4AB30201 0A811C20 43616C6C 20576169 74696E67 204F6666 FFFFFFFF FFFFFF03
814BB302 010A811C 20566F69 63656D61 696C2041 63636573 73FFFFFF FFFFFFFF
038123F1 302C6218 82044221 00028302 4F218B01 02800106 880148A5 03C10100
02010181 01010201 01810102 02010181 01033017 62118202 41218302 4F248B01
02800102 8801A081 02000030 19621182 02412183 024F228B 01028001 04880190
81040000 00003017 62118202 41218302 4F238B01 02800102 88019881 02000030
1A621882 04422100 0283024F 098B0102 80010688 0120A503 C1010030 33621282
04422100 3C83024F 308B0106 80013C88 00811DA8 0FC0034F 3A01C903 4F2109C5
034F0904 AA0ACB03 4F4F16C2 034F4A03 A12CA005 80008101 08A12330 21621F82
02782183 027FF284 0CA00000 00871004 FFFFFFFF 898B010E C6020181 8800A423
A0058000 810109A1 17A01580 01028110 A0000000 871002FF FFFFFF89 03010000
82010EA1 8202DDA0 05800081 010AA182 02D23081 E980027F F2621482 04422100
3083026F 068B0101 80020180 8801B881 2B8401D4 A4068301 0C950108 80010190
00800102 97008001 1CA40683 010B9501 08800140 A4068301 0C950108 02010581
2C8401D4 A4068301 0C950108 800103A4 06830101 95010880 011CA406 83010B95
01088001 40A40683 010C9501 08020104 812C8401 D4A40683 010C9501 08800101
A4068301 01950108 80011EA4 0683010B 95010880 0140A406 83010C95 01080201
04812684 01D4A406 83010C95 01088001 01900080 011EA406 83010B95 01088001
40A40683 010C9501 0802010A 81108001 1B970080 0104A406 83010A95 01083013
62118202 41218302 6FD58B01 02800201 C7880030 15621382 04422100 C883026F
D78B0103 800207D0 88003017 62118202 41218302 6F078B01 03800102 88013881
02A20030 18621182 02412183 026FAD8B 01048001 03880118 81030000 00303862
11820241 2183026F 038B0103 80013488 01288123 8021696D 732E6D6E 63303032
2E6D6363 3530352E 33677070 6E657477 6F726B2E 6F726730 4F621482 04422100
5283026F 048B0103 8002019A 88012081 37803573 69703A35 30353032 33323036
38313034 33314069 6D732E6D 6E633030 322E6D63 63353035 2E336770 706E6574
776F726B 2E6F7267 30486211 82024121 83026F02 8B010380 01548801 10813380
31353035 30323332 30363831 30343331 40696D73 2E6D6E63 3030322E 6D636335
30352E33 6770706E 6574776F 726B2E6F 72673015 62138204 42210050 83026F09
8B010380 02019088 00301462 12820442 21002483 026FFA8B 01038001 D8880030
14621282 04422100 2283026F 428B0102 80014488 00301B62 19820442 2100B083
026F3C8B 01028002 03708800 A504C102 00FF3012 62108202 41218302 6F438B01
02800102 88003014 80006210 82027821 83027F20 8B010DC6 01018800 30268000
62108202 41218302 00028B01 0F800110 88008110 00000000 00000000 0121E6FF
FF000000 A6820258 A0058000 81010BA1 554F07A0 00000151 53504F08 A0000001
51535041 4F08A000 00015100 00004F08 A0000001 51000000 820382FC 8083010F
C9108102 02558102 80008202 F0F08702 F0F0EA12 80100100 10000002 010006B2
01000000 0000A282 01B03022 95013882 01018301 04301730 15800180 8610F819
58391029 19DEAB90 89471984 38FA3022 95013482 01028301 04301730 15800180
8610F819 58391029 19DEAB90 89471984 38FA3022 9501C882 01038301 04301730
15800180 8610F819 58391029 19DEAB90 89471984 38FA3022 95013882 01018301
05301730 15800180 8610F819 58391029 19DEAB90 89471984 38FA3022 95013482
01028301 05301730 15800180 8610F819 58391029 19DEAB90 89471984 38FA3022
9501C882 01038301 05301730 15800180 8610F819 58391029 19DEAB90 89471984
38FA3022 95013882 01018301 06301730 15800180 8610F819 58391029 19DEAB90
89471984 38FA3022 95013482 01028301 06301730 15800180 8610F819 58391029
19DEAB90 89471984 38FA3022 9501C882 01038301 06301730 15800180 8610F819
58391029 19DEAB90 89471984 38FA3022 95013882 01018301 20301730 15800180
8610456E 63727970 74696F6E 53656372 65743022 95013482 01028301 20301730
15800180 86105065 72736F6E 616C6973 6174696F 6E4B3022 9501C882 01038301
20301730 15800180 86104B65 79456E63 72797074 696F6E4B 6579A344 04420070
3F663D73 3B06072A 864886FC 6B01600B 06092A86 4886FC6B 02020263 0906072A
864886FC 6B03640B 06092A86 4886FC6B 04025564 0B06092A 864886FC 6B048000
A8820249 A0058000 81010CA1 8201E74F 10A00000 00770307 60111000 00000000
3C4F08A0 00000151 000000C4 8201C701 001ADECA FFED0102 04000110 A0000000
77030760 11100000 0000003C 02001F00 1A001F00 14002800 4E001C00 A9000A00
1A000000 00000000 00000003 01000400 28030001 07A00000 00620101 060210A0
00000009 0003FFFF FFFF8910 71000200 0107A000 00006200 01030014 0110A000
00007703 07601110 00010000 003C0009 06001C43 80030200 02050400 00003DFF
FF003A00 41800200 81010108 81000007 00A90100 5F803700 98000805 318F0006
3D8C0004 2E1B181D 0441181D 258B0002 7A021018 8C000318 11008C90 0B870018
8D000587 01AD0105 8B00077A 00207A01 30187705 241D7500 64000100 0200098D
00092D8D 000A2E1A 100B048B 000B6103 7A1A8B00 0C29041A 1A8B000D AD000316
048B000E 3B1BAD00 05160405 438B000F 03290516 05076D12 1B8B0010 10106D05
08290559 050170ED 70122804 15048B00 11056B08 1193008D 00127A08 000A0000
00000000 00000000 05004E00 13020000 01020000 00038003 02068003 00060000
1F068109 00010000 00038109 09018107 00068108 0006810A 00038102 01038108
0E038108 0D038102 02038104 1003810A 16038005 01068007 0109001A 00052C06
02370A00 11070504 0C070C08 17040807 07080C0C 1509A255 30534F10 A0000000
77030760 11100000 0000003C 4F10A000 00007703 07601110 00010000 003C4F10
A0000000 77030760 110000FE 52465300 82030000 00C900EF 14C70200 01C80200
01CA0A01 00FF0010 00000201 16A72CA0 05800081 010D4F09 A0000005 59101000
014F08A0 00000151 000000A0 050403B0 00008101 16040100 040100A7 46A00580
0081010E 4F09A000 00055910 1000024F 08A00000 01510000 00A00504 03B00001
81011604 01000401 00301880 10A00000 00871002 FFFFFFFF 89030100 00810100
820100A7 42A00580 0081010F 4F09A000 00055910 1000034F 08A00000 01510000
00A00504 03B00020 81011604 01000401 00301480 0CA00000 00871004 FFFFFFFF
89810100 820100AA 07A00580 00810110