A0468001 02810100 82204441 5649445F 454D545F 6553494D 5F633038 315F6330
38345F76 6572325F 4D54830A 98123108 00175701 0074A506 81008400 8B00A608
06066781 0F010201 B0820249 A0058000 81010081 0667810F 010201A2 12A11082
02782183 023F008B 0102C601 018800A3 19A11182 02412183 022F058B 010F8001
0A880128 83046574 656EA41F A1118202 41218302 2FE28B01 1080010A 88011083
0A892113 80007175 100047A5 59A11382 04422100 2683022F 008B010E 80019888
01F0831E 611C4F10 A0000000 871002FF FFFFFF89 040300FF 5008454D 54205553
494D8201 08831F61 1D4F0CA0 00000063 504B4353 2D313550 07504B43 53233135
51043F00 7F50A682 018BA114 82044221 00308302 2F068B01 01800206 00880130
83158001 01900080 011A9700 800104A4 0683010A 95010882 011B8311 8C02A0E8
90008001 47A40683 010A9501 0882011F 83108001 1B970080 0104A406 83010A95
01088201 20831080 01039700 80011CA4 0683010A 95010882 01208305 80010190
0082012B 83118C02 A0E89000 800147A4 0683010A 95010882 011F8315 80010190
0080011A 97008001 04A40683 010A9501 0882011B 83108001 1B970080 0104A406
83010A95 01088201 20831080 01039700 80011CA4 0683010A 95010882 01208310
80010190 0080011E A4068301 0A950108 82012083 0B80011F A4068301 0A950108
82012583 16800103 A4068301 01950108 80011CA4 0683010A 95010882 011A8310
800107A4 0683010A 95010880 01189700 82012083 1B8401D4 A4068301 0A950108
80010190 0080015E A4068301 0A950108 82011583 268401D4 A4068301 0A950108
80010190 00800102 A4068301 01950108 80015CA4 0683010A 95010882 010A8315
80010190 00800102 97008001 1CA40683 010A9501 08A24CA0 05800081 0101A143
A0413013 80010181 08313233 34FFFFFF FF820101 83010630 1480010A 8108933F
57845F70 69218301 03840200 AA301480 010B8108 933F5784 5F706921 83010384
0200AAA3 28A00580 00810102 A11F300D 80010181 08313233 34353637 38300E80
02008181 08313233 34353637 38A130A0 05800081 0103A127 30256223 82027821
83027FF0 8410A000 00008710 02FFFFFF FF890403 00FF8B01 06C60201 818800A4
4AA00580 00810104 A131A12F 80010181 01018210 AAAAAAAA AAAAAAAA AAAAAAAA
AAAAAAAA 8310531B 9378F3A7 84EEA065 2464F88F 913C8603 FFFFFF83 06002000
00000084 0607FFFF FFFFFFA2 22A00580 00810105 A119A017 30158002 00818108
31323334 FFFFFFFF 82020081 830103A1 82138EA0 05800081 0106A182 13833082
02418002 7FF06214 82044221 00308302 6F068B01 01800204 B08801B8 810A8001
01900080 011E9700 02012681 16800101 A4068301 01950108 80015EA4 0683010A
95010802 011A8116 800103A4 06830101 95010880 015CA406 83010A95 01080201
1A812184 01D4A406 83010A95 01088001 01A40683 01019501 0880015E A4068301
0A950108 02010F81 26840132 A4068301 0A950108 8401D4A4 0683010A 95010880
01019000 80015EA4 0683010A 95010802 010A811B 8401D4A4 0683010A 95010880
01019000 80015EA4 0683010A 95010802 01158126 8401D4A4 0683010A 95010880
01019000 800102A4 06830101 95010880 015CA406 83010A95 01080201 0A81118C
02A0E890 00800107 A4068301 0A950108 02011F81 10800101 90008001 5EA40683
010A9501 08020120 81218401 D4A40683 010A9501 08800103 A4068301 01950108
80015CA4 0683010A 95010802 010F811B 84013297 00800103 A4068301 01950108
800158A4 0683010A 95010802 01158121 840132A4 06830101 95010880 0103A406
83010195 01088001 58A40683 010A9501 0802010F 812C8401 32A40683 01019501
08800101 A4068301 01950108 800102A4 06830181 95010880 0158A406 83010A95
01080201 04812180 0101A406 83010195 01088001 02A40683 01819501 0880015C
A4068301 0A950108 02010F81 2C8401D4 A4068301 0A950108 800101A4 06830101
95010880 0102A406 83018195 01088001 5CA40683 010A9501 08020104 81108001
1B970080 0104A406 83010A95 01080201 20811080 011DA406 83010A95 01088001
02970030 12621082 02412183 026FDC8B 01028001 01880030 1B621182 02412183
026FE38B 01038001 128801F0 02010F81 03000001 30156213 82044221 00368302
6FE48B01 03800136 8801C030 13621182 02412183 026FD98B 01048001 3C8801E8
30126210 82024121 83026FDB 8B010280 01018800 30126210 82024121 83026FC4
8B010380 01928800 30216211 82024121 83026F38 8B010480 010C8801 20810C9E
FF978DF3 CE040000 00000030 16621182 02412183 026F088B 01038001 21880140
81010730 16621182 02412183 026F098B 01038001 21880148 81010730 1B621182
02412183 026F5B8B 01038001 06880178 8106F000 00F00000 30136211 82024121
83026F5C 8B010280 01038801 80301362 11820278 2183025F 3B8B0108 C6020181
88003029 80027FF0 62148204 4221001C 83026FB7 8B010680 02011888 0108810D
11F2FF50 7B7B7374 65616D65 74301262 10820241 2183026F C38B0103 80010488
00301462 12820442 21002683 026F408B 010A8001 72880030 7A621482 04462100
3483026F 808B010B 80020208 8801A002 012D8105 00000000 0002012F 81050000
00000002 012F8105 00000000 0002012F 81050000 00000002 012F8105 00000000
0002012F 81050000 00000002 012F8105 00000000 0002012F 81050000 00000002
012F8105 00000000 0002012F 81050000 00000030 19621782 04462100 0383026F
828B010C 80010388 00A503C1 01003070 62148204 46210033 83026F81 8B010B80
0201FE88 01A80201 2D810400 00000002 012F8104 00000000 02012F81 04000000
0002012F 81040000 00000201 2F810400 00000002 012F8104 00000000 02012F81
04000000 0002012F 81040000 00000201 2F810400 00000002 012F8104 00000000
30196217 82044621 00038302 6F838B01 0C800103 8800A503 C1010030 2F621282
04422100 0D83026F 4E8B010A 80014188 00810100 02010C81 01000201 0C810100
02010C81 01000201 0C810100 30166211 82024121 83026F56 8B010F80 01018801
28810100 30156213 82044221 000F8302 6F4F8B01 0A80014B 8801B030 14800062
10820278 2183027F 108B0106 C6010188 00308201 71621382 04422100 3083026F
068B0101 80020300 88008115 80010190 0080011A 97008001 04A40683 010A9501
0802011B 81268401 D4A40683 010A9501 08800101 90008001 1EA40683 01019501
08800140 A4068301 0A950108 02010A81 168401D4 A4068301 0A950108 80015FA4
0683010A 95010802 011A8111 8C02A0E8 90008001 47A40683 010A9501 0802011F
81218401 D4A40683 010A9501 08800103 A4068301 01950108 80015CA4 0683010A
95010802 010F8121 8401D4A4 0683010A 95010880 0101A406 83010195 01088001
5EA40683 010A9501 0802010F 81168001 03A40683 01019501 0880015C A4068301
0A950108 02011A81 2C8401D4 A4068301 0A950108 800101A4 06830101 95010880
0102A406 83018195 01088001 5CA40683 010A9501 08020104 812C8401 D4A40683
010A9501 08800103 A4068301 01950108 800144A4 0683010A 95010880 0118A406
83018195 01080201 04811B84 01329700 800103A4 06830101 95010880 0158A406
83010A95 01083014 62128204 42210026 83026FE0 8B010280 01BE8800 30156213
82044221 00648302 6FE18B01 02800201 F4880030 12621082 02782183 025F3A8B
0104C601 01880030 16621482 04422100 2683024F 3A8B0105 8002251C 8801D030
16621482 04422100 2683024F 3B8B0105 8002251C 8801A830 16621482 04422100
1183024F 118B0105 80020352 88018830 16621482 04422100 3283024F 508B0105
800209C4 88018030 16621482 04422100 0283024F 258B0105 800201F4 88012830
16621482 04422100 0283024F 018B0105 800201F4 88011830 1B621982 04422100
0283024F 098B0105 800201F4 880148A5 03C10100 301B6219 82044221 00028302
4F0A8B01 05800201 F48801B0 A503C101 0030818B 62128204 4221004C 83024F30
8B010680 01988800 8138A814 C0034F3A 1AC1034F 2505C603 4F2606C5 034F0909
A90AC403 4F1111CA 034F5010 AA14C803 4F4C0CCB 034F4F0F C2034F4A 0AC7034F
4B0B0201 148138A8 14C0034F 3B15C103 4F0103C6 034F2717 C5034F0A 16A90AC4
034F1111 CA034F50 10AA14C8 034F4C0C CB034F4F 0FC2034F 4A0AC703 4F4B0B30
818B6214 82044221 000D8302 4F4A8B01 05800201 04880150 81010002 010C8101
0002010C 81010002 010C8101 0002010C 81010002 010C8101 0002010C 81010002
010C8101 0002010C 81010002 010C8101 0002010C 81010002 010C8101 0002010C
81010002 010C8101 0002010C 81010002 010C8101 0002010C 81010002 010C8101
0002010C 81010002 010C8101 00301B62 19820442 21000283 024F268B 01058002
01F48801 30A503C1 0100301B 62198204 42210002 83024F27 8B010580 0201F488
01B8A503 C1010030 15621382 04422100 1883024F 4C8B0105 80017888 01603015
62138204 42210018 83024F4B 8B010580 01788801 58301662 14820442 21000F83
024F4F8B 01058002 012C8801 78301980 027F1062 13820442 21002C83 026F498B
01068002 03708800 301B6219 82044221 00B08302 6F3C8B01 0580020D C08800A5
04C10200 FF301262 10820241 2183026F 438B0107 80010288 00301B62 19820442
21001E83 026F478B 01058002 012C8800 A504C102 00FF303A 62128204 4221002C
83026F42 8B010580 01588800 8124454D 54FFFFFF FFFFFFFF FFFFFFFF FFFFFDFF
FFFFFFFF FFFFFFFF FFFFFF06 91735290 09003015 62138204 42210026 83026F3B
8B010880 0202F888 00301D62 12820442 21000D83 026F4C8B 01068001 1A880081
01000201 0C810100 30236212 82044221 000D8302 6F4B8B01 08800127 88008101
0002010C 81010002 010C8101 00301462 12820442 21002683 026F408B 01058001
72880030 15621382 04462100 2683026F 448B010A 8002017C 88003014 80006210
82027821 83027F20 8B0106C6 01018800 30820216 62138204 42210030 83026F06
8B010180 02033088 00811580 01019000 80011A97 00800104 A4068301 0A950108
02011B81 1B8401D4 A4068301 0A950108 80010190 0080015E A4068301 0A950108
02011581 16800111 A4068301 01950108 80014EA4 0683010A 95010802 011A8116
800113A4 06830101 95010880 014CA406 83010A95 01080201 1A811680 0103A406
83010195 01088001 5CA40683 010A9501 0802011A 81168001 01A40683 01019501
0880015E A4068301 0A950108 02011A81 218401D4 A4068301 0A950108 800101A4
06830101 95010880 015EA406 83010A95 01080201 0F811684 01D4A406 83010A95
01088001 5FA40683 010A9501 0802011A 81108001 01900080 015EA406 83010A95
01080201 20812184 01D4A406 83010A95 01088001 03A40683 01019501 0880015C
A4068301 0A950108 02010F81 2C840132 A4068301 01950108 800101A4 06830101
95010880 0102A406 83018195 01088001 58A40683 010A9501 08020104 81218001
01A40683 01019501 08800102 A4068301 81950108 80015CA4 0683010A 95010802
010F8126 8401D4A4 0683010A 95010880 01019000 800102A4 06830101 95010880
015CA406 83010A95 01080201 0A811080 011DA406 83010A95 01088001 02970002
01208116 800101A4 06830101 95010880 011EA406 83010A95 01080201 1A811680
0103A406 83010195 01088001 1CA40683 010A9501 0802011A 81108001 1B970080
0104A406 83010A95 01083015 62138204 4221002C 83026FC5 8B010280 0201B888
00301462 12820442 21000883 026FC68B 01028001 A0880030 1D621082 02412183
026F078B 01038001 09880081 09084981 04100020 00103018 62108202 41218302
6F7E8B01 0480010B 88000201 0A810101 301B6210 82024121 83026F53 8B010580
010E8800 02010A81 040000FF 01301862 10820241 2183026F AD8B0102 80010488
00810401 00010230 16621082 02412183 026F788B 01068001 02880081 02000230
12621082 02412183 026F3E8B 01078001 0A880030 12621082 02412183 026F3F8B
01078001 0A880030 16621082 02412183 026F548B 01088001 20880081 02851E30
12621082 02412183 026F7B8B 01058001 0C880030 18621082 02412183 026F208B
01058001 09880002 01088101 07301862 10820241 2183026F 528B0105 80010988
00020108 81010730 8201A762 11820241 2183026F 618B0107 80020190 88008182
01900000 00000000 00000000 00000000 00000000 00000000 00000000 00000000
00000000 00000000 00000000 00000000 00000000 00000000 00000000 00000000
00000000 00000000 00000000 00000000 00000000 00000000 00000000 00000000
00000000 00000000 00000000 00000000 00000000 00000000 00000000 00000000
00000000 00000000 00000000 00000000 00000000 00000000 00000000 00000000
00000000 00000000 00000000 00000000 00000000 00000000 00000000 00000000
00000000 00000000 00000000 00000000 00000000 00000000 00000000 00000000
00000000 00000000 00000000 00000000 00000000 00000000 00000000 00000000
00000000 00000000 00000000 00000000 00000000 00000000 00000000 00000000
00000000 00000000 00000000 00000000 00000000 00000000 00000000 00000000
00000000 00000000 00000000 00000000 00000000 00000000 00000000 00000000
00000000 00000000 00000000 00000000 00000000 00000000 00000000 00000000
00000000 00000000 00000000 00000000 00003023 62108202 41218302 6F628B01
0780010F 8800810F 42F81080 80FFFFFF 0000FFFF FF000030 15621082 02412183
026F318B 01068001 01880081 01053012 62108202 41218302 6F468B01 09800111
88003012 62108202 41218302 6F458B01 0A800114 88003019 62178204 46210003
83026F39 8B010B80 01248800 A503C101 00301762 10820241 2183026F 378B010C
80010388 00810300 00003019 62108202 41218302 6F418B01 0C800105 88000201
03810200 00301262 10820241 2183026F 508B010A 80010C88 00301262 10820241
2183026F 328B0107 80011E88 00301262 10820241 2183026F 638B0105 80011088
00301462 12820442 21002683 026FC78B 010A8001 98880030 17621282 04422100
0D83026F C88B010A 80010D88 00810100 301C6217 82044221 00048302 6FC98B01
0A800108 8800A503 C1010081 01013019 62178204 42210005 83026FCA 8B010580
010A8800 A503C101 00301F62 12820442 21001083 026FCB8B 010A8001 20880081
02010002 010E8102 02003017 62128204 4221000D 83026FCC 8B010A80 010D8800
81010030 18621082 02412183 026FCD8B 01078001 40880081 04A33E80 3C301562
10820241 2183026F 648B0106 80010188 00810100 30166210 82024121 83026FB5
8B010680 01028800 81020000 30156210 82024121 83026FB6 8B010580 01018800
81010030 15621082 02412183 026FAE8B 01098001 01880081 01033012 62108202
41218302 6F748B01 05800110 88003012 62108202 41218302 6F058B01 0D800105
88003025 62108202 41218302 6F388B01 0780010F 88000201 01810E33 FFFF0F00
3C03300C CCF3003C 00308201 05621082 02412183 026F308B 010A8001 F0880081
81F00000 00000000 00000000 00000000 00000000 00000000 00000000 00000000
00000000 00000000 00000000 00000000 00000000 00000000 00000000 00000000
00000000 00000000 00000000 00000000 00000000 00000000 00000000 00000000
00000000 00000000 00000000 00000000 00000000 00000000 00000000 00000000
00000000 00000000 00000000 00000000 00000000 00000000 00000000 00000000
00000000 00000000 00000000 00000000 00000000 00000000 00000000 00000000
00000000 00000000 00000000 00000000 00000000 00000000 00000000 00000000
00000000 00000000 00000000 00000000 00003012 62108202 41218302 6FB78B01
0280010F 88003012 62108202 41218302 6F148B01 0F800110 88003017 62108202
41218302 6F168B01 0F800103 88008103 02000030 15621082 02412183 026F138B
01108001 01880081 01553015 62108202 41218302 6F118B01 10800101 88008101
55A12CA0 05800081 0107A123 3021621F 82027821 83027F50 840CA000 00006350
4B43532D 31358B01 02C60201 818800A1 820575A0 05800081 0108A182 056A3076
80027F50 62138204 42210030 83026F06 8B010180 02018088 00811080 01019000
80011EA4 0683010A 95010802 0120811B 8401D4A4 0683010A 95010880 01019000
80015EA4 0683010A 95010802 01158126 8401D4A4 0683010A 95010880 01019000
800102A4 06830101 95010880 015CA406 83010A95 0108304C 62108202 41218302
50328B01 0280016A 88008138 30360201 01040A89 21138000 71751000 170C154F
62657274 68757220 54656368 6E6F6C6F 67696573 800A4345 5254535F 50524F56
03020780 30818A62 11820241 21830244 048B0102 800201F4 88008175 30733018
0C12536F 6E657261 204F7065 7261746F 72204341 03020600 30460414 536A2626
F981448A D3401553 8F14DF83 BB8A9EBD 0101FF30 19020105 0414536A 2626F981
448AD340 15538F14 DF83BB8A 9EBDA110 300E060C 2B060104 012A026E 02020201
A10F300D 300B0402 44220201 00800203 33308203 4A621182 02412183 0244228B
01028002 03E88800 81820333 3082032F 30820217 A0030201 0202027C 7D300D06
092A8648 86F70D01 01050500 3040310B 30090603 55040613 02464931 14301206
0355040A 130B5465 6C696153 6F6E6572 61311B30 19060355 04031312 536F6E65
7261204F 70657261 746F7220 4341301E 170D3034 31303038 31303134 30315A17
0D323431 30303831 30313430 315A3040 310B3009 06035504 06130246 49311430
12060355 040A130B 54656C69 61536F6E 65726131 1B301906 03550403 1312536F
6E657261 204F7065 7261746F 72204341 30820122 300D0609 2A864886 F70D0101
01050003 82010F00 3082010A 02820101 0098326B CF567B6C 97CF10C5 7137B512
F5DFA6BC DAF99247 64BC6122 AE182669 1D79DE78 D921AC99 BB8F162D B371A5AC
B4BFA89E AE217977 59765187 888BA7EE 2004858C 22889B98 6DE1B8C8 3F16B68C
AA1FED90 0117E019 A517910B 5830BF49 FECB68EF 1B2BF4C9 706D480D 1BB52818
81610CCE A8D79CB3 57BBAD3D A91BC30D 76E7029A 27B1E8A6 7B71996C 2548D081
47BCF40E B5BFE124 659D1758 275F9B61 46F68FE4 8473DF03 D4DECA89 84D4C4D0
154B4BCB BDE9FDEB D50898B0 1DF12723 C05B9B57 A2F53821 CC72990F ACD2121A
510BC4EC D1AC8004 B6A331B3 A14ACD21 8007E2C2 76C9F2AC 005C96DB 08225FE9
ABE07E4A CEB109B0 0617D0B2 977027F8 0B020301 0001A333 3031300F 0603551D
130101FF 04053003 0101FF30 11060355 1D0E040A 04084F14 DF83BB8A 9EBD300B
0603551D 0F040403 02010630 0D06092A 864886F7 0D010105 05000382 01010019
595F88BA 8A5A731A 9C8E69F6 51D7226F 7876FC02 E4309E06 EF00CB50 4192E015
4EE71388 70540AC9 B3834F1E 06495552 0ADEA7B8 3E8B7F7A 0D649C10 2FF1D27E
80A1BA08 B3BE84A4 0C5F2547 B3ACF67F E1BF0620 6C29A37E 8C2564B5 E68F9D42
A068EBD0 308AF658 9500252E DCAD5B6C 21CCDDE3 5186926A 3CF2B39E DCC36ABA
14B8CC2C F42513CB 7326240F 4AE64844 6621477A A0378D2A 9D67740E F636848A
FC7EC04F 75BD7629 3135CA7E 7EB9D343 D870F5FF 8D93929A 416E9129 EB5F7F2E
7A74B0A3 80FFC40A 527C9812 41416620 52AD58B5 ED665338 8A9BFFF4 79A7ABD3
DAC9C64E 77DD6FA2 339D90AE B2E21F61 48D4E1EB 0C7D59A3 0DE546F0 C57FB930
13621182 02412183 0244248B 01028002 05DC8800 30246210 82024121 83025031
8B010280 01388800 8110A706 30040402 4407A506 30040402 44043012 62108202
41218302 44078B01 028001C8 88003013 62118202 41218302 44308B01 02800203
E8880030 13621182 02412183 0244318B 01038002 03E88800 30126210 82024121
83024200 8B010280 01648800 30126210 82024121 83024300 8B010280 01648800
30126210 82024121 83024310 8B010280 01648800 30126210 82024121 83024311
8B010280 01648800 A1820453 A0058000 810109A1 82044830 1A80027F F0621482
02422183 026FC58B 01058801 C8C7047F 206FC530 16621482 02422183 026FC68B
01058801 D0C7047F 206FC630 16621482 02412183 026F078B 01028801 38C7047F
206F0730 16621482 02412183 026F7E8B 01038801 58C7047F 206F7E30 16621482
02412183 026F738B 01038801 60C7047F 206F5330 16621482 02412183 026FAD8B
01068801 18C7047F 206FAD30 16621482 02412183 026F788B 01028801 30C7047F
206F7830 14621282 02412183 026F058B 01078801 10C7022F 05301562 13820241
2183026F 3E8B0104 8800C704 7F206F3E 30156213 82024121 83026F3F 8B010488
00C7047F 206F3F30 16621482 02412183 026F7B8B 01038801 68C7047F 206F7B30
1C80047F F05F3B62 14820241 2183024F 208B0103 880108C7 047F206F 20301662
14820241 2183024F 528B0103 880110C7 047F206F 52301562 13820241 2183024F
638B0103 8800C704 7F206F63 30156213 82024121 83024F64 8B010288 00C7047F
206F6430 1A80027F F0621482 02412183 026F618B 01048801 88C7047F 206F6130
16621482 02412183 026F628B 01048801 98C7047F 206F6230 16621482 02412183
026F318B 01028801 90C7047F 206F3130 15621382 02412183 026F468B 01098800
C7047F20 6F463015 62138202 42218302 6F498B01 048800C7 047F106F 49301562
13820242 2183026F 3C8B010A 8800C704 7F106F3C 30156213 82024121 83026F43
8B010388 00C7047F 106F4330 15621382 02422183 026F478B 010A8800 C7047F10
6F473015 62138202 42218302 6F428B01 0A8800C7 047F106F 42301562 13820241
2183026F 458B010A 8800C704 7F206F45 30166214 82024621 83026F39 8B010D88
01E0C704 7F206F39 30156213 82024121 83026F37 8B010E88 00C7047F 206F3730
15621382 02412183 026F418B 010E8800 C7047F20 6F413015 62138202 41218302
6F508B01 0A8800C7 047F206F 50301562 13820241 2183026F 328B0104 8800C704
7F206F32 30156213 82024221 83026FC7 8B010A88 00C7047F 206FC730 15621382
02422183 026FC88B 010A8800 C7047F20 6FC83015 62138202 42218302 6FC98B01
0A8800C7 047F206F C9301562 13820242 2183026F CA8B0103 8800C704 7F206FCA
30156213 82024221 83026FCB 8B010A88 00C7047F 206FCB30 15621382 02422183
026FCC8B 010A8800 C7047F20 6FCC3016 62148202 41218302 6FCD8B01 048801D8
C7047F20 6FCD3015 62138202 42218302 6F3B8B01 0F8800C7 047F106F 3B301562
13820242 2183026F 4C8B0104 8800C704 7F106F4C 30156213 82024221 83026F4B
8B010F88 00C7047F 106F4B30 15621382 02412183 026FB58B 01028800 C7047F20
6FB53015 62138202 41218302 6FB68B01 038800C7 047F206F B6301980 027F1062
13820241 2183026F 548B0103 8800C704 7F206F54 30176215 82024221 83026F3A
8B010988 00C7067F 105F3A4F 3A301762 15820242 2183026F 4A8B0105 8800C706
7F105F3A 4F4A3017 62158202 42218302 6F4F8B01 058800C7 067F105F 3A4F4FA6
820223A0 05800081 010AA151 4F07A000 00015153 504F08A0 00000151 5350414F
08A00000 01510000 004F08A0 00000151 00000082 0382FC80 83010FC9 0F810280
00810281 04810203 708201F0 EA0F800D 01001000 00020100 03000055 00A28201
8C302295 01388201 01830101 30173015 80018086 10F81958 39102919 DEAB9089
47198438 FA302295 01348201 02830101 30173015 80018086 10F81958 39102919
DEAB9089 47198438 FA302295 01C88201 03830101 30173015 80018086 10F81958
39102919 DEAB9089 47198438 FA302295 01388201 01830102 30173015 80018086
10F81958 39102919 DEAB9089 47198438 FA302295 01348201 02830102 30173015
80018086 10F81958 39102919 DEAB9089 47198438 FA302295 01C88201 03830102
30173015 80018086 10F81958 39102919 DEAB9089 47198438 FA302295 013C8201
01830142 30173015 80018586 10F81958 39102919 DEAB9089 47198438 FA302295
01C88201 02830142 30173015 80018886 10F81958 39102919 DEAB9089 47198438
FA302295 01388201 01830130 30173015 80018886 10456E63 72797074 696F6E53
65637265 74302295 01348201 02830130 30173015 80018886 10506572 736F6E61
6C697361 74696F6E 4B302295 01C88201 03830130 30173015 80018886 104B6579
456E6372 79707469 6F6E4B65 79A33704 35007032 6630732E 06072A86 4886FC6B
01600B06 092A8648 86FC6B02 02026309 06072A86 4886FC6B 03640B06 092A8648
86FC6B04 8000A882 297EA005 80008101 0BA18229 1A4F1000 00000000 F0000000
00000001 234D064F 08A00000 01510000 00C48228 FA01001A DECAFFED 01020400
01100000 000000F0 00000000 00000123 4D060200 1F001A00 1F001400 1E002E00
1C009827 80001200 00000300 04000227 70020100 04001E02 040107A0 00000062
01010602 10A00000 00090003 FFFFFFFF 89107100 02030014 01100000 000000A0
00000000 00000123 4D060001 06001C43 80030200 02050400 000094FF FF006E00
71810101 08810000 80020007 00980005 318F000A 3D8C0002 2E1B181D 0441181D
258B0006 1B8D0009 87001B83 00048B00 087A0510 188C0007 18100B90 0B3D0310
48383D04 1065383D 05106C38 3D06106C 383D0710 6F383D08 1020383D 10061077
383D1007 106F383D 10081072 383D1009 106C383D 100A1064 3887017A 00207A06
211D7500 1F000100 0100098D 00052D1A 108107AD 0103AD01 928B0003 1A8B0004
3B7A0130 18770827 80000400 02000203 13B80000 00000000 00000000 00000000
00000000 00000000 00000000 00000000 00000000 00000000 00000000 00000000
00000000 00000000 00000000 00000000 00000000 00000000 00000000 00000000
00000000 00000000 00000000 00000000 00000000 00000000 00000000 00000000
00000000 00000000 00000000 00000000 00000000 00000000 00000000 00000000
00000000 00000000 00000000 00000000 00000000 00000000 00000000 00000000
00000000 00000000 00000000 00000000 00000000 00000000 00000000 00000000
00000000 00000000 00000000 00000000 00000000 00000000 00000000 00000000
00000000 00000000 00000000 00000000 00000000 00000000 00000000 00000000
00000000 00000000 00000000 00000000 00000000 00000000 00000000 00000000
00000000 00000000 00000000 00000000 00000000 00000000 00000000 00000000
00000000 00000000 00000000 00000000 00000000 00000000 00000000 00000000
00000000 00000000 00000000 00000000 00000000 00000000 00000000 00000000
00000000 00000000 00000000 00000000 00000000 00000000 00000000 00000000
00000000 00000000 00000000 00000000 00000000 00000000 00000000 00000000
00000000 00000000 00000000 00000000 00000000 00000000 00000000 00000000
00000000 00000000 00000000 00000000 00000000 00000000 00000000 00000000
00000000 00000000 00000000 00000000 00000000 00000000 00000000 00000000
00000000 00000000 00000000 00000000 00000000 00000000 00000000 00000000
00000000 00000000 00000000 00000000 00000000 00000000 00000000 00000000
00000000 00000000 00000000 00000000 00000000 00000000 00000000 00000000
00000000 00000000 00000000 00000000 00000000 00000000 00000000 00000000
00000000 00000000 00000000 00000000 00000000 00000000 00000000 00000000
00000000 00000000 00000000 00000000 00000000 00000000 00000000 00000000
00000000 00000000 00000000 00000000 00000000 00000000 00000000 00000000
00000000 00000000 00000000 00000000 00000000 00000000 00000000 00000000
00000000 00000000 00000000 00000000 00000000 00000000 00000000 00000000
00000000 00000000 00000000 00000000 00000000 00000000 00000000 00000000
00000000 00000000 00000000 00000000 00000000 00000000 00000000 00000000
00000000 00000000 00000000 00000000 00000000 00000000 00000000 00000000
00000000 00000000 00000000 00000000 00000000 00000000 00000000 00000000
00000000 00000000 00000000 00000000 00000000 00000000 00000000 00000000
00000000 00000000 00000000 00000000 00000000 00000000 00000000 00000000
00000000 00000000 00000000 00000000 00000000 00000000 00000000 00000000
00000000 00000000 00000000 00000000 00000000 00000000 00000000 00000000
00000000 00000000 00000000 00000000 00000000 00000000 00000000 00000000
00000000 00000000 00000000 00000000 00000000 00000000 00000000 00000000
00000000 00000000 00000000 00000000 00000000 00000000 00000000 00000000
00000000 00000000 00000000 00000000 00000000 00000000 00000000 00000000
00000000 00000000 00000000 00000000 00000000 00000000 00000000 00000000
00000000 00000000 00000000 00000000 00000000 00000000 00000000 00000000
00000000 00000000 00000000 00000000 00000000 00000000 00000000 00000000
00000000 00000000 00000000 00000000 00000000 00000000 00000000 00000000
00000000 00000000 00000000 00000000 00000000 00000000 00000000 00000000
00000000 00000000 00000000 00000000 00000000 00000000 00000000 00000000
00000000 00000000 00000000 00000000 00000000 00000000 00000000 00000000
00000000 00000000 00000000 00000000 00000000 00000000 00000000 00000000
00000000 00000000 00000000 00000000 00000000 00000000 00000000 00000000
00000000 00000000 00000000 00000000 00000000 00000000 00000000 00000000
00000000 00000000 00000000 00000000 00000000 00000000 00000000 00000000
00000000 00000000 00000000 00000000 00000000 00000000 00000000 00000000
00000000 00000000 00000000 00000000 00000000 00000000 00000000 00000000
00000000 00000000 00000000 00000000 00000000 00000000 00000000 00000000
00000000 00000000 00000000 00000000 00000000 00000000 00000000 00000000
00000000 00000000 00000000 00000000 00000000 00000000 00000000 00000000
00000000 00000000 00000000 00000000 00000000 00000000 00000000 00000000
00000000 00000000 00000000 00000000 00000000 00000000 00000000 00000000
00000000 00000000 00000000 00000000 00000000 00000000 00000000 00000000
00000000 00000000 00000000 00000000 00000000 00000000 00000000 00000000
00000000 00000000 00000000 00000000 00000000 00000000 00000000 00000000
00000000 00000000 00000000 00000000 00000000 00000000 00000000 00000000
00000000 00000000 00000000 00000000 00000000 00000000 00000000 00000000
00000000 00000000 00000000 00000000 00000000 00000000 00000000 00000000
00000000 00000000 00000000 00000000 00000000 00000000 00000000 00000000
00000000 00000000 00000000 00000000 00000000 00000000 00000000 00000000
00000000 00000000 00000000 00000000 00000000 00000000 00000000 00000000
00000000 00000000 00000000 00000000 00000000 00000000 00000000 00000000
00000000 00000000 00000000 00000000 00000000 00000000 00000000 00000000
00000000 00000000 00000000 00000000 00000000 00000000 00000000 00000000
00000000 00000000 00000000 00000000 00000000 00000000 00000000 00000000
00000000 00000000 00000000 00000000 00000000 00000000 00000000 00000000
00000000 00000000 00000000 00000000 00000000 00000000 00000000 00000000
00000000 00000000 00000000 00000000 00000000 00000000 00000000 00000000
00000000 00000000 00000000 00000000 00000000 00000000 00000000 00000000
00000000 00000000 00000000 00000000 00000000 00000000 00000000 00000000
00000000 00000000 00000000 00000000 00000000 00000000 00000000 00000000
00000000 00000000 00000000 00000000 00000000 00000000 00000000 00000000
00000000 00000000 00000000 00000000 00000000 00000000 00000000 00000000
00000000 00000000 00000000 00000000 00000000 00000000 00000000 00000000
00000000 00000000 00000000 00000000 00000000 00000000 00000000 00000000
00000000 00000000 00000000 00000000 00000000 00000000 00000000 00000000
00000000 00000000 00000000 00000000 00000000 00000000 00000000 00000000
00000000 00000000 00000000 00000000 00000000 00000000 00000000 00000000
00000000 00000000 00000000 00000000 00000000 00000000 00000000 00000000
00000000 00000000 00000000 00000000 00000000 00000000 00000000 00000000
00000000 00000000 00000000 00000000 00000000 00000000 00000000 00000000
00000000 00000000 00000000 00000000 00000000 00000000 00000000 00000000
00000000 00000000 00000000 00000000 00000000 00000000 00000000 00000000
00000000 00000000 00000000 00000000 00000000 00000000 00000000 00000000
00000000 00000000 00000000 00000000 00000000 00000000 00000000 00000000
00000000 00000000 00000000 00000000 00000000 00000000 00000000 00000000
00000000 00000000 00000000 00000000 00000000 00000000 00000000 00000000
00000000 00000000 00000000 00000000 00000000 00000000 00000000 00000000
00000000 00000000 00000000 00000000 00000000 00000000 00000000 00000000
00000000 00000000 00000000 00000000 00000000 00000000 00000000 00000000
00000000 00000000 00000000 00000000 00000000 00000000 00000000 00000000
00000000 00000000 00000000 00000000 00000000 00000000 00000000 00000000
00000000 00000000 00000000 00000000 00000000 00000000 00000000 00000000
00000000 00000000 00000000 00000000 00000000 00000000 00000000 00000000
00000000 00000000 00000000 00000000 00000000 00000000 00000000 00000000
00000000 00000000 00000000 00000000 00000000 00000000 00000000 00000000
00000000 00000000 00000000 00000000 00000000 00000000 00000000 00000000
00000000 00000000 00000000 00000000 00000000 00000000 00000000 00000000
00000000 00000000 00000000 00000000 00000000 00000000 00000000 00000000
00000000 00000000 00000000 00000000 00000000 00000000 00000000 00000000
00000000 00000000 00000000 00000000 00000000 00000000 00000000 00000000
00000000 00000000 00000000 00000000 00000000 00000000 00000000 00000000
00000000 00000000 00000000 00000000 00000000 00000000 00000000 00000000
00000000 00000000 00000000 00000000 00000000 00000000 00000000 00000000
00000000 00000000 00000000 00000000 00000000 00000000 00000000 00000000
00000000 00000000 00000000 00000000 00000000 00000000 00000000 00000000
00000000 00000000 00000000 00000000 00000000 00000000 00000000 00000000
00000000 00000000 00000000 00000000 00000000 00000000 00000000 00000000
00000000 00000000 00000000 00000000 00000000 00000000 00000000 00000000
00000000 00000000 00000000 00000000 00000000 00000000 00000000 00000000
00000000 00000000 00000000 00000000 00000000 00000000 00000000 00000000
00000000 00000000 00000000 00000000 00000000 00000000 00000000 00000000
00000000 00000000 00000000 00000000 00000000 00000000 00000000 00000000
00000000 00000000 00000000 00000000 00000000 00000000 00000000 00000000
00000000 00000000 00000000 00000000 00000000 00000000 00000000 00000000
00000000 00000000 00000000 00000000 00000000 00000000 00000000 00000000
00000000 00000000 00000000 00000000 00000000 00000000 00000000 00000000
00000000 00000000 00000000 00000000 00000000 00000000 00000000 00000000
00000000 00000000 00000000 00000000 00000000 00000000 00000000 00000000
00000000 00000000 00000000 00000000 00000000 00000000 00000000 00000000
00000000 00000000 00000000 00000000 00000000 00000000 00000000 00000000
00000000 00000000 00000000 00000000 00000000 00000000 00000000 00000000
00000000 00000000 00000000 00000000 00000000 00000000 00000000 00000000
00000000 00000000 00000000 00000000 00000000 00000000 00000000 00000000
00000000 00000000 00000000 00000000 00000000 00000000 00000000 00000000
00000000 00000000 00000000 00000000 00000000 00000000 00000000 00000000
00000000 00000000 00000000 00000000 00000000 00000000 00000000 00000000
00000000 00000000 00000000 00000000 00000000 00000000 00000000 00000000
00000000 00000000 00000000 00000000 00000000 00000000 00000000 00000000
00000000 00000000 00000000 00000000 00000000 00000000 00000000 00000000
00000000 00000000 00000000 00000000 00000000 00000000 00000000 00000000
00000000 00000000 00000000 00000000 00000000 00000000 00000000 00000000
00000000 00000000 00000000 00000000 00000000 00000000 00000000 00000000
00000000 00000000 00000000 00000000 00000000 00000000 00000000 00000000
00000000 00000000 00000000 00000000 00000000 00000000 00000000 00000000
00000000 00000000 00000000 00000000 00000000 00000000 00000000 00000000
00000000 00000000 00000000 00000000 00000000 00000000 00000000 00000000
00000000 00000000 00000000 00000000 00000000 00000000 00000000 00000000
00000000 00000000 00000000 00000000 00000000 00000000 00000000 00000000
00000000 00000000 00000000 00000000 00000000 00000000 00000000 00000000
00000000 00000000 00000000 00000000 00000000 00000000 00000000 00000000
00000000 00000000 00000000 00000000 00000000 00000000 00000000 00000000
00000000 00000000 00000000 00000000 00000000 00000000 00000000 00000000
00000000 00000000 00000000 00000000 00000000 00000000 00000000 00000000
00000000 00000000 00000000 00000000 00000000 00000000 00000000 00000000
00000000 00000000 00000000 00000000 00000000 00000000 00000000 00000000
00000000 00000000 00000000 00000000 00000000 00000000 00000000 00000000
00000000 00000000 00000000 00000000 00000000 00000000 00000000 00000000
00000000 00000000 00000000 00000000 00000000 00000000 00000000 00000000
00000000 00000000 00000000 00000000 00000000 00000000 00000000 00000000
00000000 00000000 00000000 00000000 00000000 00000000 00000000 00000000
00000000 00000000 00000000 00000000 00000000 00000000 00000000 00000000
00000000 00000000 00000000 00000000 00000000 00000000 00000000 00000000
00000000 00000000 00000313 B8000000 00000000 00000000 00000000 00000000
00000000 00000000 00000000 00000000 00000000 00000000 00000000 00000000
00000000 00000000 00000000 00000000 00000000 00000000 00000000 00000000
00000000 00000000 00000000 00000000 00000000 00000000 00000000 00000000
00000000 00000000 00000000 00000000 00000000 00000000 00000000 00000000
00000000 00000000 00000000 00000000 00000000 00000000 00000000 00000000
00000000 00000000 00000000 00000000 00000000 00000000 00000000 00000000
00000000 00000000 00000000 00000000 00000000 00000000 00000000 00000000
00000000 00000000 00000000 00000000 00000000 00000000 00000000 00000000
00000000 00000000 00000000 00000000 00000000 00000000 00000000 00000000
00000000 00000000 00000000 00000000 00000000 00000000 00000000 00000000
00000000 00000000 00000000 00000000 00000000 00000000 00000000 00000000
00000000 00000000 00000000 00000000 00000000 00000000 00000000 00000000
00000000 00000000 00000000 00000000 00000000 00000000 00000000 00000000
00000000 00000000 00000000 00000000 00000000 00000000 00000000 00000000
00000000 00000000 00000000 00000000 00000000 00000000 00000000 00000000
00000000 00000000 00000000 00000000 00000000 00000000 00000000 00000000
00000000 00000000 00000000 00000000 00000000 00000000 00000000 00000000
00000000 00000000 00000000 00000000 00000000 00000000 00000000 00000000
00000000 00000000 00000000 00000000 00000000 00000000 00000000 00000000
00000000 00000000 00000000 00000000 00000000 00000000 00000000 00000000
00000000 00000000 00000000 00000000 00000000 00000000 00000000 00000000
00000000 00000000 00000000 00000000 00000000 00000000 00000000 00000000
00000000 00000000 00000000 00000000 00000000 00000000 00000000 00000000
00000000 00000000 00000000 00000000 00000000 00000000 00000000 00000000
00000000 00000000 00000000 00000000 00000000 00000000 00000000 00000000
00000000 00000000 00000000 00000000 00000000 00000000 00000000 00000000
00000000 00000000 00000000 00000000 00000000 00000000 00000000 00000000
00000000 00000000 00000000 00000000 00000000 00000000 00000000 00000000
00000000 00000000 00000000 00000000 00000000 00000000 00000000 00000000
00000000 00000000 00000000 00000000 00000000 00000000 00000000 00000000
00000000 00000000 00000000 00000000 00000000 00000000 00000000 00000000
00000000 00000000 00000000 00000000 00000000 00000000 00000000 00000000
00000000 00000000 00000000 00000000 00000000 00000000 00000000 00000000
00000000 00000000 00000000 00000000 00000000 00000000 00000000 00000000
00000000 00000000 00000000 00000000 00000000 00000000 00000000 00000000
00000000 00000000 00000000 00000000 00000000 00000000 00000000 00000000
00000000 00000000 00000000 00000000 00000000 00000000 00000000 00000000
00000000 00000000 00000000 00000000 00000000 00000000 00000000 00000000
00000000 00000000 00000000 00000000 00000000 00000000 00000000 00000000
00000000 00000000 00000000 00000000 00000000 00000000 00000000 00000000
00000000 00000000 00000000 00000000 00000000 00000000 00000000 00000000
00000000 00000000 00000000 00000000 00000000 00000000 00000000 00000000
00000000 00000000 00000000 00000000 00000000 00000000 00000000 00000000
00000000 00000000 00000000 00000000 00000000 00000000 00000000 00000000
00000000 00000000 00000000 00000000 00000000 00000000 00000000 00000000
00000000 00000000 00000000 00000000 00000000 00000000 00000000 00000000
00000000 00000000 00000000 00000000 00000000 00000000 00000000 00000000
00000000 00000000 00000000 00000000 00000000 00000000 00000000 00000000
00000000 00000000 00000000 00000000 00000000 00000000 00000000 00000000
00000000 00000000 00000000 00000000 00000000 00000000 00000000 00000000
00000000 00000000 00000000 00000000 00000000 00000000 00000000 00000000
00000000 00000000 00000000 00000000 00000000 00000000 00000000 00000000
00000000 00000000 00000000 00000000 00000000 00000000 00000000 00000000
00000000 00000000 00000000 00000000 00000000 00000000 00000000 00000000
00000000 00000000 00000000 00000000 00000000 00000000 00000000 00000000
00000000 00000000 00000000 00000000 00000000 00000000 00000000 00000000
00000000 00000000 00000000 00000000 00000000 00000000 00000000 00000000
00000000 00000000 00000000 00000000 00000000 00000000 00000000 00000000
00000000 00000000 00000000 00000000 00000000 00000000 00000000 00000000
00000000 00000000 00000000 00000000 00000000 00000000 00000000 00000000
00000000 00000000 00000000 00000000 00000000 00000000 00000000 00000000
00000000 00000000 00000000 00000000 00000000 00000000 00000000 00000000
00000000 00000000 00000000 00000000 00000000 00000000 00000000 00000000
00000000 00000000 00000000 00000000 00000000 00000000 00000000 00000000
00000000 00000000 00000000 00000000 00000000 00000000 00000000 00000000
00000000 00000000 00000000 00000000 00000000 00000000 00000000 00000000
00000000 00000000 00000000 00000000 00000000 00000000 00000000 00000000
00000000 00000000 00000000 00000000 00000000 00000000 00000000 00000000
00000000 00000000 00000000 00000000 00000000 00000000 00000000 00000000
00000000 00000000 00000000 00000000 00000000 00000000 00000000 00000000
00000000 00000000 00000000 00000000 00000000 00000000 00000000 00000000
00000000 00000000 00000000 00000000 00000000 00000000 00000000 00000000
00000000 00000000 00000000 00000000 00000000 00000000 00000000 00000000
00000000 00000000 00000000 00000000 00000000 00000000 00000000 00000000
00000000 00000000 00000000 00000000 00000000 00000000 00000000 00000000
00000000 00000000 00000000 00000000 00000000 00000000 00000000 00000000
00000000 00000000 00000000 00000000 00000000 00000000 00000000 00000000
00000000 00000000 00000000 00000000 00000000 00000000 00000000 00000000
00000000 00000000 00000000 00000000 00000000 00000000 00000000 00000000
00000000 00000000 00000000 00000000 00000000 00000000 00000000 00000000
00000000 00000000 00000000 00000000 00000000 00000000 00000000 00000000
00000000 00000000 00000000 00000000 00000000 00000000 00000000 00000000
00000000 00000000 00000000 00000000 00000000 00000000 00000000 00000000
00000000 00000000 00000000 00000000 00000000 00000000 00000000 00000000
00000000 00000000 00000000 00000000 00000000 00000000 00000000 00000000
00000000 00000000 00000000 00000000 00000000 00000000 00000000 00000000
00000000 00000000 00000000 00000000 00000000 00000000 00000000 00000000
00000000 00000000 00000000 00000000 00000000 00000000 00000000 00000000
00000000 00000000 00000000 00000000 00000000 00000000 00000000 00000000
00000000 00000000 00000000 00000000 00000000 00000000 00000000 00000000
00000000 00000000 00000000 00000000 00000000 00000000 00000000 00000000
00000000 00000000 00000000 00000000 00000000 00000000 00000000 00000000
00000000 00000000 00000000 00000000 00000000 00000000 00000000 00000000
00000000 00000000 00000000 00000000 00000000 00000000 00000000 00000000
00000000 00000000 00000000 00000000 00000000 00000000 00000000 00000000
00000000 00000000 00000000 00000000 00000000 00000000 00000000 00000000
00000000 00000000 00000000 00000000 00000000 00000000 00000000 00000000
00000000 00000000 00000000 00000000 00000000 00000000 00000000 00000000
00000000 00000000 00000000 00000000 00000000 00000000 00000000 00000000
00000000 00000000 00000000 00000000 00000000 00000000 00000000 00000000
00000000 00000000 00000000 00000000 00000000 00000000 00000000 00000000
00000000 00000000 00000000 00000000 00000000 00000000 00000000 00000000
00000000 00000000 00000000 00000000 00000000 00000000 00000000 00000000
00000000 00000000 00000000 00000000 00000000 00000000 00000000 00000000
00000000 00000000 00000000 00000000 00000000 00000000 00000000 00000000
00000000 00000000 00000000 00000000 00000000 00000000 00000000 00000000
00000000 00000000 00000000 00000000 00000000 00000000 00000000 00000000
00000000 00000000 00000000 00000000 00000000 00000000 00000000 00000000
00000000 00000000 00000000 00000000 00000000 00000000 00000000 00000000
00000000 00000000 00000000 00000000 00000000 00000000 00000000 00000000
00000000 00000000 00000000 00000000 00000000 00000000 00000000 00000000
00000000 00000000 00000000 00000000 00000000 00000000 00000000 00000000
00000000 00000000 00000000 00000000 00000000 00000000 00000000 00000000
00000000 00000000 00000000 00000000 00000000 00000000 00000000 00000000
00000000 00000000 00000000 00000000 00000000 00000000 00000000 00000000
00000000 00000000 00000000 00000000 00000000 00000000 00000000 00000000
00000000 00000000 00000000 00000000 00000000 00000000 00000000 00000000
00000000 00000000 00000000 00000000 00000000 00000000 00000000 00000000
00000000 00000000 00000000 00000000 00000000 00000000 00000000 00000000
00000000 00000000 00000000 00000000 00000000 00000000 00000000 00000000
00000000 00000000 00000000 00000000 00000000 00000000 00000000 00000000
00000000 00000000 00000000 00000000 00000000 00000000 00000000 00000000
00000000 00000000 00000000 00000000 00000000 00000000 00000000 00000000
00000000 00000000 00000000 00000000 00000000 00000000 00000000 00000000
00000000 00000000 00000000 00000000 00000000 00000000 00000000 00000000
00000000 00000000 00000000 00000000 00000000 00000000 00000000 00000000
00000000 00000000 00000000 00000000 00000000 00000000 00000000 00000000
00000000 00000000 00000000 00000000 00000000 00000000 00000000 00000000
00000000 00000000 00000000 00000000 00000000 00000000 00000000 00000000
00000000 00000000 00000000 00000000 00000000 00000000 00000000 00000000
00000000 00000000 00000000 00000000 00000000 00000000 00000000 00000000
00000000 00000000 00000000 00000000 00000000 00000000 00000000 00000000
00000000 00000000 00000000 00000000 00000000 00000000 00000000 00000000
00000000 00000000 00000000 00000000 00000000 00000000 00000000 00000000
00000000 00000000 00000000 00000000 00000000 00000000 00000000 00000000
00000000 00000000 00000000 00000000 00000000 00000000 00000000 00000000
00000000 00000000 00000000 00000000 00000000 00000000 00000000 00000000
00000000 00000000 00000000 00000000 00000000 00000000 00000000 00000000
00000000 00000000 00000000 00000000 00000000 00000000 00000000 00000000
00000000 00000000 00000000 00000000 00000000 00000000 00000000 00000000
00000000 00000000 00000000 00000000 00000000 00000000 00000000 00000000
00000000 00000000 00000000 00000000 00000000 00000000 00000000 00000000
00000000 00000000 00000000 00000000 00000000 00000000 00000000 00000000
00000000 00000000 00000000 00000000 00000000 00000000 00000000 00000000
00000000 00000000 00000000 00000000 00000000 00000000 00000000 00000000
00000000 00000000 00000000 00000000 00000000 00000000 00000000 00000000
00000000 00000000 00000000 00000000 00000000 00000000 00000000 00000000
00000000 00000000 00000000 00000000 00000000 00000000 00000000 00000000
00000000 00000000 00000000 00000000 00000000 00000000 00000000 00000000
00000000 00000000 00000000 00000000 00000000 00000000 00000000 00000000
00000000 00000000 00000000 00000000 00000000 00000000 00000000 00000000
00000000 00000000 00000000 00000000 00000000 00000000 00000000 00000000
00000000 00000000 00000000 00000000 00000000 00000000 00000000 00000000
00000000 00000000 00000000 00000000 00000000 00000000 00000000 00000000
00000000 00000000 00000000 00000000 00000000 00000000 00000000 00000000
00000000 00000000 00000000 00000000 00000000 00000000 00000000 00000000
00000000 00000000 00000000 00000000 00000000 00000000 00000000 00000000
00000000 00000000 0005002E 000B0200 00000200 00010600 00240381 0A130381
0A160681 0A000380 03020680 03000381 09090681 09000100 00000900 1200051B
034E1A03 00090404 0C040907 560E04A2 5730554F 10000000 0000F000 00000000
0001234D 064F1000 00000000 A0000000 00000001 234D064F 10000000 0000A000
00000000 0001234D 06820300 0000C900 EF16C702 0001C802 0001CA0C 0100FF00
10010000 00020100 A746A005 80008101 0D4F09A0 00000559 10100001 4F08A000
00015100 0000A005 0403B000 01810116 04010004 01003018 8010A000 00008710
02FFFFFF FF890403 00FF8101 00820100 A72CA005 80008101 0E4F09A0 00000559
10100002 4F08A000 00015100 0000A005 0403B000 00810116 04010004 0100AA07
A0058000 810110