A0488001 02810100 820C5465 6C75735F 4F544D30 3033830A 89122300 00293831
500FA506 81008400 8B00A608 06066781 0F010201 8714A112 35010347 0D027370
0574656C 75730363 6F6DB082 0209A005 80008101 00810667 810F0102 01A212A1
10820278 2183023F 008B0102 C6010188 00A319A1 11820241 2183022F 058B010C
80010888 01288304 656E6672 A41FA111 82024121 83022FE2 8B010A80 010A8801
10830A98 21320000 92831305 F0A531A1 13820442 21002683 022F008B 010B8001
268801F0 831A6118 4F10A000 00008710 02F110FF FF89B001 40FF5004 5553494D
A6820173 A1148204 42210046 83022F06 8B010180 02034888 0130831B 8401D4A4
0683010A 95010880 01019000 80011EA4 0683010A 95010882 012B8311 8C02A0E8
90008001 07A40683 010A9501 08820135 831B8401 D4A40683 010A9501 0880011B
97008001 04A40683 010A9501 0882012B 831B8401 D4A40683 010A9501 0880011B
97008001 04A40683 010A9501 0882012B 83058001 01900082 0141831B 8401D4A4
0683010A 95010880 01019000 80011EA4 0683010A 95010882 012B831B 8401D4A4
0683010A 95010880 011B9700 800104A4 0683010A 95010882 012B830B 80011FA4
0683010A 95010882 013B831B 8401D4A4 0683010A 95010880 0107A406 83010A95
01088001 18970082 012B8320 8401D4A4 0683010A 95010880 01019000 80010297
0080015C A4068301 0A950108 82012683 1B8401D4 A4068301 0A950108 80010190
0080015E A4068301 0A950108 82012B83 268401D4 A4068301 0A950108 80010190
00800102 A4068301 01950108 80015CA4 0683010A 950108A3 28A00580 00810101
A11F300D 80010181 08383838 38383838 38300E80 02008181 08383838 38383838
38A233A0 05800081 0102A12A A0283013 80010181 08313233 34FFFFFF FF820101
83010630 1180010A 81083837 3437FFFF FFFF8402 00AAA130 A0058000 810103A1
27302562 23820278 2183027F F18410A0 00000087 1002F110 FFFF89B0 0140FF8B
0102C602 01818800 A43DA005 80008101 04A12CA1 2A800101 81010182 10AAAAAA
AAAAAAAA AAAAAAAA AAAAAAAA AA8310BB BBBBBBBB BBBBBBBB BBBBBBBB BBBBBB84
06000000 040000A2 1FA00580 00810105 A116A014 30128002 00818108 31323334
FFFFFFFF 82020081 A1820709 A0058000 810106A1 8206FE30 82015080 027FF162
14820442 21004B83 026F068B 01018002 03398801 B8811B84 01D4A406 83010A95
01088001 01900080 011EA406 83010A95 01080201 30812184 01D4A406 83010A95
01088001 01A40683 01019501 0880015E A4068301 0A950108 02012A81 218401D4
A4068301 0A950108 800103A4 06830101 95010880 015CA406 83010A95 01080201
2A811B84 01D4A406 83010A95 01088001 01900080 015EA406 83010A95 01080201
30812684 01D4A406 83010A95 01088001 01900080 0102A406 83010195 01088001
5CA40683 010A9501 08020125 81168001 01A40683 01019501 0880011E A4068301
0A950108 02013581 118C02A0 E8900080 0107A406 83010A95 01080201 3A812C84
01D4A406 83010A95 01088001 01A40683 01019501 08800102 A4068301 81950108
80015CA4 0683010A 95010802 011F811B 8401D4A4 0683010A 95010880 011B9700
800144A4 0683010A 95010830 1E621182 02412183 026F078B 01028001 09880138
81090839 20220040 59700130 19621182 02412183 026F7E8B 01038001 0B880158
02010A81 01013019 62118202 41218302 6F738B01 0380010E 88016002 010D8101
01301962 11820241 2183026F AD8B0104 80010488 01188104 00000003 30176211
82024121 83026F78 8B010280 01028801 30810200 04301262 10820241 2183026F
C48B0103 8001DA88 00301962 11820241 2183026F 058B0105 80010888 01108104
656E6672 30236211 82024121 83026F38 8B010280 010E8801 20810E18 4A170C27
CE050040 00100000 00301662 11820241 2183026F 088B0103 80012188 01408101
07301662 11820241 2183026F 098B0103 80012188 01488101 07301B62 11820241
2183026F 5B8B0103 80010688 01788106 F00000F0 00003013 62118202 41218302
6F5C8B01 06800103 88018030 16621082 02412183 026F3E8B 01028001 02880081
02545530 16621082 02412183 026F3F8B 01028001 02880081 02FFFF30 13621182
02412183 026F7B8B 01038001 0C880168 301F621B 82024121 83026F61 8B010280
02014088 0188A507 C205FFFF FF000081 00304762 11820241 2183026F 628B0102
80013288 01988132 03022240 00030222 8000FFFF FF0000FF FFFF0000 FFFFFF00
00FFFFFF 0000FFFF FF0000FF FFFF0000 FFFFFF00 00FFFFFF 00003016 62118202
41218302 6F318B01 02800101 88019081 01053015 62108202 41218302 6F468B01
04800111 88008101 03302162 13820442 21000483 026FB78B 01048001 14880108
810419F1 FF008104 11F2FF00 30146212 82044221 00228302 6F408B01 03800166
88003014 62128204 42210020 83026F49 8B010280 01A08800 30176212 82044221
000D8302 6F4C8B01 0280010D 88008101 00301B62 19820442 2100B083 026F3C8B
01038002 06E08800 A504C102 00FF3012 62108202 41218302 6F438B01 03800102
88003041 62128204 4221002B 83026F42 8B010380 01818800 812B534D 53204365
6E747265 FFFFFFFF FFEDFFFF FFFFFFFF FFFFFFFF FFFF0791 61748500 71F2FFFF
FFFFFFFF AA301262 10820241 2183026F 458B0103 80011488 00301E62 11820241
2183026F E38B0103 80011288 01F00201 0C810603 02220000 01301562 13820442
21003683 026FE48B 01038001 368801C0 302E6212 82044221 001E8302 6FC78B01
03800178 88008118 566F6963 656D6169 6CFFFFFF FFFFFFFF 07919120 854000F1
30296212 82044221 000D8302 6FC88B01 03800134 88008101 0002010C 81010002
010C8101 0002010C 81010030 1C621782 04422100 0483026F C98B0103 80011088
00A503C1 01008101 01301962 17820442 21000583 026FCA8B 01038001 148800A5
03C10100 302D6212 82044221 00108302 6FCB8B01 03800140 88008102 01000201
0E810202 0002010E 81020300 02010E81 02040030 13621182 02782183 025F3B8B
0107C602 01818800 30196211 82024121 83024F20 8B010380 01098801 08020108
81010730 19621182 02412183 024F528B 01038001 09880110 02010881 01073022
80027FF1 62118202 41218302 6FD98B01 0280013C 8801E881 09030267 03022203
02883017 62118202 41218302 6F568B01 08800102 88012881 02000030 15621082
02412183 026F578B 01088001 64880081 01003019 62118202 41218302 6FCD8B01
02800113 8801D881 04A31180 0F302F62 12820442 21000D83 026F4E8B 01038001
41880081 01000201 0C810100 02010C81 01000201 0C810100 02010C81 0100302B
62148204 42210018 83026FC5 8B010480 0201E088 01C88108 430685D4 22B33A05
02011081 06430483 452C1530 3E621482 04422100 0883026F C68B0104 80020190
8801D081 08030222 0000FFFE 01810803 02880000 FFFE0181 08030267 0000FFFE
01810803 02270000 FFFE0230 14800062 10820278 2183027F 108B0102 C6010188
00303262 13820442 21004B83 026F068B 01018002 02EE8800 811B8401 D4A40683
010A9501 08800101 90008001 1EA40683 010A9501 08A68201 77A00580 00810107
A14D4F07 A0000001 5153504F 08A00000 01515350 414F08A0 00000151 0000004F
08A00000 01510000 00820382 FC808301 0FC90B81 02025581 02800082 01F0EA0F
800D0100 10000002 011203B2 010000A2 81D83022 95013882 01018301 01301730
15800180 8610922C D3917892 F9F3E726 64ECA7B6 ED613022 95013482 01028301
01301730 15800180 861065EC 8A8CD37B 1AD827A2 E3154EA2 449E3022 9501C882
01038301 01301730 15800180 8610F819 58391029 19DEAB90 89471984 38FA3022
95013882 01018301 20301730 15800180 8610456E 63727970 74696F6E 53656372
65743022 95013482 01028301 20301730 15800180 86105065 72736F6E 616C6973
6174696F 6E4B3022 9501C882 01038301 20301730 15800180 86104B65 79456E63
72797074 696F6E4B 6579A344 04420070 3F663D73 3B06072A 864886FC 6B01600B
06092A86 4886FC6B 02020263 0906072A 864886FC 6B03640B 06092A86 4886FC6B
04025564 0B06092A 864886FC 6B048000 A746A005 80008101 084F09A0 00000559
10100001 4F08A000 00015100 0000A005 0403B000 0181010E 04010004 01003018
8010A000 00008710 02F110FF FF89B001 40FF8101 00820100 AA07A005 80008101
09