A0488001 02810100 82206555 49434320 4C544520 3532332E 3030202D 2D20526F
67657273 204D4E4F 5344830A 89302720 52300000 0137A508 81008200 84008B00
A6080606 67810F01 0201B082 0270A005 80008101 00810667 810F0102 01A212A1
10820278 2183023F 008B0102 C6010188 00A317A1 11820241 2183022F 058B010F
80010A88 01288302 656EA41F A1118202 41218302 2FE28B01 0D80010A 88011083
0A980372 02250300 001073A5 50A11382 04422100 2683022F 008B010E 80014C88
01F0831A 61184F10 A0000000 871002F3 10FFFF89 B00140FF 50045553 494D8201
0C831A61 184F10A0 00000087 1004F310 FFFF89B0 0142FF50 04495349 4DA68201
BDA11482 04422100 4683022F 068B0101 8002041A 88013083 1B8401D4 A4068301
0A950108 80010190 0080011E A4068301 0A950108 82012B83 118C02A0 E8900080
0107A406 83010A95 01088201 35831B84 01D4A406 83010A95 01088001 1B970080
0104A406 83010A95 01088201 2B831B84 01D4A406 83010A95 01088001 1B970080
0104A406 83010A95 01088201 2B830580 01019000 82014183 1B8401D4 A4068301
0A950108 80010190 0080011E A4068301 0A950108 82012B83 1B8401D4 A4068301
0A950108 80011B97 00800104 A4068301 0A950108 82012B83 1080011B 97008001
04A40683 010A9501 08820136 830B8001 1FA40683 010A9501 0882013B 83158401
32970080 01039000 800118A4 0683010A 95010882 0131831B 8401D4A4 0683010A
95010880 0107A406 83010A95 01088001 18970082 012B8316 8401D4A4 0683010A
95010880 015FA406 83010A95 01088201 30832084 01D4A406 83010A95 01088001
01900080 01029700 80015CA4 0683010A 95010882 0126831B 8401D4A4 0683010A
95010880 01019000 80015EA4 0683010A 95010882 012B8326 8401D4A4 0683010A
95010880 01019000 800102A4 06830101 95010880 015CA406 83010A95 0108A239
A0058000 810101A1 30A02E30 16800101 81083132 3334FFFF FFFF8201 01830106
84015530 1480010A 81088888 88888888 88888301 03840200 AAA328A0 05800081
0102A11F 300D8001 01810831 32333435 36373830 0E800200 81810831 32333435
363738A1 30A00580 00810103 A1273025 62238202 78218302 7FF18410 A0000000
871002F3 10FFFF89 B00140FF 8B0102C6 02018188 00A445A0 05800081 0104A12C
A12A8001 01810101 8210AAAA AAAAAAAA AAAAAAAA AAAAAAAA AAAA8310 AAAAAAAA
AAAAAAAA AAAAAAAA AAAAAAAA 83060002 00000000 840607FF FFFFFFFF A225A005
80008101 05A11CA0 1A301880 02008181 08313233 34FFFFFF FF820200 81830103
840155A1 820B7AA0 05800081 0106A182 0B6F3082 01508002 7FF16214 82044221
004B8302 6F068B01 01800204 1A8801B8 811B8401 D4A40683 010A9501 08800101
90008001 1EA40683 010A9501 08020130 81218401 D4A40683 010A9501 08800101
A4068301 01950108 80015EA4 0683010A 95010802 012A8121 8401D4A4 0683010A
95010880 0103A406 83010195 01088001 5CA40683 010A9501 0802012A 811B8401
D4A40683 010A9501 08800101 90008001 5EA40683 010A9501 08020130 81268401
D4A40683 010A9501 08800101 90008001 02A40683 01019501 0880015C A4068301
0A950108 02012581 118C02A0 E8900080 0107A406 83010A95 01080201 3A812C84
01D4A406 83010A95 01088001 01A40683 01019501 08800102 A4068301 81950108
80015CA4 0683010A 95010802 011F8116 800103A4 06830101 95010880 011CA406
83010A95 01080201 35811B84 01D4A406 83010A95 01088001 1B970080 0144A406
83010A95 01083013 62118202 41218302 6FD98B01 0280010F 8801E830 15621082
02412183 026FDC8B 01028001 01880081 0100301E 62118202 41218302 6F078B01
02800109 88013881 09083920 27606012 7467301F 62118202 41218302 6F7E8B01
0380010B 88015802 01048107 03022700 00FF0130 1F621182 02412183 026F738B
01038001 0E880160 02010781 07030227 0000FF01 30196211 82024121 83026FAD
8B010480 01048801 18810400 00000330 17621182 02412183 026F788B 01028001
02880130 81020040 30126210 82024121 83026FC4 8B010380 01DA8800 30176211
82024121 83026F05 8B010580 010A8801 10810265 6E302062 11820241 2183026F
388B0102 80010B88 0120810B 18CA178C 27F60500 40024030 16621182 02412183
026F088B 01038001 21880140 81010730 16621182 02412183 026F098B 01038001
21880148 81010730 1B621182 02412183 026F5B8B 01038001 06880178 8106F000
00F00000 30136211 82024121 83026F5C 8B010280 01038801 80301262 10820241
2183026F 3E8B0102 80010188 00301262 10820241 2183026F 3F8B0102 80010A88
00301362 11820241 2183026F 7B8B0103 80010C88 01683013 62118202 78218302
5F3B8B01 06C60201 81880030 19621182 02412183 024F208B 01038001 09880108
02010881 01073019 62118202 41218302 4F528B01 03800109 88011002 01088101
07308201 C080027F F1621282 02412183 026F618B 01028002 01A48801 88818201
A4030227 C080FFFF FF0000FF FFFF0000 FFFFFF00 00FFFFFF 0000FFFF FF0000FF
FFFF0000 FFFFFF00 00FFFFFF 0000FFFF FF0000FF FFFF0000 FFFFFF00 00FFFFFF
0000FFFF FF0000FF FFFF0000 FFFFFF00 00FFFFFF 0000FFFF FF0000FF FFFF0000
FFFFFF00 00FFFFFF 0000FFFF FF0000FF FFFF0000 FFFFFF00 00FFFFFF 0000FFFF
FF0000FF FFFF0000 FFFFFF00 00FFFFFF 0000FFFF FF0000FF FFFF0000 FFFFFF00
00FFFFFF 0000FFFF FF0000FF FFFF0000 FFFFFF00 00FFFFFF 0000FFFF FF0000FF
FFFF0000 FFFFFF00 00FFFFFF 0000FFFF FF0000FF FFFF0000 FFFFFF00 00FFFFFF
0000FFFF FF0000FF FFFF0000 FFFFFF00 00FFFFFF 0000FFFF FF0000FF FFFF0000
FFFFFF00 00FFFFFF 0000FFFF FF0000FF FFFF0000 FFFFFF00 00FFFFFF 0000FFFF
FF0000FF FFFF0000 FFFFFF00 00FFFFFF 0000FFFF FF0000FF FFFF0000 FFFFFF00
00FFFFFF 0000FFFF FF0000FF FFFF0000 FFFFFF00 00FFFFFF 0000FFFF FF0000FF
FFFF0000 FFFFFF00 00FFFFFF 0000FFFF FF0000FF FFFF0000 FFFFFF00 00FFFFFF
0000FFFF FF0000FF FFFF0000 FFFFFF00 00FFFFFF 0000FFFF FF0000FF FFFF0000
FFFFFF00 00304762 11820241 2183026F 628B0102 80013288 01988132 03022740
00030227 80000302 270080FF FFFF0000 FFFFFF00 00FFFFFF 0000FFFF FF0000FF
FFFF0000 FFFFFF00 00FFFFFF 00003016 62118202 41218302 6F318B01 02800101
88019081 0101301B 62108202 41218302 6F468B01 04800111 88008107 00524F47
45525330 21621382 04422100 0483026F B78B0104 80011488 01088104 19F1FF00
810411F2 FF003012 62108202 41218302 6FC38B01 03800104 88003014 62128204
42210020 83026F40 8B010380 01808800 30146212 82044221 00208302 6F498B01
028001A0 8800301D 62128204 4221000D 83026F4C 8B010280 011A8800 81010002
010C8101 00303A62 19820442 2100B083 026F3C8B 01038002 03708800 A504C102
00FF8101 00020200 AF810100 020200AF 81010002 0200AF81 01000202 00AF8101
00301262 10820241 2183026F 438B0103 80010288 00303462 12820442 21001E83
026F478B 01038001 1E880081 1E00FFFF FFFFFFFF FFFFFFFF FFFFFFFF FFFFFFFF
FFFFFFFF FFFFFFFF FFFFFF30 2E621282 04422100 2783026F 428B0103 80012788
0002010B 8115EDFF FFFFFFFF FFFFFFFF FFFFFF07 91715097 9603F030 18621082
02412183 026F458B 01038001 14880081 0400C701 2B301762 11820241 2183026F
568B0107 80010288 01288102 00003015 62108202 41218302 6F578B01 07800164
88008101 00303162 13820442 21001483 026FC58B 01048001 A08801C8 81094307
86D2E7B1 289D0202 010B810C 430A82D2 F7B92C9F B78A582A 30526214 82044221
00088302 6FC68B01 04800204 B08801D0 81080302 270000FF FE018108 03022200
00FFFE02 81080302 880000FF FE028108 03021600 00FFFE02 81080302 870000FF
FE028108 03022600 00FFFE02 30196211 82024121 83026FCD 8B010280 01138801
D88104A3 11800F30 12621082 02412183 026F508B 01038001 14880030 28621282
04422100 1883026F C78B0103 80013088 00811256 6F696365 6D61696C FF079141
61722267 F8301D62 12820442 21000D83 026FC88B 01038001 1A880081 01000201
0C810100 301C6217 82044221 000C8302 6FC98B01 03800118 8800A503 C1010081
01013019 62178204 42210005 83026FCA 8B010380 010A8800 A503C101 00301F62
12820442 21001083 026FCB8B 01038001 20880081 02010002 010E8102 0200301E
62118202 41218302 6FE38B01 08800112 8801F002 010C8106 03022700 00013015
62138204 42210036 83026FE4 8B010380 01368801 C0301480 00621082 02782183
027F108B 0102C601 01880030 81AF6213 82044221 004B8302 6F068B01 01800202
EE880081 1B8401D4 A4068301 0A950108 80010190 0080011E A4068301 0A950108
02013081 168401D4 A4068301 0A950108 80015FA4 0683010A 95010802 01358111
8C02A0E8 90008001 07A40683 010A9501 0802013A 81218401 D4A40683 010A9501
08800103 A4068301 01950108 80015CA4 0683010A 95010802 012A8121 8401D4A4
0683010A 95010880 0101A406 83010195 01088001 5EA40683 010A9501 08301662
10820241 2183026F 548B0102 80011588 00810285 00301262 10820278 2183025F
3A8B0103 C6010188 00306662 14820442 21002083 024F3A8B 01048002 02808801
10811634 31312D41 73736973 74616E63 65FFFFFF FF038114 F102010A 81172341
55544FFF FFFFFFFF FFFFFFFF FFFFFFFF 04812B88 F6020109 81172354 415849FF
FFFFFFFF FFFFFFFF FFFFFFFF 04818B92 F4301662 14820442 21000F83 024F608B
01048002 012C8801 38301A62 18820442 21000283 024F208B 01048001 28880170
A503C101 00301762 11820241 2183024F 248B0104 80010288 01588102 00003019
62118202 41218302 4F228B01 04800104 88016881 04000000 00301762 11820241
2183024F 238B0104 80010288 01608102 0000301A 62188204 42210002 83024F50
8B010480 01288801 20A503C1 01003038 62128204 42210050 83024F30 8B010580
01508800 8122A819 C0034F3A 02C4034F 6007C603 4F8005C9 034F200E C5034F50
04AA05C8 034F4C03 301A6218 82044221 00018302 4F808B01 04800114 880128A5
03C10100 304D6213 82044221 000A8302 4F4C8B01 04800132 88011881 08427573
696E6573 73020102 81064661 6D696C79 02010481 07467269 656E6473 02010381
08536572 76696365 73020102 81054F74 68657230 2C80027F 10621282 04422100
4B83026F E58B0104 80014B88 00811280 1074656C 3A2B3137 30353739 36393330
30A130A0 05800081 0107A127 30256223 82027821 83027FF2 8410A000 00008710
04F310FF FF89B001 42FF8B01 02C60201 818800A4 45A00580 00810108 A12CA12A
80010181 01018210 0CBC109A 4EDEF963 5B734B3B ACED4954 8310048C 84BD2C51
A7D5090F 1220D24C 82CF8306 00020000 00008406 07FFFFFF FFFFA182 05A0A005
80008101 09A18205 953081C2 80027FF2 62138204 42210032 83026F06 8B010180
01FA8801 B8811B84 01D4A406 83010A95 01088001 01900080 011EA406 83010A95
01080201 17812184 01D4A406 83010A95 01088001 01A40683 01019501 0880015E
A4068301 0A950108 02011181 1B8401D4 A4068301 0A950108 80010190 0080015E
A4068301 0A950108 02011781 218401D4 A4068301 0A950108 800103A4 06830101
95010880 015CA406 83010A95 01080201 11811B84 01D4A406 83010A95 01088001
1B970080 0144A406 83010A95 01083017 62118202 41218302 6F078B01 02800102
88013881 02800030 18621182 02412183 026FAD8B 01038001 03880118 81030000
00303862 11820241 2183026F 038B0102 80013288 01288123 8021696D 732E6D6E
63373230 2E6D6363 3330322E 33677070 6E657477 6F726B2E 6F726730 82031862
14820442 21004B83 026F048B 01028002 02EE8801 20814B80 35736970 3A333032
37323036 30363231 34373736 40696D73 2E6D6E63 3732302E 6D636333 30322E33
6770706E 6574776F 726B2E6F 7267FFFF FFFFFFFF FFFFFFFF FFFFFFFF FFFFFFFF
FFFF814B 8000FFFF FFFFFFFF FFFFFFFF FFFFFFFF FFFFFFFF FFFFFFFF FFFFFFFF
FFFFFFFF FFFFFFFF FFFFFFFF FFFFFFFF FFFFFFFF FFFFFFFF FFFFFFFF FFFFFFFF
FFFFFFFF FFFFFFFF FFFFFFFF FFFFFF81 4B8000FF FFFFFFFF FFFFFFFF FFFFFFFF
FFFFFFFF FFFFFFFF FFFFFFFF FFFFFFFF FFFFFFFF FFFFFFFF FFFFFFFF FFFFFFFF
FFFFFFFF FFFFFFFF FFFFFFFF FFFFFFFF FFFFFFFF FFFFFFFF FFFFFFFF 814B8000
FFFFFFFF FFFFFFFF FFFFFFFF FFFFFFFF FFFFFFFF FFFFFFFF FFFFFFFF FFFFFFFF
FFFFFFFF FFFFFFFF FFFFFFFF FFFFFFFF FFFFFFFF FFFFFFFF FFFFFFFF FFFFFFFF
FFFFFFFF FFFFFFFF FF814B80 00FFFFFF FFFFFFFF FFFFFFFF FFFFFFFF FFFFFFFF
FFFFFFFF FFFFFFFF FFFFFFFF FFFFFFFF FFFFFFFF FFFFFFFF FFFFFFFF FFFFFFFF
FFFFFFFF FFFFFFFF FFFFFFFF FFFFFFFF FFFFFFFF FFFF814B 8000FFFF FFFFFFFF
FFFFFFFF FFFFFFFF FFFFFFFF FFFFFFFF FFFFFFFF FFFFFFFF FFFFFFFF FFFFFFFF
FFFFFFFF FFFFFFFF FFFFFFFF FFFFFFFF FFFFFFFF FFFFFFFF FFFFFFFF FFFFFFFF
FFFFFF81 4B8000FF FFFFFFFF FFFFFFFF FFFFFFFF FFFFFFFF FFFFFFFF FFFFFFFF
FFFFFFFF FFFFFFFF FFFFFFFF FFFFFFFF FFFFFFFF FFFFFFFF FFFFFFFF FFFFFFFF
FFFFFFFF FFFFFFFF FFFFFFFF FFFFFFFF 814B8000 FFFFFFFF FFFFFFFF FFFFFFFF
FFFFFFFF FFFFFFFF FFFFFFFF FFFFFFFF FFFFFFFF FFFFFFFF FFFFFFFF FFFFFFFF
FFFFFFFF FFFFFFFF FFFFFFFF FFFFFFFF FFFFFFFF FFFFFFFF FFFFFFFF FF814B80
00FFFFFF FFFFFFFF FFFFFFFF FFFFFFFF FFFFFFFF FFFFFFFF FFFFFFFF FFFFFFFF
FFFFFFFF FFFFFFFF FFFFFFFF FFFFFFFF FFFFFFFF FFFFFFFF FFFFFFFF FFFFFFFF
FFFFFFFF FFFFFFFF FFFF814B 8000FFFF FFFFFFFF FFFFFFFF FFFFFFFF FFFFFFFF
FFFFFFFF FFFFFFFF FFFFFFFF FFFFFFFF FFFFFFFF FFFFFFFF FFFFFFFF FFFFFFFF
FFFFFFFF FFFFFFFF FFFFFFFF FFFFFFFF FFFFFFFF FFFFFF30 48621182 02412183
026F028B 01028001 73880110 81338031 33303237 32303630 36323134 37373640
696D732E 6D6E6337 32302E6D 63633330 322E3367 70706E65 74776F72 6B2E6F72
67302E62 12820442 21002783 026F428B 01048001 27880002 010B8115 EDFFFFFF
FFFFFFFF FFFFFFFF FF079171 50979603 F0303A62 19820442 2100B083 026F3C8B
01048002 03708800 A504C102 00FF8101 00020200 AF810100 020200AF 81010002
0200AF81 01000202 00AF8101 00301262 10820241 2183026F 438B0104 80010288
00303462 12820442 21001E83 026F478B 01048001 1E880081 1E00FFFF FFFFFFFF
FFFFFFFF FFFFFFFF FFFFFFFF FFFFFFFF FFFFFFFF FFFFFF30 14800062 10820278
218302DD D08B0102 C6010188 00301962 12820241 21830213 B08B032F 060C8001
03880081 03010101 30148000 62108202 78218302 7F208B01 02C60101 8800A682
029EA005 80008101 0AA1534F 07A00000 01515350 4F08A000 00015153 50414F08
A0000001 51000000 4F08A000 00015100 00008203 82FC8083 010FC90F 81020255
81028000 81028104 8201F0EA 11800F01 00000100 00000201 1203B201 0000A281
FC302295 01388201 01830101 30173015 80018086 103844C6 ADBB72A5 AA4A59AE
4136CF50 6A302295 01348201 02830101 30173015 80018086 105B9A60 664FE9BB
ECCDD677 CBEC816D 8E302295 01C88201 03830101 30173015 80018086 106341E4
B8651863 91D9BAD3 42C5482B FA302295 013C8201 01830148 30173015 80018586
10DEE0FC B5CEC4B6 AFF41333 71477411 4C302295 01388201 01830120 30173015
80018086 10456E63 72797074 696F6E53 65637265 74302295 01348201 02830120
30173015 80018086 10506572 736F6E61 6C697361 74696F6E 4B302295 01C88201
03830120 30173015 80018086 104B6579 456E6372 79707469 6F6E4B65 79A38201
3F044200 703F663D 733B0607 2A864886 FC6B0160 0B06092A 864886FC 6B020202
63090607 2A864886 FC6B0364 0B06092A 864886FC 6B040255 640B0609 2A864886
FC6B0480 000481F8 0070F585 81F2842E 81030140 01820281 82470E09 4C74656D
6F62696C 65036170 6E350103 85003902 02003C03 0227BE3E 05214AC6 41848529
25383933 30323732 30353233 30303030 30303133 372F4130 30303030 30313531
30303030 30300248 01860700 03250300 1000893B 8A093132 372E302E 302E318B
14383933 30323732 30353233 30303030 30303133 378C182F 73657276 65722F61
646D696E 6167656E 743F636D 643D318D 13077369 6D2D6F74 6106726F 67657273
03636F6D 8E0A0440 47FFC604 4047FFFD 8F258202 81828103 01400135 01033902
0200470E 094C7465 6D6F6269 6C650361 706E3C03 01003590 07000125 03001000
A88204DF A0058000 81010BA1 82047F4F 0CD27600 01180002 FFF1002F 894F08A0
00000151 000000C4 82046301 0016DECA FFED0102 0400010C D2760001 180002FF
F1002F89 02001F00 16001F00 14004400 86002502 9D001600 5D000001 3A000400
02000605 01000400 44050201 07A00000 00620101 000110A0 00000009 0005FFFF
FFFF8912 00000001 0110A000 00008710 05FFFFFF FF891320 00000301 06A00000
01510000 0107A000 00006200 01030014 0110D276 00011800 02FFF100 2F89C001
AB01002A 06002545 80030300 03050500 0000B2FF FF006400 BF01AC80 02008108
01088107 00820000 83080109 07029D02 005A8005 00610005 00F08047 01390012
0340188C 000A1811 00F6048D 00048700 1805048D 00038701 7A05328F 00063D18
1D1E8C00 072E1B18 1D044118 1D258B00 081B8D00 0987021B 8302048E 02000B00
1B830202 8E02000B 0A1B048B 000C7004 28047A04 21188B00 0D60037A 198B000E
2D1A031A 03251100 FC535B38 1A032575 002B0001 FFB00009 1A042575 00170001
00760009 197B000F 037B000F 928D0010 7010116D 008D0011 7008116E 008D0011
7A02301E 046B0719 67041877 01770522 1D7500AC 00040001 00150002 002A0013
0083007B 00A88D00 133B188C 0014AD01 030239AD 01040239 A800858D 00152D1A
1A8E0100 1613AD00 041A8E01 0016148E 05001606 3BAD0003 AD000425 38AD0004
1A8E0100 16140443 5B388D00 17048E02 001817AD 01030239 AD010408 39AD0210
7B8E0200 0B007037 2E8D0017 038E0200 1817702B AD010326 6225AD01 03266111
AD010426 620BAD02 107B8E02 000B00AD 01033E26 04433970 06188C00 197A0512
8D00132C 1904AD00 03251082 8E04001A 1719AD00 05AD0004 258D001B 8E04001A
0E198E01 001A1831 1E10206B 0FAD0103 0839AD01 043E2604 43397A06 62590205
5903FB1E 1F412906 1E1606A5 0091191E 59020125 2907191E 59020125 8D001B32
1F10818D 001B6B0E 191E5902 01258D00 1B327010 1F10818D 001B6F08 1167008D
00111607 75004B00 01000A00 091F046D 0E1FAD00 926C0811 67008D00 11AD0003
191E2538 191E0441 AD00051F 04438D00 1C3BAD00 041F0443 5B38AD01 030239AD
01040839 AD02107B 8E02000B 00700811 69848D00 111E1F41 31A8FF6F 03780310
7B001D03 068D001E 600CAD02 058E0200 0B00700A AD02058E 02000B02 7A054118
8B000E28 04150405 8D001F60 08116B00 8D001119 1E150403 1F8D001C 3B180306
8B00207A 02101100 FF1C5378 08001600 04000200 02030003 03018003 00030101
00000000 00050086 00210200 00010200 00020200 00000680 080F0680 080D0181
0D000100 00000600 00110380 03020681 10000680 03000181 09000300 00080380
03030380 0A010500 00020600 026E0680 07010184 02000681 0E000600 024F0682
03000182 01000681 0F000181 04000600 016F0181 05000600 02950680 10020500
00000681 0B010680 10040380 0A080900 5D002120 081F0309 8D05130F 03051605
05170606 0609170C 03180560 0B0B0A08 0505260A 00380708 06080808 070C040A
09060B07 28040408 08290510 07090512 08051307 051D0F06 0D0C0406 39070B09
081B141B 090E0509 0A080808 0907A253 30514F0C D2760001 180002FF F1002F89
4F10D276 00011800 02FFF100 2F89C001 AB014F10 D2760001 180002FF F1002F89
C001AB01 82030000 00C900EA 168008FF 00100000 00000081 040001FF 00820400
01FF00A8 8204D1A0 05800081 010CA182 04424F10 A0000000 77030760 11100000
0000002A 4F08A000 00015100 0000C482 04220100 1ADECAFF ED010204 000110A0
00000077 03076011 10000000 00002A02 001F001A 001F0014 004E007E 0035024F
000A0060 00000000 00000000 00000501 0004004E 05000107 A0000000 62000100
0110A000 00000900 05FFFFFF FF891100 00000201 07A00000 00620101 000110A0
00000009 0005FFFF FFFF8912 00000001 0110A000 00008710 05FFFFFF FF891320
00000300 140110A0 00000077 03076011 10000100 00002A00 D6060035 00800002
00020103 0000004A 00670084 44820309 00080507 000001A1 FFFF019E 017C01A5
01F30210 82020083 08010983 07008400 0007024F 00081118 8C000B10 11900B2C
18048D00 14870018 113F0011 2F008B00 0DAD0004 07061903 048E0700 0E063BAD
00040707 19041903 258E0700 0E063B18 19041903 25048D00 10870101 2C7A0230
AD01117F FF8E0200 0E01AD01 1D8E0200 0E01AD01 1E8E0200 0E017A02 30AD0011
3F008E02 000E01AD 001D8E02 000E01AD 001E8E02 000E017A 0552AD01 117FFF8E
02000E01 AD011F8E 02000E01 AD011604 191E101C 8E05000E 001E4129 051E0541
29061606 16056D22 19160625 10806B0B 19160605 418D0016 78160619 16060441
25054141 290670DC 03780631 8F00173D 8C00192E 1B181D04 41181D25 8B001C1B
048D0014 87021B8D 000C8703 1B100890 0B87041B 101C048D 000F8705 1B8B0011
1B11DDD0 1113B08B 00121B83 02031B83 0403058E 05000E04 3B1B8304 03250453
046B0C1B 8303107F 8E020013 001B8304 03250553 056B0B1B 8303048E 02001300
1B1B8306 1B830503 116F7B11 6F7B8B00 1589071B 1B850790 0B87081B 8308031B
8507028D 00183B1B 04048D00 0F87097A 0310188F 001A3D8C 001B8706 18AD0683
00870218 AD068301 870A7A01 10188C00 1D7A0020 7A013018 7701201D 75001100
02000100 0D007F00 0D188C00 1E7A0510 1811DDD0 1113B08B 0012AD02 05AD0903
048E0500 0E043BAD 09032504 6A037AAD 0A116F7B 8E02000E 01AD0A03 AD0803AF
078E0500 0E057A02 30AD0211 3F008E02 000E01AD 021D8E02 000E01AD 021E8E02
000E017A 0542AD0A 1F191E10 1C8E0500 0E001E41 29041E05 41290516 0516046D
22191605 2510806B 0B191605 05418D00 16781605 19160504 41250541 41290570
DC037808 000A0000 00000000 00000000 05007E00 1F020000 00020000 01020010
01020010 00020010 04020010 05020010 07020010 08020010 03020010 06020010
02068000 00068310 00030000 02018100 00068208 0D068103 02030010 08030010
0A018309 00068103 00030000 03068210 04010010 00068210 03060001 97010000
00060000 01038203 02068203 00060001 BA090060 0031120C 0E1A070A 080B0A08
0B0A0858 06070911 040B0A0A 0A0A030C 04040304 0D0D0302 02030202 32030A08
0A03030A 0A080B00 2B050A0C 0C100C10 08080D08 080D080D 2017040C 05061006
0A0D1513 12150709 04171C0D 0B130D0D 08080F20 A2818130 7F4F10A0 00000077
03076011 10000000 00002A4F 10A00000 00770307 60111000 01000000 2A4F10A0
00000077 03076011 0000FE00 002A0082 03000000 C900EA40 800AFF00 10000002
01020000 81180001 000010A0 00000087 1002F310 FFFF89B0 0140FF01 00008218
00010000 10A00000 00871002 F310FFFF 89B00140 FF010000 A74CA005 80008101
0D4F09A0 00000559 10100001 4F08A000 00015100 0000A005 0403B000 01810112
04010004 0100301E 8010A000 00008710 02F310FF FF89B001 40FF8104 02FFFFFF
820402FF FFFFA74C A0058000 81010E4F 09A00000 05591010 00024F08 A0000001
51000000 A0050403 B0000281 01120401 00040100 301E8010 A0000000 871004F3
10FFFF89 B00142FF 810402FF FFFF8204 02FFFFFF AA07A005 80008101 0F