A0408001 02810100 82186555 49434320 4C544520 3337302E 3030202D 2D204669
646F830A 89000370 37000000 0011A508 81008200 84008B00 A6080606 67810F01
0201B082 0256A005 80008101 00810667 810F0102 01A212A1 10820278 2183023F
008B0102 C6010188 00A317A1 11820241 2183022F 058B010E 80010A88 01288302
656EA41F A1118202 41218302 2FE28B01 0C80010A 88011083 0A980030 07730000
000011A5 50A11382 04422100 2683022F 008B010D 80014C88 01F0831A 61184F10
A0000000 871002F3 10FFFF89 B00140FF 50045553 494D8201 0C831A61 184F10A0
00000087 1004F310 FFFF89B0 0142FF50 04495349 4DA68201 A3A11482 04422100
4683022F 068B0101 800203D4 88013083 1B8401D4 A4068301 0A950108 80010190
0080011E A4068301 0A950108 82012B83 118C02A0 E8900080 0107A406 83010A95
01088201 35831B84 01D4A406 83010A95 01088001 1B970080 0104A406 83010A95
01088201 2B831B84 01D4A406 83010A95 01088001 1B970080 0104A406 83010A95
01088201 2B830580 01019000 82014183 1B8401D4 A4068301 0A950108 80010190
0080011E A4068301 0A950108 82012B83 1B8401D4 A4068301 0A950108 80011B97
00800104 A4068301 0A950108 82012B83 1080011B 97008001 04A40683 010A9501
08820136 830B8001 1FA40683 010A9501 0882013B 831B8401 D4A40683 010A9501
08800107 A4068301 0A950108 80011897 0082012B 83168401 D4A40683 010A9501
0880015F A4068301 0A950108 82013083 208401D4 A4068301 0A950108 80010190
00800102 97008001 5CA40683 010A9501 08820126 831B8401 D4A40683 010A9501
08800101 90008001 5EA40683 010A9501 0882012B 83268401 D4A40683 010A9501
08800101 90008001 02A40683 01019501 0880015C A4068301 0A950108 A239A005
80008101 01A130A0 2E301680 01018108 33343336 FFFFFFFF 82010183 01068401
55301480 010A8108 88888888 88888888 83010384 0200AAA3 28A00580 00810102
A11F300D 80010181 08313233 34353637 38300E80 02008181 08313233 34353637
38A130A0 05800081 0104A127 30256223 82027821 83027FF1 8410A000 00008710
02F310FF FF89B001 40FF8B01 02C60201 818800A4 45A00580 00810105 A12CA12A
80010181 01018210 AAAAAAAA AAAAAAAA AAAAAAAA AAAAAAAA 8310BBBB BBBBBBBB
BBBBBBBB BBBBBBBB BBBB8306 00020000 00008406 07FFFFFF FFFFA225 A0058000
810106A1 1CA01A30 18800200 81810831 323334FF FFFFFF82 02008183 01038401
55A1820B 62A00580 00810107 A1820B57 30820150 80027FF1 62148204 4221004B
83026F06 8B010180 02041A88 01B8811B 8401D4A4 0683010A 95010880 01019000
80011EA4 0683010A 95010802 01308121 8401D4A4 0683010A 95010880 0101A406
83010195 01088001 5EA40683 010A9501 0802012A 81218401 D4A40683 010A9501
08800103 A4068301 01950108 80015CA4 0683010A 95010802 012A811B 8401D4A4
0683010A 95010880 01019000 80015EA4 0683010A 95010802 01308126 8401D4A4
0683010A 95010880 01019000 800102A4 06830101 95010880 015CA406 83010A95
01080201 2581118C 02A0E890 00800107 A4068301 0A950108 02013A81 2C8401D4
A4068301 0A950108 800101A4 06830101 95010880 0102A406 83018195 01088001
5CA40683 010A9501 0802011F 81168001 03A40683 01019501 0880011C A4068301
0A950108 02013581 1B8401D4 A4068301 0A950108 80011B97 00800144 A4068301
0A950108 30186211 82024121 83026FD9 8B010280 010F8801 E8810303 02273015
62108202 41218302 6FDC8B01 02800101 88008101 00303B62 17820442 21001E83
026F478B 01038001 1E8800A5 03C10100 02010181 1DFFFFFF FFFFFFFF FFFFFFFF
FFFFFFFF FFFFFFFF FFFFFFFF FFFFFFFF FFFF301E 62118202 41218302 6F078B01
02800109 88013881 09080900 73307000 0010301F 62118202 41218302 6F7E8B01
0380010B 88015802 01048107 03022700 00FF0130 1F621182 02412183 026F738B
01038001 0E880160 02010781 07030227 0000FF01 30196211 82024121 83026FAD
8B010480 01048801 18810400 00000330 17621182 02412183 026F788B 01028001
02880130 81020002 30126210 82024121 83026FC4 8B010380 01DA8800 30176211
82024121 83026F05 8B010580 010A8801 10810265 6E302062 11820241 2183026F
388B0102 80010B88 0120810B 18CA178C 27F60500 40024030 16621182 02412183
026F088B 01038001 21880140 81010730 16621182 02412183 026F098B 01038001
21880148 81010730 1B621182 02412183 026F5B8B 01038001 06880178 8106F000
00F00000 30136211 82024121 83026F5C 8B010280 01038801 80301562 10820241
2183026F 3E8B0102 80010188 008101DD 30126210 82024121 83026F3F 8B010280
010A8800 30136211 82024121 83026F7B 8B010380 010C8801 68301362 11820278
2183025F 3B8B0106 C6020181 88003019 62118202 41218302 4F208B01 03800109
88010802 01088101 07301962 11820241 2183024F 528B0103 80010988 01100201
08810107 308201C0 80027FF1 62128202 41218302 6F618B01 02800201 A4880188
818201A4 030227C0 80FFFFFF 0000FFFF FF0000FF FFFF0000 FFFFFF00 00FFFFFF
0000FFFF FF0000FF FFFF0000 FFFFFF00 00FFFFFF 0000FFFF FF0000FF FFFF0000
FFFFFF00 00FFFFFF 0000FFFF FF0000FF FFFF0000 FFFFFF00 00FFFFFF 0000FFFF
FF0000FF FFFF0000 FFFFFF00 00FFFFFF 0000FFFF FF0000FF FFFF0000 FFFFFF00
00FFFFFF 0000FFFF FF0000FF FFFF0000 FFFFFF00 00FFFFFF 0000FFFF FF0000FF
FFFF0000 FFFFFF00 00FFFFFF 0000FFFF FF0000FF FFFF0000 FFFFFF00 00FFFFFF
0000FFFF FF0000FF FFFF0000 FFFFFF00 00FFFFFF 0000FFFF FF0000FF FFFF0000
FFFFFF00 00FFFFFF 0000FFFF FF0000FF FFFF0000 FFFFFF00 00FFFFFF 0000FFFF
FF0000FF FFFF0000 FFFFFF00 00FFFFFF 0000FFFF FF0000FF FFFF0000 FFFFFF00
00FFFFFF 0000FFFF FF0000FF FFFF0000 FFFFFF00 00FFFFFF 0000FFFF FF0000FF
FFFF0000 FFFFFF00 00FFFFFF 0000FFFF FF0000FF FFFF0000 FFFFFF00 00FFFFFF
0000FFFF FF0000FF FFFF0000 FFFFFF00 00FFFFFF 0000FFFF FF0000FF FFFF0000
FFFFFF00 00FFFFFF 0000FFFF FF0000FF FFFF0000 FFFFFF00 00FFFFFF 0000FFFF
FF0000FF FFFF0000 30476211 82024121 83026F62 8B010280 01328801 98813203
02274000 03022780 00030227 0080FFFF FF0000FF FFFF0000 FFFFFF00 00FFFFFF
0000FFFF FF0000FF FFFF0000 FFFFFF00 00301662 11820241 2183026F 318B0102
80010188 01908101 01301562 10820241 2183026F 468B0104 80011188 00810100
30216213 82044221 00048302 6FB78B01 04800114 88010881 0419F1FF 00810411
F2FF0030 12621082 02412183 026FC38B 01038001 04880030 14621282 04422100
2083026F 408B0103 80018088 00301462 12820442 21002083 026F498B 01028001
A0880030 1D621282 04422100 0D83026F 4C8B0102 80011A88 00810100 02010C81
0100303A 62198204 422100B0 83026F3C 8B010380 02037088 00A504C1 0200FF81
01000202 00AF8101 00020200 AF810100 020200AF 81010002 0200AF81 01003012
62108202 41218302 6F438B01 03800102 8800302E 62128204 42210027 83026F42
8B010380 01278800 02010B81 15EDFFFF FFFFFFFF FFFFFFFF FFFF0791 51419913
21F33018 62108202 41218302 6F458B01 03800114 88008104 00C7012B 30176211
82024121 83026F56 8B010780 01028801 28810200 00301562 10820241 2183026F
578B0107 80016488 00810100 302D6213 82044221 00148302 6FC58B01 048001A0
8801C881 07430584 C634F90D 02010D81 0A430880 C634F9DD 2A62A930 52621482
04422100 0883026F C68B0104 800204B0 8801D081 08030227 0000FFFE 01810803
02220000 FFFE0281 08030288 0000FFFE 02810803 02160000 FFFE0281 08030287
0000FFFE 02810803 02260000 FFFE0230 19621182 02412183 026FCD8B 01028001
138801D8 8104A311 800F3012 62108202 41218302 6F508B01 03800114 88003028
62128204 42210018 83026FC7 8B010380 01308800 8112566F 6963656D 61696CFF
07914161 286145F9 301D6212 82044221 000D8302 6FC88B01 0380011A 88008101
0002010C 81010030 1C621782 04422100 0C83026F C98B0103 80011888 00A503C1
01008101 01301962 17820442 21000583 026FCA8B 01038001 0A8800A5 03C10100
301F6212 82044221 00108302 6FCB8B01 03800120 88008102 01000201 0E810202
00301E62 11820241 2183026F E38B0108 80011288 01F00201 0C810603 02270000
01301562 13820442 21003683 026FE48B 01038001 368801C0 30148000 62108202
78218302 7F108B01 02C60101 88003081 AF621382 04422100 4B83026F 068B0101
800202EE 8800811B 8401D4A4 0683010A 95010880 01019000 80011EA4 0683010A
95010802 01308116 8401D4A4 0683010A 95010880 015FA406 83010A95 01080201
3581118C 02A0E890 00800107 A4068301 0A950108 02013A81 218401D4 A4068301
0A950108 800103A4 06830101 95010880 015CA406 83010A95 01080201 2A812184
01D4A406 83010A95 01088001 01A40683 01019501 0880015E A4068301 0A950108
30166210 82024121 83026F54 8B010280 01158800 81028500 30126210 82027821
83025F3A 8B0103C6 01018800 30666214 82044221 00208302 4F3A8B01 04800202
80880110 81163431 312D4173 73697374 616E6365 FFFFFFFF 038114F1 02010A81
17234155 544FFFFF FFFFFFFF FFFFFFFF FFFFFF04 812B88F6 02010981 17235441
5849FFFF FFFFFFFF FFFFFFFF FFFFFF04 818B92F4 301A6218 82044221 00028302
4F208B01 04800128 880170A5 03C10100 30176211 82024121 83024F24 8B010480
01028801 58810200 00301962 11820241 2183024F 228B0104 80010488 01688104
00000000 30176211 82024121 83024F23 8B010480 01028801 60810200 00301A62
18820442 21000283 024F508B 01048001 28880120 A503C101 00303362 12820442
21005083 024F308B 01058001 50880081 1DA814C0 034F3A02 C6034F80 05C9034F
200EC503 4F5004AA 05C8034F 4C03301A 62188204 42210001 83024F80 8B010480
01148801 28A503C1 0100304D 62138204 4221000A 83024F4C 8B010480 01328801
18810842 7573696E 65737302 01028106 46616D69 6C790201 04810746 7269656E
64730201 03810853 65727669 63657302 01028105 4F746865 72302C80 027F1062
12820442 21004B83 026FE58B 01048001 4B880081 12801074 656C3A2B 31353134
39393331 313233A1 30A00580 00810108 A1273025 62238202 78218302 7FF28410
A0000000 871004F3 10FFFF89 B00142FF 8B0102C6 02018188 00A445A0 05800081
0109A12C A12A8001 01810101 8210AAAA AAAAAAAA AAAAAAAA AAAAAAAA AAAA8310
BBBBBBBB BBBBBBBB BBBBBBBB BBBBBBBB 83060002 00000000 840607FF FFFFFFFF
A1820322 A0058000 81010AA1 82031730 81DE8002 7FF26214 82044221 00328302
6F068B01 01800201 2C8801B8 811B8401 D4A40683 010A9501 08800101 90008001
1EA40683 010A9501 08020117 81218401 D4A40683 010A9501 08800103 A4068301
01950108 80015CA4 0683010A 95010802 01118121 8401D4A4 0683010A 95010880
0101A406 83010195 01088001 5EA40683 010A9501 08020111 811B8401 D4A40683
010A9501 08800101 90008001 5EA40683 010A9501 08020117 81168001 03A40683
01019501 0880015C A4068301 0A950108 02011C81 1B8401D4 A4068301 0A950108
80011B97 00800144 A4068301 0A950108 303B6217 82044221 001E8302 6F478B01
0280011E 8800A503 C1010002 0101811D FFFFFFFF FFFFFFFF FFFFFFFF FFFFFFFF
FFFFFFFF FFFFFFFF FFFFFFFF FF301762 11820241 2183026F 078B0103 80010288
01388102 80003018 62118202 41218302 6FAD8B01 04800103 88011881 03000000
30386211 82024121 83026F03 8B010380 01328801 28812380 21696D73 2E6D6E63
3337302E 6D636333 30322E33 6770706E 6574776F 726B2E6F 72673081 8E621482
04422100 4B83026F 048B0103 800202EE 88012081 37803573 69703A30 30303337
30333037 30303030 30314069 6D732E6D 6E633337 302E6D63 63303030 2E336770
706E6574 776F726B 2E6F7267 02011481 02800002 01498102 80000201 49810280
00020149 81028000 02014981 02800002 01498102 80000201 49810280 00020149
81028000 02014981 02800030 48621182 02412183 026F028B 01038001 73880110
81338031 30303033 37303330 37303030 30303140 696D732E 6D6E6333 37302E6D
63633030 302E3367 70706E65 74776F72 6B2E6F72 67302E62 12820442 21002783
026F428B 01028001 27880002 010B8115 EDFFFFFF FFFFFFFF FFFFFFFF FF079151
41991321 F3303A62 19820442 2100B083 026F3C8B 01058002 03708800 A504C102
00FF8101 00020200 AF810100 020200AF 81010002 0200AF81 01000202 00AF8101
00301262 10820241 2183026F 438B0102 80010288 00301480 00621082 02782183
02DDD08B 0102C601 01880030 19621282 02412183 0213B08B 032F060B 80010388
00810301 0101A682 0296A005 80008101 0BA1514F 07A00000 01515350 4F08A000
00015153 50414F08 A0000001 51000000 4F08A000 00015100 00008203 82FC8083
010FC90F 81020255 81028000 81028104 8201F0EA 0F800D01 00100000 02011203
B2010000 A281FC30 22950138 82010183 01013017 30158001 80861011 11111111
11111111 11111111 11111130 22950134 82010283 01013017 30158001 80861022
22222222 22222222 22222222 22222230 229501C8 82010383 01013017 30158001
80861033 33333333 33333333 33333333 33333330 2295013C 82010183 01483017
30158001 858610DE E0FCB5CE C4B6AFF4 13337147 74114C30 22950138 82010183
01203017 30158001 80861045 6E637279 7074696F 6E536563 72657430 22950134
82010283 01203017 30158001 80861050 6572736F 6E616C69 73617469 6F6E4B30
229501C8 82010383 01203017 30158001 8086104B 6579456E 63727970 74696F6E
4B6579A3 82013904 4200703F 663D733B 06072A86 4886FC6B 01600B06 092A8648
86FC6B02 02026309 06072A86 4886FC6B 03640B06 092A8648 86FC6B04 0255640B
06092A86 4886FC6B 04800004 81F20070 EF8581EC 84258103 01400382 02818247
0E094C74 656D6F62 696C6503 61706E35 01033902 02003C03 0227BE85 29253839
30303033 37303337 30303030 30303030 31312F41 30303030 30303135 31303030
30303002 48018607 00012503 00100089 3B8A096C 6F63616C 686F7374 8B143839
30303033 37303337 30303030 30303030 31318C18 2F736572 7665722F 61646D69
6E616765 6E743F63 6D643D31 8D130773 696D2D6F 74610672 6F676572 7303636F
6D8E0A04 4047FFC6 044047FF FD8F2581 03014003 35010382 02818239 02020047
0E094C74 656D6F62 696C6503 61706E3C 03010035 90070001 25030010 00920100
A88204E9 A0058000 81010CA1 82047F4F 0CD27600 01180002 FFF1002F 894F08A0
00000151 000000C4 82046301 0016DECA FFED0102 0400010C D2760001 180002FF
F1002F89 02001F00 16001F00 14004400 86002502 9D001600 5D000001 3A000400
02000605 01000400 44050201 07A00000 00620101 000110A0 00000009 0005FFFF
FFFF8912 00000001 0110A000 00008710 05FFFFFF FF891320 00000301 06A00000
01510000 0107A000 00006200 01030014 0110D276 00011800 02FFF100 2F89C001
AB01002A 06002545 80030300 03050500 0000B2FF FF006400 BF01AC80 02008108
01088107 00820000 83080109 07029D02 005A8005 00610005 00F08047 01390012
0340188C 000A1811 00F6048D 00048700 1805048D 00038701 7A05328F 00063D18
1D1E8C00 072E1B18 1D044118 1D258B00 081B8D00 0987021B 8302048E 02000B00
1B830202 8E02000B 0A1B048B 000C7004 28047A04 21188B00 0D60037A 198B000E
2D1A031A 03251100 FC535B38 1A032575 002B0001 FFB00009 1A042575 00170001
00760009 197B000F 037B000F 928D0010 7010116D 008D0011 7008116E 008D0011
7A02301E 046B0719 67041877 01770522 1D7500AC 00040001 00150002 002A0013
0083007B 00A88D00 133B188C 0014AD01 030239AD 01040239 A800858D 00152D1A
1A8E0100 1613AD00 041A8E01 0016148E 05001606 3BAD0003 AD000425 38AD0004
1A8E0100 16140443 5B388D00 17048E02 001817AD 01030239 AD010408 39AD0210
7B8E0200 0B007037 2E8D0017 038E0200 1817702B AD010326 6225AD01 03266111
AD010426 620BAD02 107B8E02 000B00AD 01033E26 04433970 06188C00 197A0512
8D00132C 1904AD00 03251082 8E04001A 1719AD00 05AD0004 258D001B 8E04001A
0E198E01 001A1831 1E10206B 0FAD0103 0839AD01 043E2604 43397A06 62590205
5903FB1E 1F412906 1E1606A5 0091191E 59020125 2907191E 59020125 8D001B32
1F10818D 001B6B0E 191E5902 01258D00 1B327010 1F10818D 001B6F08 1167008D
00111607 75004B00 01000A00 091F046D 0E1FAD00 926C0811 67008D00 11AD0003
191E2538 191E0441 AD00051F 04438D00 1C3BAD00 041F0443 5B38AD01 030239AD
01040839 AD02107B 8E02000B 00700811 69848D00 111E1F41 31A8FF6F 03780310
7B001D03 068D001E 600CAD02 058E0200 0B00700A AD02058E 02000B02 7A054118
8B000E28 04150405 8D001F60 08116B00 8D001119 1E150403 1F8D001C 3B180306
8B00207A 02101100 FF1C5378 08001600 04000200 02030003 03018003 00030101
00000000 00050086 00210200 00010200 00020200 00000680 080F0680 080D0181
0D000100 00000600 00110380 03020681 10000680 03000181 09000300 00080380
03030380 0A010500 00020600 026E0680 07010184 02000681 0E000600 024F0682
03000182 01000681 0F000181 04000600 016F0181 05000600 02950680 10020500
00000681 0B010680 10040380 0A080900 5D002120 081F0309 8D05130F 03051605
05170606 0609170C 03180560 0B0B0A08 0505260A 00380708 06080808 070C040A
09060B07 28040408 08290510 07090512 08051307 051D0F06 0D0C0406 39070B09
081B141B 090E0509 0A080808 0907A25D 305B4F0C D2760001 180002FF F1002F89
4F10D276 00011800 02FFF100 2F89C001 AB014F10 D2760001 180002FF F1002F89
C001AB01 82030000 00C900EF 08C70200 00C80200 00EA1680 08FF0010 00000000
00810400 01FF0082 040001FF 00A88204 D1A00580 0081010D A1820442 4F10A000
00007703 07601110 00000000 002A4F08 A0000001 51000000 C4820422 01001ADE
CAFFED01 02040001 10A00000 00770307 60111000 00000000 2A02001F 001A001F
0014004E 007E0035 024F000A 00600000 00000000 00000000 05010004 004E0500
0107A000 00006200 01000110 A0000000 090005FF FFFFFF89 11000000 020107A0
00000062 01010001 10A00000 00090005 FFFFFFFF 89120000 00010110 A0000000
871005FF FFFFFF89 13200000 03001401 10A00000 00770307 60111000 01000000
2A00D606 00350080 00020002 01030000 004A0067 00844482 03090008 05070000
01A1FFFF 019E017C 01A501F3 02108202 00830801 09830700 84000007 024F0008
11188C00 0B101190 0B2C1804 8D001487 0018113F 00112F00 8B000DAD 00040706
1903048E 07000E06 3BAD0004 07071904 1903258E 07000E06 3B181904 19032504
8D001087 01012C7A 0230AD01 117FFF8E 02000E01 AD011D8E 02000E01 AD011E8E
02000E01 7A0230AD 00113F00 8E02000E 01AD001D 8E02000E 01AD001E 8E02000E
017A0552 AD01117F FF8E0200 0E01AD01 1F8E0200 0E01AD01 1604191E 101C8E05
000E001E 4129051E 05412906 16061605 6D221916 06251080 6B0B1916 0605418D
00167816 06191606 04412505 41412906 70DC0378 06318F00 173D8C00 192E1B18
1D044118 1D258B00 1C1B048D 00148702 1B8D000C 87031B10 08900B87 041B101C
048D000F 87051B8B 00111B11 DDD01113 B08B0012 1B830203 1B830403 058E0500
0E043B1B 83040325 0453046B 0C1B8303 107F8E02 0013001B 83040325 0553056B
0B1B8303 048E0200 13001B1B 83061B83 0503116F 7B116F7B 8B001589 071B1B85
07900B87 081B8308 031B8507 028D0018 3B1B0404 8D000F87 097A0310 188F001A
3D8C001B 870618AD 06830087 0218AD06 8301870A 7A011018 8C001D7A 00207A01
30187701 201D7500 11000200 01000D00 7F000D18 8C001E7A 05101811 DDD01113
B08B0012 AD0205AD 0903048E 05000E04 3BAD0903 25046A03 7AAD0A11 6F7B8E02
000E01AD 0A03AD08 03AF078E 05000E05 7A0230AD 02113F00 8E02000E 01AD021D
8E02000E 01AD021E 8E02000E 017A0542 AD0A1F19 1E101C8E 05000E00 1E412904
1E054129 05160516 046D2219 16052510 806B0B19 16050541 8D001678 16051916
05044125 05414129 0570DC03 7808000A 00000000 00000000 00000500 7E001F02
00000002 00000102 00100102 00100002 00100402 00100502 00100702 00100802
00100302 00100602 00100206 80000006 83100003 00000201 81000006 82080D06
81030203 00100803 00100A01 83090006 81030003 00000306 82100401 00100006
82100306 00019701 00000006 00000103 82030206 82030006 0001BA09 00600031
120C0E1A 070A080B 0A080B0A 08580607 0911040B 0A0A0A0A 030C0404 03040D0D
03020203 02023203 0A080A03 030A0A08 0B002B05 0A0C0C10 0C100808 0D08080D
080D2017 040C0506 10060A0D 15131215 07090417 1C0D0B13 0D0D0808 0F20A281
81307F4F 10A00000 00770307 60111000 00000000 2A4F10A0 00000077 03076011
10000100 00002A4F 10A00000 00770307 60110000 FE00002A 00820300 0000C900
EA40800A FF001000 00020102 00008118 00010000 10A00000 00871002 F310FFFF
89B00140 FF010000 82180001 000010A0 00000087 1002F310 FFFF89B0 0140FF01
0000A746 A0058000 81010E4F 09A00000 05591010 00014F08 A0000001 51000000
A0050403 B0000181 01120401 00040100 30188010 A0000000 871002F3 10FFFF89
B00140FF 81010082 0100A746 A0058000 81010F4F 09A00000 05591010 00024F08
A0000001 51000000 A0050403 B0000281 01120401 00040100 30188010 A0000000
871004F3 10FFFF89 B00142FF 81010082 0100AA07 A0058000 810110