A0358001 02810100 820D4D53 46545F76 312E305F 424C4183 0A890199 00012340
002096A5 08810082 0084008B 00A60806 0667810F 010201B0 820259A0 05800081
01008106 67810F01 0201A212 A1108202 78218302 3F008B01 02C60101 8800A317
A1118202 41218302 2F058B01 1080010A 88012883 02656EA4 1FA11182 02412183
022FE28B 010F8001 0A880110 830A9810 99001032 04000269 A54CA113 82044221
00268302 2F008B01 07800172 8801F083 1A61184F 10A00000 00871002 FFFFFFFF
89030200 00500455 53494D82 010C8316 61144F0C A0000000 871004FF FFFFFF89
50044953 494DA682 01AAA114 82044221 00308302 2F068B01 01800203 00880130
831B8001 01900080 011EA406 83010A95 01088401 D4A40683 010A9501 08820115
83118C02 A0E89000 800107A4 0683010A 95010882 011F830B 800104A4 0683010A
95010882 01258316 800104A4 0683010A 95010884 01D4A406 83010A95 01088201
1A830580 01019000 82012B83 1080011B 97008001 04A40683 010A9501 08820120
83108001 01900080 011EA406 83010A95 01088201 20830B80 011FA406 83010A95
01088201 25831080 0107A406 83010A95 01088001 18970082 01208311 8C02A0E8
90008001 47A40683 010A9501 0882011F 83218401 D4A40683 010A9501 08800103
A4068301 01950108 80015CA4 0683010A 95010882 010F8321 8401D4A4 0683010A
95010880 0101A406 83010195 01088001 5EA40683 010A9501 0882010F 83168001
03A40683 01019501 0880011C A4068301 0A950108 82011A83 0B8C02A0 E8900080
01079000 82012583 208401D4 A4068301 0A950108 80010190 00800102 97008001
5CA40683 010A9501 08820110 83268401 D4A40683 010A9501 08800101 90008001
02A40683 01019501 0880015C A4068301 0A950108 A236A005 80008101 01A12DA0
2B301380 01018108 31313131 FFFFFFFF 82010183 01063014 80010A81 08112233
44556677 88830103 840200AA A328A005 80008101 02A11F30 0D800101 81083132
33343536 3738300E 80020081 81083132 33343536 3738A130 A0058000 810104A1
27302562 23820278 2183027F F18410A0 00000087 1002FFFF FFFF8903 0200008B
010AC602 01818800 A44AA005 80008101 05A131A1 2F800101 81010182 10000102
03040506 0708090A 0B0C0D0E 0F831069 D5C2EB2E 2E624750 541D3BBC 692BA586
03FFFFFF 830607FF FFFFFFFF 840607FF FFFFFFFF A222A005 80008101 06A119A0
17301580 02008181 08323232 32FFFFFF FF820200 81830103 A182090E A0058000
810107A1 82090330 82017680 027FF162 14820442 21003083 026F068B 01018002
02108801 B8811B84 01D4A406 83010A95 01088001 01900080 015EA406 83010A95
01080201 15812184 01D4A406 83010A95 01088001 01A40683 01019501 0880015E
A4068301 0A950108 02010F81 218401D4 A4068301 0A950108 800103A4 06830101
95010880 015CA406 83010A95 01080201 0F812684 01D4A406 83010A95 01088001
01900080 0102A406 83010195 01088001 5CA40683 010A9501 0802010A 81168001
03A40683 01019501 0880011C A4068301 0A950108 02011A81 16800101 A4068301
01950108 80011EA4 0683010A 95010802 011A8111 8C02A0E8 90008001 07A40683
010A9501 0802011F 812C8401 D4A40683 010A9501 08800101 A4068301 01950108
800102A4 06830181 95010880 015CA406 83010A95 01080201 04812180 0101A406
83010195 01088001 02A40683 01819501 0880011C A4068301 0A950108 02010F81
10800101 90008001 1EA40683 010A9501 08020120 810B8001 1FA40683 010A9501
08303862 14820442 21002083 028F068B 038F0601 80014088 00811080 01019000
800104A4 0683010A 95010802 0110810B 800144A4 0683010A 95010830 1E621182
02412183 026F078B 01028001 09880138 81090889 22272252 55111130 1F621182
02412183 026F7E8B 01038001 0B880158 02010481 0700F110 0000FF01 301F6211
82024121 83026F73 8B010380 010E8801 60020107 810700F1 100000FF 01301962
11820241 2183026F AD8B0101 80010488 01188104 80000003 30176211 82024121
83026F78 8B010280 01028801 30810200 02301262 10820241 2183026F C48B0103
8001DA88 00301762 11820241 2183026F 058B0104 80010A88 01108102 454E3021
62118202 41218302 6F388B01 0280010C 88012081 0C1E6A17 0C277E68 00400000
00301662 11820241 2183026F 088B0105 80012188 01408101 07301662 11820241
2183026F 098B0105 80012188 01488101 07301B62 11820241 2183026F 5B8B0105
80010688 01788106 F00000F0 00003013 62118202 41218302 6F5C8B01 06800103
88018030 12621082 02412183 026F3E8B 01028001 02880030 12621082 02412183
026F3F8B 01028001 02880030 13621182 02412183 026F7B8B 01038001 2D880168
30136211 82027821 83025F3B 8B0107C6 02018188 00301962 11820241 2183024F
208B0103 80010988 01080201 08810107 30196211 82024121 83024F52 8B010580
01098801 10020108 81010730 4180027F F1621182 02412183 026F618B 01028001
28880188 81282822 278000FF FFFF0000 FFFFFF00 00FFFFFF 0000FFFF FF0000FF
FFFF0000 FFFFFF00 00FFFFFF 00003047 62118202 41218302 6F628B01 02800132
88019881 32282227 C000FFFF FF0000FF FFFF0000 FFFFFF00 00FFFFFF 0000FFFF
FF0000FF FFFF0000 FFFFFF00 00FFFFFF 0000FFFF FF000030 16621182 02412183
026F318B 01028001 01880190 81010130 15621382 04422100 0483026F B78B0101
80011488 01083036 62128204 42210020 83026F40 8B010380 01808800 8120FFFF
FFFFFFFF FFFFFFFF FFFFFFFF FFFFFFFF 07812122 551511F1 FFFFFFFF FFFF3014
62128204 42210020 83026F49 8B010280 01A08800 301D6212 82044221 000D8302
6F4C8B01 0280011A 88008101 0002010C 81010030 1B621982 04422100 B083026F
3C8B0103 800214A0 8800A504 C10200FF 30126210 82024121 83026F43 8B010380
01028800 30346212 82044221 00268302 6F428B01 03800172 8800811E 4D434E20
534D53FF FFFFFDFF FFFFFFFF FFFFFFFF FFFFFF06 E3229299 99993015 62138204
42210020 83026F3B 8B010880 02050088 00301662 11820241 2183026F 568B0108
80010188 01288101 00302362 12820442 21000D83 026F4B8B 01088001 27880081
01000201 0C810100 02010C81 01003012 62108202 41218302 6F458B01 03800128
88003015 62108202 41218302 6F578B01 08800164 88008101 00302A62 14820442
21001883 026FC58B 01018002 01688801 C8811243 0981CDF4 58FE9EBF CD744505
84CDA991 0A302062 14820442 21000883 026FC68B 01018002 01908801 D0810828
22270000 FFFE0130 12621082 02412183 026FC38B 01038001 04880030 4E621082
02412183 026FD08B 01068001 3A880081 3AAB3880 01018100 83312077 61702E6D
73667463 6E2E6E74 74657374 2E6D6963 726F736F 66742E63 6F6D0021 89233930
39330024 CB199A1A 001B0030 12621082 02412183 026FD28B 01098001 00880030
37621282 04422100 0F83026F D18B0105 80011E88 00810D80 01FF8100 82061481
06811081 02010281 0F8001FF 81008208 14810681 10810F82 30196212 82044221
00048302 6FCE8B01 05800104 88008103 00000130 15621082 02412183 026F468B
010A8001 11880081 01023018 62118202 41218302 6FD98B01 0680011E 8801E881
03282227 304D6212 82044221 000D8302 6F4E8B01 05800182 88008101 0002010C
81010002 010C8101 0002010C 81010002 010C8101 0002010C 81010002 010C8101
0002010C 81010002 010C8101 0002010C 81010030 15621382 04422100 0F83026F
4F8B0105 80014B88 01B03027 62138204 4221001A 83026FC7 8B010580 0201A088
00811056 6F696365 6D61696C FFFFFF03 E39AF930 1C621782 04422100 0483026F
C98B0105 80011088 00A503C1 01008101 01301580 00621182 02782183 027F108B
010AC602 01818800 30156213 82027821 83025F3A 8B032F06 02C60201 81880030
35621B82 04422100 2083024F 3A8B032F 060B8002 1F408801 08A503C0 01408116
4D434E20 566F6963 65204D61 696CFFFF FFFF03A1 9AF9301D 621B8204 42210002
83024F50 8B032F06 0B800201 F4880130 A503C101 00303562 14820442 21004B83
024F308B 032F060C 80019688 00811DA8 0AC0034F 3A01C503 4F5006AA 0FCB034F
3D07C203 4F4A03C7 034F4B02 30506215 82044221 000D8302 4F4A8B03 2F060B80
01828801 18810100 02010C81 01000201 0C810100 02010C81 01000201 0C810100
02010C81 01000201 0C810100 02010C81 01000201 0C810100 02010C81 01003018
62168204 42210014 83024F4B 8B032F06 0D800201 E0880110 30176215 82044221
000F8302 4F3D8B03 2F060D80 014B8801 38301C80 027F1062 12820241 2183026F
548B032F 06078001 20880081 02850030 19621482 04422100 FF83026F 538B032F
06088001 FF880081 0100A12C A0058000 810108A1 23302162 1F820278 2183027F
F2840CA0 00000087 1004FFFF FFFF898B 010EC602 01818800 A44AA005 80008101
09A131A1 2F800101 81010182 10000102 03040506 0708090A 0B0C0D0E 0F831069
D5C2EB2E 2E624750 541D3BBC 692BA586 03FFFFFF 830607FF FFFFFFFF 840607FF
FFFFFFFF A1820272 A0058000 81010AA1 82026730 3C80027F F2621482 04422100
2083028F 068B038F 06018001 40880081 10800101 90008001 04A40683 010A9501
08020110 810B8001 44A40683 010A9501 08306862 14820442 21003083 026F068B
01018002 01808801 B8811080 01019000 80011EA4 0683010A 95010802 01208116
800101A4 06830101 95010880 011EA406 83010A95 01080201 1A811080 011B9700
800104A4 0683010A 95010802 0120810B 80011FA4 0683010A 95010830 17621182
02412183 026F078B 01028001 02880138 81020000 30196211 82024121 83026FAD
8B010180 01048801 18810480 00000030 21621182 02412183 026F038B 01028001
32880128 810C800A 6D636E69 6D732E63 6F6D3081 FC621382 04422100 4B83026F
048B0102 8001E188 0120814B 80357369 703A3832 32373232 32323535 35313131
3140696D 732E6D6E 63373232 2E6D6363 3832322E 33677070 6E657477 6F726B2E
6F7267FF FFFFFFFF FFFFFFFF FFFFFFFF FFFFFFFF FFFFFF81 4B801B73 69703A2B
31323232 35353531 31313140 6D636E69 6D732E63 6F6DFFFF FFFFFFFF FFFFFFFF
FFFFFFFF FFFFFFFF FFFFFFFF FFFFFFFF FFFFFFFF FFFFFFFF FFFFFFFF FFFFFFFF
FFFFFFFF 814B8010 74656C3A 2B313232 32353535 31313131 FFFFFFFF FFFFFFFF
FFFFFFFF FFFFFFFF FFFFFFFF FFFFFFFF FFFFFFFF FFFFFFFF FFFFFFFF FFFFFFFF
FFFFFFFF FFFFFFFF FFFFFFFF FFFFFFFF FF303162 11820241 2183026F 028B0102
80014B88 0110811C 801A3832 32373232 32323535 35313131 31406D63 6E696D73
2E636F6D 301D6212 82044221 004B8302 6F098B01 0280014B 88008107 800501C0
A87C0A30 15800062 11820278 2183027F 208B010A C6020181 8800A682 0174A005
80008101 0BA14F4F 07A00000 01515350 4F08A000 00015153 50414F08 A0000001
51000000 4F08A000 00015100 00008203 82FC8083 010FC90B 81028000 81020370
8201F0EA 11800F01 00000100 00000201 1203B201 0000A281 E0302295 01388201
01830101 30173015 80018086 10F81958 39102919 DEAB9089 47198438 FA302A95
01C88201 03830101 301F301D 80018086 18FFFFFF FFFFFFFF FFFFFFFF FFFFFFFF
FFFFFFFF FFFFFFFF FF302295 01348201 02830101 30173015 80018086 10F81958
39102919 DEAB9089 47198438 FA302295 01388201 01830130 30173015 80018886
10456E63 72797074 696F6E53 65637265 74302295 01348201 02830130 30173015
80018886 10506572 736F6E61 6C697361 74696F6E 4B302295 01C88201 03830130
30173015 80018886 104B6579 456E6372 79707469 6F6E4B65 79A33704 35007032
6630732E 06072A86 4886FC6B 01600B06 092A8648 86FC6B02 02026309 06072A86
4886FC6B 03640B06 092A8648 86FC6B04 8000A732 A0058000 81010C4F 09A00000
01510000 00014F08 A0000001 51000000 A0050403 B0000081 01120404 0201070C
04040201 070CA752 A0058000 81010D4F 09A00000 01510000 00024F08 A0000001
51000000 A0050403 B0000181 01120404 0201070C 04040201 070C301E 8010A000
00008710 02FFFFFF FF890302 00008104 0201070C 82040201 070CAA07 A0058000
81010E