A0358001 02810100 820D4D53 46545F76 312E305F 424C4183 0A981211 08001757
010071A5 08810082 0084008B 00A60806 0667810F 010201B0 820259A0 05800081
01008106 67810F01 0201A212 A1108202 78218302 3F008B01 02C60101 8800A317
A1118202 41218302 2F058B01 1080010A 88012883 02656EA4 1FA11182 02412183
022FE28B 010F8001 0A880110 830A8921 11800071 75100017 A54CA113 82044221
00268302 2F008B01 07800172 8801F083 1A61184F 10A00000 00871002 FFFFFFFF
89030200 00500455 53494D82 010C8316 61144F0C A0000000 871004FF FFFFFF89
50044953 494DA682 01AAA114 82044221 00308302 2F068B01 01800203 00880130
831B8001 01900080 011EA406 83010A95 01088401 D4A40683 010A9501 08820115
83118C02 A0E89000 800107A4 0683010A 95010882 011F830B 800104A4 0683010A
95010882 01258316 800104A4 0683010A 95010884 01D4A406 83010A95 01088201
1A830580 01019000 82012B83 1080011B 97008001 04A40683 010A9501 08820120
83108001 01900080 011EA406 83010A95 01088201 20830B80 011FA406 83010A95
01088201 25831080 0107A406 83010A95 01088001 18970082 01208311 8C02A0E8
90008001 47A40683 010A9501 0882011F 83218401 D4A40683 010A9501 08800103
A4068301 01950108 80015CA4 0683010A 95010882 010F8321 8401D4A4 0683010A
95010880 0101A406 83010195 01088001 5EA40683 010A9501 0882010F 83168001
03A40683 01019501 0880011C A4068301 0A950108 82011A83 0B8C02A0 E8900080
01079000 82012583 208401D4 A4068301 0A950108 80010190 00800102 97008001
5CA40683 010A9501 08820110 83268401 D4A40683 010A9501 08800101 90008001
02A40683 01019501 0880015C A4068301 0A950108 A236A005 80008101 01A12DA0
2B301380 01018108 31313131 FFFFFFFF 82010183 01063014 80010A81 08933F57
845F7069 21830103 840200AA A328A005 80008101 02A11F30 0D800101 81083132
33343536 3738300E 80020081 81083132 33343536 3738A130 A0058000 810104A1
27302562 23820278 2183027F F18410A0 00000087 1002FFFF FFFF8903 0200008B
010AC602 01818800 A44AA005 80008101 05A131A1 2F800101 81010182 10AAAAAA
AAAAAAAA AAAAAAAA AAAAAAAA AA8310BA EBC618A5 5C351F25 CEDF37BF 70F39086
03FFFFFF 830607FF FFFFFFFF 840607FF FFFFFFFF A222A005 80008101 06A119A0
17301580 02008181 08323232 32FFFFFF FF820200 81830103 A1820908 A0058000
810107A1 8208FD30 82017680 027FF162 14820442 21003083 026F068B 01018002
02108801 B8811B84 01D4A406 83010A95 01088001 01900080 015EA406 83010A95
01080201 15812184 01D4A406 83010A95 01088001 01A40683 01019501 0880015E
A4068301 0A950108 02010F81 218401D4 A4068301 0A950108 800103A4 06830101
95010880 015CA406 83010A95 01080201 0F812684 01D4A406 83010A95 01088001
01900080 0102A406 83010195 01088001 5CA40683 010A9501 0802010A 81168001
03A40683 01019501 0880011C A4068301 0A950108 02011A81 16800101 A4068301
01950108 80011EA4 0683010A 95010802 011A8111 8C02A0E8 90008001 07A40683
010A9501 0802011F 812C8401 D4A40683 010A9501 08800101 A4068301 01950108
800102A4 06830181 95010880 015CA406 83010A95 01080201 04812180 0101A406
83010195 01088001 02A40683 01819501 0880011C A4068301 0A950108 02010F81
10800101 90008001 1EA40683 010A9501 08020120 810B8001 1FA40683 010A9501
08303862 14820442 21002083 028F068B 038F0601 80014088 00811080 01019000
800104A4 0683010A 95010802 0110810B 800144A4 0683010A 95010830 1E621182
02412183 026F078B 01028001 09880138 81090849 81041000 20001030 1F621182
02412183 026F7E8B 01038001 0B880158 02010481 0700F110 0000FF01 301F6211
82024121 83026F73 8B010380 010E8801 60020107 810700F1 100000FF 01301962
11820241 2183026F AD8B0101 80010488 01188104 80000003 30176211 82024121
83026F78 8B010280 01028801 30810200 02301262 10820241 2183026F C48B0103
8001DA88 00301762 11820241 2183026F 058B0104 80010A88 01108102 454E3021
62118202 41218302 6F388B01 0280010C 88012081 0C1E6A17 0C277E68 00400000
00301662 11820241 2183026F 088B0105 80012188 01408101 07301662 11820241
2183026F 098B0105 80012188 01488101 07301B62 11820241 2183026F 5B8B0105
80010688 01788106 F00000F0 00003013 62118202 41218302 6F5C8B01 06800103
88018030 12621082 02412183 026F3E8B 01028001 02880030 12621082 02412183
026F3F8B 01028001 02880030 13621182 02412183 026F7B8B 01038001 2D880168
30136211 82027821 83025F3B 8B0107C6 02018188 00301962 11820241 2183024F
208B0103 80010988 01080201 08810107 30196211 82024121 83024F52 8B010580
01098801 10020108 81010730 4180027F F1621182 02412183 026F618B 01028001
28880188 81282822 278000FF FFFF0000 FFFFFF00 00FFFFFF 0000FFFF FF0000FF
FFFF0000 FFFFFF00 00FFFFFF 00003047 62118202 41218302 6F628B01 02800132
88019881 32282227 C000FFFF FF0000FF FFFF0000 FFFFFF00 00FFFFFF 0000FFFF
FF0000FF FFFF0000 FFFFFF00 00FFFFFF 0000FFFF FF000030 16621182 02412183
026F318B 01028001 01880190 81010130 15621382 04422100 0483026F B78B0101
80011488 01083030 62128204 42210020 83026F40 8B010380 01808800 811A4C69
6E652031 FFFFFFFF FFFFFFFF FFFFFFFF 07812122 551511F1 30146212 82044221
00208302 6F498B01 028001A0 8800301D 62128204 4221000D 83026F4C 8B010280
011A8800 81010002 010C8101 00301B62 19820442 2100B083 026F3C8B 01038002
14A08800 A504C102 00FF3012 62108202 41218302 6F438B01 03800102 88003034
62128204 42210026 83026F42 8B010380 01728800 811E4D43 4E20534D 53FFFFFF
FDFFFFFF FFFFFFFF FFFFFFFF FF06E322 92999999 30156213 82044221 00208302
6F3B8B01 08800205 00880030 16621182 02412183 026F568B 01088001 01880128
81010030 23621282 04422100 0D83026F 4B8B0108 80012788 00810100 02010C81
01000201 0C810100 30126210 82024121 83026F45 8B010380 01288800 30156210
82024121 83026F57 8B010880 01648800 81010030 2A621482 04422100 1883026F
C58B0101 80020168 8801C881 12430981 CDF458FE 9EBFCD74 450584CD A9910A30
20621482 04422100 0883026F C68B0101 80020190 8801D081 08282227 0000FFFE
01301262 10820241 2183026F C38B0103 80010488 00304E62 10820241 2183026F
D08B0106 80013A88 00813AAB 38800101 81008331 20776170 2E6D7366 74636E2E
6E747465 73742E6D 6963726F 736F6674 2E636F6D 00218923 39303933 0024CB19
9A1A001B 00301262 10820241 2183026F D28B0109 80010088 00303762 12820442
21000F83 026FD18B 01058001 1E880081 0D8001FF 81008206 14810681 10810201
02810F80 01FF8100 82081481 06811081 0F823019 62128204 42210004 83026FCE
8B010580 01048800 81030000 01301562 10820241 2183026F 468B010A 80011188
00810102 30186211 82024121 83026FD9 8B010680 011E8801 E8810328 2227304D
62128204 4221000D 83026F4E 8B010580 01828800 81010002 010C8101 0002010C
81010002 010C8101 0002010C 81010002 010C8101 0002010C 81010002 010C8101
0002010C 81010002 010C8101 00301562 13820442 21000F83 026F4F8B 01058001
4B8801B0 30276213 82044221 001A8302 6FC78B01 05800201 A0880081 10566F69
63656D61 696CFFFF FF03E39A F9301C62 17820442 21000483 026FC98B 01058001
108800A5 03C10100 81010130 15800062 11820278 2183027F 108B010A C6020181
88003015 62138202 78218302 5F3A8B03 2F0602C6 02018188 00303562 1B820442
21002083 024F3A8B 032F060B 80021F40 880108A5 03C00140 81164D43 4E20566F
69636520 4D61696C FFFFFFFF 03A19AF9 301D621B 82044221 00028302 4F508B03
2F060B80 0201F488 0130A503 C1010030 35621482 04422100 4B83024F 308B032F
060C8001 96880081 1DA80AC0 034F3A01 C5034F50 06AA0FCB 034F3D07 C2034F4A
03C7034F 4B023050 62158204 4221000D 83024F4A 8B032F06 0B800182 88011881
01000201 0C810100 02010C81 01000201 0C810100 02010C81 01000201 0C810100
02010C81 01000201 0C810100 02010C81 01000201 0C810100 30186216 82044221
00148302 4F4B8B03 2F060D80 0201E088 01103017 62158204 4221000F 83024F3D
8B032F06 0D80014B 88013830 1C80027F 10621282 02412183 026F548B 032F0607
80012088 00810285 00301962 14820442 2100FF83 026F538B 032F0608 8001FF88
00810100 A12CA005 80008101 08A12330 21621F82 02782183 027FF284 0CA00000
00871004 FFFFFFFF 898B010E C6020181 8800A44A A0058000 810109A1 31A12F80
01018101 018210AA AAAAAAAA AAAAAAAA AAAAAAAA AAAAAA83 10BAEBC6 18A55C35
1F25CEDF 37BF70F3 908603FF FFFF8306 07FFFFFF FFFF8406 07FFFFFF FFFFA182
01EAA005 80008101 0AA18201 DF303C80 027FF262 14820442 21002083 028F068B
038F0601 80014088 00811080 01019000 800104A4 0683010A 95010802 0110810B
800144A4 0683010A 95010830 68621482 04422100 3083026F 068B0101 80020180
8801B881 10800101 90008001 1EA40683 010A9501 08020120 81168001 01A40683
01019501 0880011E A4068301 0A950108 02011A81 1080011B 97008001 04A40683
010A9501 08020120 810B8001 1FA40683 010A9501 08301762 11820241 2183026F
078B0102 80010288 01388102 00003019 62118202 41218302 6FAD8B01 01800104
88011881 04800000 00302162 11820241 2183026F 038B0102 80013288 0128810C
800A6D63 6E696D73 2E636F6D 30756213 82044221 004B8302 6F048B01 028001E1
88012081 31383232 37323232 32353535 31313131 40696D73 2E6D6E63 3732322E
6D636338 32322E33 6770706E 6574776F 726B2E6F 72670201 1A81172B 31323232
35353531 31313140 6D636E69 6D732E63 6F6D0201 34810C2B 31323232 35353531
31313130 31621182 02412183 026F028B 01028001 4B880110 811C801A 38323237
32323232 35353531 31313140 6D636E69 6D732E63 6F6D301D 62128204 4221004B
83026F09 8B010280 014B8800 81078005 01C0A87C 0A301580 00621182 02782183
027F208B 010AC602 01818800 A6820174 A0058000 81010BA1 4F4F07A0 00000151
53504F08 A0000001 51535041 4F08A000 00015100 00004F08 A0000001 51000000
820382FC 8083010F C90B8102 80008102 03708201 F0EA1180 0F010000 01000000
02011203 B2010000 A281E030 22950138 82010183 01013017 30158001 808610F8
19583910 2919DEAB 90894719 8438FA30 2A9501C8 82010383 0101301F 301D8001
808618FF FFFFFFFF FFFFFFFF FFFFFFFF FFFFFFFF FFFFFFFF FFFFFF30 22950134
82010283 01013017 30158001 808610F8 19583910 2919DEAB 90894719 8438FA30
22950138 82010183 01303017 30158001 88861045 6E637279 7074696F 6E536563
72657430 22950134 82010283 01303017 30158001 88861050 6572736F 6E616C69
73617469 6F6E4B30 229501C8 82010383 01303017 30158001 8886104B 6579456E
63727970 74696F6E 4B6579A3 37043500 70326630 732E0607 2A864886 FC6B0160
0B06092A 864886FC 6B020202 63090607 2A864886 FC6B0364 0B06092A 864886FC
6B048000 A72CA005 80008101 0C4F09A0 00000559 10100001 4F08A000 00015100
0000A005 0403B000 00810112 04010004 0100A74C A0058000 81010D4F 09A00000
05591010 00024F08 A0000001 51000000 A0050403 B0000181 01120401 00040100
301E8010 A0000000 871002FF FFFFFF89 03020000 81040200 01008204 02000100
AA07A005 80008101 0E