A0818680 01028101 01822045 4D545F65 53494D5F 63303831 5F633038 345F7665
72325F4D 545F4F50 4C4D4E83 0A891039 00000154 10806FA5 06810084 008B00A6
08060667 810F0102 01873EA1 31350702 02040305 1F024718 086F6265 72746875
720A6170 6E636F6E 6E656374 03636F6D 0D05046E 6F6E650D 05046E6F 6E65A009
06079113 56049938 00A18202 2EA00580 00810100 A1820223 3010620E 82027821
83023F00 8B0102C6 01013019 62118202 41218302 2F058B01 0E80010A 88012881
04657465 6E301F62 11820241 2183022F E28B010F 80010A88 0110810A 98019300
00104501 08F63059 62138204 42210026 83022F00 8B010D80 01988801 F0811E61
1C4F10A0 00000087 1002FFFF FFFF8904 0300FF50 08454D54 20555349 4D020108
811F611D 4F0CA000 00006350 4B43532D 31355007 504B4353 23313551 043F007F
50308201 76621482 04422100 3083022F 068B0101 80020600 88013081 15800101
90008001 1A970080 0104A406 83010A95 01080201 1B81118C 02A0E890 00800147
A4068301 0A950108 02011F81 1080011B 97008001 04A40683 010A9501 08020120
81108001 03970080 011CA406 83010A95 01080201 20810580 01019000 02012B81
118C02A0 E8900080 0147A406 83010A95 01080201 1F811580 01019000 80011A97
00800104 A4068301 0A950108 02011B81 1080011B 97008001 04A40683 010A9501
08020120 81108001 03970080 011CA406 83010A95 01080201 20811080 01019000
80011EA4 0683010A 95010802 0120810B 80011FA4 0683010A 95010802 01258116
800103A4 06830101 95010880 011CA406 83010A95 01080201 1A811B84 01D4A406
83010A95 01088001 01900080 015EA406 83010A95 01080201 15812684 01D4A406
83010A95 01088001 01900080 0102A406 83010195 01088001 5CA40683 010A9501
0802010A 81158001 01900080 01029700 80011CA4 0683010A 950108A3 28A00580
00810101 A11F300D 80010181 08313233 34353637 38300E80 02008181 08383736
35343332 31A246A0 05800081 0102A13D A03B3013 80010181 08313233 34FFFFFF
FF820101 83010630 1180010A 8108933F 57845F70 69218402 00AA3011 80010B81
08933F57 845F7069 21840200 AAA18201 25A00580 00810103 A182011A 30820116
80027FDE 62148204 4221003D 83026F30 8B032F06 0B8001F4 8800813D 06B00010
00005500 0000FFFF FFFFFFFF FFFFFFFF FFFFFF00 80160015 15FFFFFF FFFFFFFF
FFFFFFFF FF000000 00160200 00000000 0000007F 20000000 00813D06 B0000100
00550000 00FFFFFF FFFFFFFF FFFFFFFF FFFF0080 16001515 FFFFFFFF FFFFFFFF
FFFFFFFF 00000000 16030000 00000000 00007FF0 00000000 813D06B0 00000000
55000000 FFFFFFFF FFFFFFFF FFFFFFFF FF008016 001515FF FFFFFFFF FFFFFFFF
FFFFFF00 00000016 01000000 00000000 003F0000 00000081 3D06B000 20000055
000000FF FFFFFFFF FFFFFFFF FFFFFFFF 00801600 1515FFFF FFFFFFFF FFFFFFFF
FFFF0000 00001604 00000000 00000000 7F500000 0000A12E A0058000 810104A1
25302362 21820278 2183027F F08410A0 00000087 1002FFFF FFFF8904 0300FF8B
0106C602 0181A44A A0058000 810105A1 31A12F80 01018101 01821024 B011DCC3
E563A0B4 525F94FE 1A44F683 10099D73 47495D0D 5B274FEF D1A479B6 048603FF
FFFF8306 00010000 00008406 07FFFFFF FFF8A21F A0058000 810106A1 16A01430
12800200 81810835 363738FF FFFFFF82 020081A1 821408A0 05800081 0107A182
13FD3082 02418002 7FF06214 82044221 00308302 6F068B01 01800204 B08801B8
810A8001 01900080 011E9700 02012681 16800101 A4068301 01950108 80015EA4
0683010A 95010802 011A8116 800103A4 06830101 95010880 015CA406 83010A95
01080201 1A812184 01D4A406 83010A95 01088001 01A40683 01019501 0880015E
A4068301 0A950108 02010F81 26840132 A4068301 0A950108 8401D4A4 0683010A
95010880 01019000 80015EA4 0683010A 95010802 010A811B 8401D4A4 0683010A
95010880 01019000 80015EA4 0683010A 95010802 01158126 8401D4A4 0683010A
95010880 01019000 800102A4 06830101 95010880 015CA406 83010A95 01080201
0A81118C 02A0E890 00800107 A4068301 0A950108 02011F81 10800101 90008001
5EA40683 010A9501 08020120 81218401 D4A40683 010A9501 08800103 A4068301
01950108 80015CA4 0683010A 95010802 010F811B 84013297 00800103 A4068301
01950108 800158A4 0683010A 95010802 01158121 840132A4 06830101 95010880
0103A406 83010195 01088001 58A40683 010A9501 0802010F 812C8401 32A40683
01019501 08800101 A4068301 01950108 800102A4 06830181 95010880 0158A406
83010A95 01080201 04812180 0101A406 83010195 01088001 02A40683 01819501
0880015C A4068301 0A950108 02010F81 2C8401D4 A4068301 0A950108 800101A4
06830101 95010880 0102A406 83018195 01088001 5CA40683 010A9501 08020104
81108001 1B970080 0104A406 83010A95 01080201 20811080 011DA406 83010A95
01088001 02970030 12621082 02412183 026FDC8B 01028001 01880030 1B621182
02412183 026FE38B 01038001 128801F0 02010F81 03000001 30156213 82044221
00368302 6FE48B01 03800136 8801C030 13621182 02412183 026FD98B 01048001
3C8801E8 30126210 82024121 83026FDB 8B010280 01018800 30126210 82024121
83026FC4 8B010380 01928800 30216211 82024121 83026F38 8B010480 010C8801
20810C9E FF970DF3 FE0500C0 03100030 16621182 02412183 026F088B 01038001
21880140 81010730 16621182 02412183 026F098B 01038001 21880148 81010730
1B621182 02412183 026F5B8B 01038001 06880178 8106F000 00F00000 30136211
82024121 83026F5C 8B010280 01038801 80301162 0F820278 2183025F 3B8B0108
C6020181 30298002 7FF06214 82044221 001C8302 6FB78B01 06800201 18880108
810D11F2 FF507B7B 73746561 6D657430 12621082 02412183 026FC38B 01038001
04880030 14621282 04422100 2683026F 408B010A 80017288 00307A62 14820446
21003483 026F808B 010B8002 02088801 A002012D 81050000 00000002 012F8105
00000000 0002012F 81050000 00000002 012F8105 00000000 0002012F 81050000
00000002 012F8105 00000000 0002012F 81050000 00000002 012F8105 00000000
0002012F 81050000 00000002 012F8105 00000000 00301962 17820446 21000383
026F828B 010C8001 038800A5 03C10100 30706214 82044621 00338302 6F818B01
0B800201 FE8801A8 02012D81 04000000 0002012F 81040000 00000201 2F810400
00000002 012F8104 00000000 02012F81 04000000 0002012F 81040000 00000201
2F810400 00000002 012F8104 00000000 02012F81 04000000 0002012F 81040000
00003019 62178204 46210003 83026F83 8B010C80 01038800 A503C101 00302F62
12820442 21000D83 026F4E8B 010A8001 41880081 01000201 0C810100 02010C81
01000201 0C810100 02010C81 01003016 62118202 41218302 6F568B01 0F800101
88012881 01003015 62138204 4221000F 83026F4F 8B010A80 014B8801 B0301280
00620E82 02782183 027F108B 0106C601 01308201 71621382 04422100 3083026F
068B0101 80020300 88008115 80010190 0080011A 97008001 04A40683 010A9501
0802011B 81268401 D4A40683 010A9501 08800101 90008001 1EA40683 01019501
08800140 A4068301 0A950108 02010A81 168401D4 A4068301 0A950108 80015FA4
0683010A 95010802 011A8111 8C02A0E8 90008001 47A40683 010A9501 0802011F
81218401 D4A40683 010A9501 08800103 A4068301 01950108 80015CA4 0683010A
95010802 010F8121 8401D4A4 0683010A 95010880 0101A406 83010195 01088001
5EA40683 010A9501 0802010F 81168001 03A40683 01019501 0880015C A4068301
0A950108 02011A81 2C8401D4 A4068301 0A950108 800101A4 06830101 95010880
0102A406 83018195 01088001 5CA40683 010A9501 08020104 812C8401 D4A40683
010A9501 08800103 A4068301 01950108 800144A4 0683010A 95010880 0118A406
83018195 01080201 04811B84 01329700 800103A4 06830101 95010880 0158A406
83010A95 01083014 62128204 42210026 83026FE0 8B010280 01BE8800 30156213
82044221 00648302 6FE18B01 02800201 F4880030 10620E82 02782183 025F3A8B
0104C601 01301662 14820442 21002683 024F3A8B 01058002 251C8801 D0301662
14820442 21002683 024F3B8B 01058002 251C8801 A8301662 14820442 21001183
024F118B 01058002 03528801 88301662 14820442 21003283 024F508B 01058002
09C48801 80301662 14820442 21000283 024F258B 01058002 01F48801 28301662
14820442 21000283 024F018B 01058002 01F48801 18301B62 19820442 21000283
024F098B 01058002 01F48801 48A503C1 0100301B 62198204 42210002 83024F0A
8B010580 0201F488 01B0A503 C1010030 818B6212 82044221 004C8302 4F308B01
06800198 88008138 A814C003 4F3A1AC1 034F2505 C6034F26 06C5034F 0909A90A
C4034F11 11CA034F 5010AA14 C8034F4C 0CCB034F 4F0FC203 4F4A0AC7 034F4B0B
02011481 38A814C0 034F3B15 C1034F01 03C6034F 2717C503 4F0A16A9 0AC4034F
1111CA03 4F5010AA 14C8034F 4C0CCB03 4F4F0FC2 034F4A0A C7034F4B 0B30818B
62148204 4221000D 83024F4A 8B010580 02010488 01508101 0002010C 81010002
010C8101 0002010C 81010002 010C8101 0002010C 81010002 010C8101 0002010C
81010002 010C8101 0002010C 81010002 010C8101 0002010C 81010002 010C8101
0002010C 81010002 010C8101 0002010C 81010002 010C8101 0002010C 81010002
010C8101 0002010C 81010030 1B621982 04422100 0283024F 268B0105 800201F4
880130A5 03C10100 301B6219 82044221 00028302 4F278B01 05800201 F48801B8
A503C101 00301562 13820442 21001883 024F4C8B 01058001 78880160 30156213
82044221 00188302 4F4B8B01 05800178 88015830 16621482 04422100 0F83024F
4F8B0105 8002012C 88017830 1980027F 10621382 04422100 2C83026F 498B0106
80020370 8800301B 62198204 422100B0 83026F3C 8B010580 020DC088 00A504C1
0200FF30 12621082 02412183 026F438B 01078001 02880030 1B621982 04422100
1E83026F 478B0105 8002012C 8800A504 C10200FF 303A6212 82044221 002C8302
6F428B01 05800158 88008124 454D54FF FFFFFFFF FFFFFFFF FFFFFFFF FDFFFFFF
FFFFFFFF FFFFFFFF FF069173 52900900 30156213 82044221 00268302 6F3B8B01
08800202 F8880030 1D621282 04422100 0D83026F 4C8B0106 80011A88 00810100
02010C81 01003023 62128204 4221000D 83026F4B 8B010880 01278800 81010002
010C8101 0002010C 81010030 14621282 04422100 2683026F 408B0105 80017288
00301562 13820446 21002683 026F448B 010A8002 017C8800 30128000 620E8202
78218302 7F208B01 06C60101 30820216 62138204 42210030 83026F06 8B010180
02033088 00811580 01019000 80011A97 00800104 A4068301 0A950108 02011B81
1B8401D4 A4068301 0A950108 80010190 0080015E A4068301 0A950108 02011581
16800111 A4068301 01950108 80014EA4 0683010A 95010802 011A8116 800113A4
06830101 95010880 014CA406 83010A95 01080201 1A811680 0103A406 83010195
01088001 5CA40683 010A9501 0802011A 81168001 01A40683 01019501 0880015E
A4068301 0A950108 02011A81 218401D4 A4068301 0A950108 800101A4 06830101
95010880 015EA406 83010A95 01080201 0F811684 01D4A406 83010A95 01088001
5FA40683 010A9501 0802011A 81108001 01900080 015EA406 83010A95 01080201
20812184 01D4A406 83010A95 01088001 03A40683 01019501 0880015C A4068301
0A950108 02010F81 2C840132 A4068301 01950108 800101A4 06830101 95010880
0102A406 83018195 01088001 58A40683 010A9501 08020104 81218001 01A40683
01019501 08800102 A4068301 81950108 80015CA4 0683010A 95010802 010F8126
8401D4A4 0683010A 95010880 01019000 800102A4 06830101 95010880 015CA406
83010A95 01080201 0A811080 011DA406 83010A95 01088001 02970002 01208116
800101A4 06830101 95010880 011EA406 83010A95 01080201 1A811680 0103A406
83010195 01088001 1CA40683 010A9501 0802011A 81108001 1B970080 0104A406
83010A95 0108304E 62138204 4221002C 83026FC5 8B010280 0201B888 0002012C
81084306 85D4323B 1D060201 24810A43 0880D422 33190411 97020122 81094307
86D3B7BB 2C0F0302 0123810A 430887D4 323B1D06 39013046 62128204 42210008
83026FC6 8B010280 01A08800 810842F0 500000FF FE028108 32F86600 00FFFE03
810842F4 630000FF FE048108 42F22000 00FFFE05 810842F8 100000FF FE02301D
62108202 41218302 6F078B01 03800109 88008109 08294040 97032362 63301862
10820241 2183026F 7E8B0104 80010B88 0002010A 81010130 1B621082 02412183
026F538B 01058001 0E880002 010A8104 0000FF01 30186210 82024121 83026FAD
8B010280 01048800 81040100 01023016 62108202 41218302 6F788B01 06800102
88008102 0040301E 62108202 41218302 6F3E8B01 0780010A 8800810A FFFFFFFF
FFFFFFFF FFFF301E 62108202 41218302 6F3F8B01 0780010A 8800810A FFFFFFFF
FFFFFFFF FFFF3016 62108202 41218302 6F548B01 08800120 88008102 851E3012
62108202 41218302 6F7B8B01 0580010C 88003018 62108202 41218302 6F208B01
05800109 88000201 08810107 30186210 82024121 83026F52 8B010580 01098800
02010881 01073082 020B6211 82024121 83026F61 8B010780 0201F488 00818201
F402F440 C08062F2 20C08032 F451C080 05F530C0 8022F201 C08032F2 10C08056
F510C080 12F410C0 8002F801 C08035F0 10C08022 F810C080 72F210C0 80130014
C08054F0 50C08064 F010C080 04F402C0 8004F411 C08004F4 72C08004 F450C080
04F464C0 8004F434 C08004F4 03C08062 F010C080 44F001C0 8002F610 C08042F2
10C08072 F077C080 62F810C0 80030222 C0800302 16C08006 F220C080 42F042C0
8032F810 C08025F5 50C08025 F099C080 15F098C0 8027F450 C08052F0 10C08012
F607C080 32F030C0 8082F620 C08036F9 20C08042 F450C080 02F250C0 8005F291
C0803304 20C08024 F510C080 06F420C0 8014F320 C08022F6 10C08072 F810C080
270213C0 8026F020 C08015F5 30C08092 F304C080 17F601C0 8012F901 C08032F1
10C08024 F720C080 14F920C0 8022F050 C08024F6 20C08064 F629C080 82F410C0
8054F250 C08047F8 01C08017 F430C080 72F420C0 8072F620 C08024F0 10C08037
3221C080 54F430C0 8037F010 C08052F5 10C08024 F430C080 130062C0 8032F401
C0801300 54C08013 0020C080 130035C0 8037F460 C08032F4 30C08082 F010C080
330850C0 8046F050 C08045F2 10C08046 F340C080 47F010C0 8092F710 C08042F7
50C08014 F610C080 74F070C0 8006F330 C08082F2 20C08012 F809C080 04F040C0
8092F430 C08046F6 10C08042 F620C080 06F810C0 80302362 10820241 2183026F
628B0107 80010F88 00810F42 F8108080 FFFFFF00 00FFFFFF 00003015 62108202
41218302 6F318B01 06800101 88008101 05301A62 10820241 2183026F 468B0109
80011188 00810600 54656C69 61301262 10820241 2183026F 458B010A 80011488
00301962 17820446 21000383 026F398B 010B8001 248800A5 03C10100 30176210
82024121 83026F37 8B010C80 01038800 81030000 00301962 10820241 2183026F
418B010C 80010588 00020103 81020000 30126210 82024121 83026F50 8B010A80
010C8800 30126210 82024121 83026F32 8B010780 011E8800 30126210 82024121
83026F63 8B010580 01108800 30146212 82044221 00268302 6FC78B01 0A800198
88003017 62128204 4221000D 83026FC8 8B010A80 010D8800 81010030 1C621782
04422100 0483026F C98B010A 80010888 00A503C1 01008101 01301962 17820442
21000583 026FCA8B 01058001 0A8800A5 03C10100 301F6212 82044221 00108302
6FCB8B01 0A800120 88008102 01000201 0E810202 00301762 12820442 21000D83
026FCC8B 010A8001 0D880081 01003018 62108202 41218302 6FCD8B01 07800140
88008104 A33E803C 30156210 82024121 83026F64 8B010680 01018800 81010030
16621082 02412183 026FB58B 01068001 02880081 02000030 15621082 02412183
026FB68B 01058001 01880081 01003015 62108202 41218302 6FAE8B01 09800101
88008101 03301262 10820241 2183026F 748B0105 80011088 00301262 10820241
2183026F 058B010D 80010588 00302562 10820241 2183026F 388B0107 80010F88
00020101 810E33FF FF3FF03C 0F3C0CC0 FFF0FF00 30819962 10820241 2183026F
308B010A 8001F088 00818184 42F41942 F71042F6 1042F010 42F22032 F80262F2
1012F470 52F01002 F81032F4 3352F510 62F03082 F61002F2 0122F210 12F60362
F86002F4 8072F220 62F27022 F28832F0 1032F230 22F60162 F02082F4 1012F901
92F30402 F80272F4 1062F830 32F21025 F01022F8 3072F812 82F81062 F23022F0
3002F461 32F02022 F81012F4 3037F010 30126210 82024121 83026FB7 8B010280
010F8800 30126210 82024121 83026F14 8B010F80 01108800 30176210 82024121
83026F16 8B010F80 01038800 81030200 00301562 10820241 2183026F 138B0110
80010188 00810155 30156210 82024121 83026F11 8B011080 01018800 810155A1
29A00580 00810108 A120301E 621C8202 78218302 7F50840C A0000000 63504B43
532D3135 8B0102C6 0101A182 0575A005 80008101 09A18205 6A307680 027F5062
13820442 21003083 026F068B 01018002 01808800 81108001 01900080 011EA406
83010A95 01080201 20811B84 01D4A406 83010A95 01088001 01900080 015EA406
83010A95 01080201 15812684 01D4A406 83010A95 01088001 01900080 0102A406
83010195 01088001 5CA40683 010A9501 08304C62 10820241 21830250 328B0102
80016A88 00813830 36020101 040A9801 93000000 118610F2 0C154F62 65727468
75722054 6563686E 6F6C6F67 69657380 0A434552 54535F50 524F5603 02078030
818A6211 82024121 83024404 8B010280 0201F488 00817530 7330180C 12536F6E
65726120 4F706572 61746F72 20434103 02060030 46041453 6A2626F9 81448AD3
4015538F 14DF83BB 8A9EBD01 01FF3019 02010504 14536A26 26F98144 8AD34015
538F14DF 83BB8A9E BDA11030 0E060C2B 06010401 2A026E02 020201A1 0F300D30
0B040244 22020100 80020333 3082034A 62118202 41218302 44228B01 02800203
E8880081 82033330 82032F30 820217A0 03020102 02027C7D 300D0609 2A864886
F70D0101 05050030 40310B30 09060355 04061302 46493114 30120603 55040A13
0B54656C 6961536F 6E657261 311B3019 06035504 03131253 6F6E6572 61204F70
65726174 6F722043 41301E17 0D303431 30303831 30313430 315A170D 32343130
30383130 31343031 5A304031 0B300906 03550406 13024649 31143012 06035504
0A130B54 656C6961 536F6E65 7261311B 30190603 55040313 12536F6E 65726120
4F706572 61746F72 20434130 82012230 0D06092A 864886F7 0D010101 05000382
010F0030 82010A02 82010100 98326BCF 567B6C97 CF10C571 37B512F5 DFA6BCDA
F9924764 BC6122AE 1826691D 79DE78D9 21AC99BB 8F162DB3 71A5ACB4 BFA89EAE
21797759 76518788 8BA7EE20 04858C22 889B986D E1B8C83F 16B68CAA 1FED9001
17E019A5 17910B58 30BF49FE CB68EF1B 2BF4C970 6D480D1B B5281881 610CCEA8
D79CB357 BBAD3DA9 1BC30D76 E7029A27 B1E8A67B 71996C25 48D08147 BCF40EB5
BFE12465 9D175827 5F9B6146 F68FE484 73DF03D4 DECA8984 D4C4D015 4B4BCBBD
E9FDEBD5 0898B01D F12723C0 5B9B57A2 F53821CC 72990FAC D2121A51 0BC4ECD1
AC8004B6 A331B3A1 4ACD2180 07E2C276 C9F2AC00 5C96DB08 225FE9AB E07E4ACE
B109B006 17D0B297 7027F80B 02030100 01A33330 31300F06 03551D13 0101FF04
05300301 01FF3011 0603551D 0E040A04 084F14DF 83BB8A9E BD300B06 03551D0F
04040302 0106300D 06092A86 4886F70D 01010505 00038201 01001959 5F88BA8A
5A731A9C 8E69F651 D7226F78 76FC02E4 309E06EF 00CB5041 92E0154E E7138870
540AC9B3 834F1E06 4955520A DEA7B83E 8B7F7A0D 649C102F F1D27E80 A1BA08B3
BE84A40C 5F2547B3 ACF67FE1 BF06206C 29A37E8C 2564B5E6 8F9D42A0 68EBD030
8AF65895 00252EDC AD5B6C21 CCDDE351 86926A3C F2B39EDC C36ABA14 B8CC2CF4
2513CB73 26240F4A E6484466 21477AA0 378D2A9D 67740EF6 36848AFC 7EC04F75
BD762931 35CA7E7E B9D343D8 70F5FF8D 93929A41 6E9129EB 5F7F2E7A 74B0A380
FFC40A52 7C981241 41662052 AD58B5ED 6653388A 9BFFF479 A7ABD3DA C9C64E77
DD6FA233 9D90AEB2 E21F6148 D4E1EB0C 7D59A30D E546F0C5 7FB93013 62118202
41218302 44248B01 02800205 DC880030 24621082 02412183 0250318B 01028001
38880081 10A70630 04040244 07A50630 04040244 04301262 10820241 21830244
078B0102 8001C888 00301362 11820241 21830244 308B0102 800203E8 88003013
62118202 41218302 44318B01 03800203 E8880030 12621082 02412183 0242008B
01028001 64880030 12621082 02412183 0243008B 01028001 64880030 12621082
02412183 0243108B 01028001 64880030 12621082 02412183 0243118B 01028001
648800A1 820479A0 05800081 010AA182 046E301C 80027FF0 62168204 4221002C
83026FC5 8B010588 01C8C704 7F206FC5 30186216 82044221 00088302 6FC68B01
058801D0 C7047F20 6FC63016 62148202 41218302 6F078B01 02880138 C7047F20
6F073016 62148202 41218302 6F7E8B01 03880158 C7047F20 6F7E3016 62148202
41218302 6F738B01 03880160 C7047F20 6F533016 62148202 41218302 6FAD8B01
06880118 C7047F20 6FAD3016 62148202 41218302 6F788B01 02880130 C7047F20
6F783014 62128202 41218302 6F058B01 07880110 C7022F05 30156213 82024121
83026F3E 8B010488 00C7047F 206F3E30 15621382 02412183 026F3F8B 01048800
C7047F20 6F3F3016 62148202 41218302 6F7B8B01 03880168 C7047F20 6F7B301C
80047FF0 5F3B6214 82024121 83024F20 8B010388 0108C704 7F206F20 30166214
82024121 83024F52 8B010388 0110C704 7F206F52 30156213 82024121 83024F63
8B010388 00C7047F 206F6330 15621382 02412183 024F648B 01028800 C7047F20
6F64301A 80027FF0 62148202 41218302 6F618B01 04880188 C7047F20 6F613016
62148202 41218302 6F628B01 04880198 C7047F20 6F623016 62148202 41218302
6F318B01 02880190 C7047F20 6F313015 62138202 41218302 6F468B01 098800C7
047F206F 46301762 15820442 21002C83 026F498B 01048800 C7047F10 6F493017
62158204 422100B0 83026F3C 8B010A88 00C7047F 106F3C30 15621382 02412183
026F438B 01038800 C7047F10 6F433017 62158204 4221001E 83026F47 8B010A88
00C7047F 106F4730 17621582 04422100 2C83026F 428B010A 8800C704 7F106F42
30156213 82024121 83026F45 8B010A88 00C7047F 206F4530 18621682 04462100
0383026F 398B010D 8801E0C7 047F206F 39301562 13820241 2183026F 378B010E
8800C704 7F206F37 30156213 82024121 83026F41 8B010E88 00C7047F 206F4130
15621382 02412183 026F508B 010A8800 C7047F20 6F503015 62138202 41218302
6F328B01 048800C7 047F206F 32301762 15820442 21002683 026FC78B 010A8800
C7047F20 6FC73017 62158204 4221000D 83026FC8 8B010A88 00C7047F 206FC830
17621582 04422100 0483026F C98B010A 8800C704 7F206FC9 30176215 82044221
00058302 6FCA8B01 038800C7 047F206F CA301762 15820442 21001083 026FCB8B
010A8800 C7047F20 6FCB3017 62158204 4221000D 83026FCC 8B010A88 00C7047F
206FCC30 16621482 02412183 026FCD8B 01048801 D8C7047F 206FCD30 17621582
04422100 2683026F 3B8B010F 8800C704 7F106F3B 30176215 82044221 000D8302
6F4C8B01 048800C7 047F106F 4C301762 15820442 21000D83 026F4B8B 010F8800
C7047F10 6F4B3015 62138202 41218302 6FB58B01 028800C7 047F206F B5301562
13820241 2183026F B68B0103 8800C704 7F206FB6 30198002 7F106213 82024121
83026F54 8B010388 00C7047F 206F5430 19621782 04422100 2683026F 3A8B0109
8800C706 7F105F3A 4F3A3019 62178204 4221000D 83026F4A 8B010588 00C7067F
105F3A4F 4A301962 17820442 21000F83 026F4F8B 01058800 C7067F10 5F3A4F4F
A68201B0 A0058000 81010BA1 4A4F07A0 00000151 53504F08 A0000001 51535041
4F08A000 00015100 00004F08 A0000001 51000000 820382FC 80C90B81 02800081
02810482 01F0EA0F 800D0100 10000002 01000300 005500A2 82012030 22950138
82010183 01013017 30158001 80861016 16161616 16161616 16161616 16161630
22950134 82010283 01013017 30158001 80861017 17171717 17171717 17171717
17171730 229501C8 82010383 01013017 30158001 808610F8 19583910 2919DEAB
90894719 8438FA30 22950138 82010183 01023017 30158001 80861018 18181818
18181818 18181818 18181830 22950134 82010283 01023017 30158001 80861019
19191919 19191919 19191919 19191930 229501C8 82010383 01023017 30158001
808610F8 19583910 2919DEAB 90894719 8438FA30 2295013C 82010183 01423017
30158001 858610F8 19583910 2919DEAB 90894719 8438FA30 229501C8 82010283
01423017 30158001 888610F8 19583910 2919DEAB 90894719 8438FAA3 37043500
70326630 732E0607 2A864886 FC6B0160 0B06092A 864886FC 6B020202 63090607
2A864886 FC6B0364 0B06092A 864886FC 6B048000 AA07A005 80008101 0C