A0568001 02810101 821E6555 4943435F 41737069 6465725F 656D6265 64646564
5F70726F 66696C65 830A8910 39000000 1168327F A5068100 84008B00 A6080606
67810F01 02018710 A1033501 03A00906 07911356 04993800 B0820183 A0058000
81010081 0667
810F0102 01A212A1 10820278 2183023F 008B0102 C6010188 00A319A1 11820241
2183022F 058B010A 80010C88 01288304 656E6E6C A41FA111 82024121 83022FE2
8B010980 010A8801 10830A98 01930000 00118623 F7A52DA1 13820442 21002083
022F008B 01078001 208801F0 83166114 4F0CA000 00008710 02FFFFFF FF895004
5553494D A681F2A1 14820442 21002083 022F068B 01018002 01C08801 30831B80
01019000 80011EA4 0683010A 95010884 01D4A406 83010A95 01088201 0583118C
02A0E890 00800107 A4068301 0A950108 82010F83 0B800104 A4068301 0A950108
82011583 16800104 A4068301 0A950108 8401D4A4 0683010A 95010882 010A8305
80010190 0082011B 83108001 1B970080 0104A406 83010A95 01088201 10831080
01019000 80011EA4 0683010A 95010882 0110830B 80011FA4 0683010A 95010882
01158315 80010190 00800102 97008001 1CA40683 010A9501 0882010B 831B8001
01900080 0102A406 83010195 01088001 1CA40683 010A9501 08A236A0 05800081
0101A12D A02B3013 80010181 08313233 34FFFFFF FF820101 83010630 1480010A
81080000 00000000 00008301 03840200 AAA328A0 05800081 0102A11F 300D8001
01810831 32333435 36373830 0E800200 81810831 32333435 363738A1 2CA00580
00810104 A1233021 621F8202 78218302 7F4F840C A0000000 871002FF FFFFFF89
8B0102C6 02018188 00A44AA0 05800081 0105A131 A12F8001 01810101 8210D787
DAD29410 15931293 021AED64 F06B8310 F6544389 D28820F9 7D61198C 5FC0215E
8603FFFF FF830607 FFFFFFFF FF840607 FFFFFFFF FFA222A0 05800081 0106A119
A0173015 80020081 81083132 3334FFFF FFFF8202 00818301 03A1820E E5A00580
00810107 A1820EDA 30820134 80027F4F 62148204 42210030 83026F06 8B010180
0201E088 01B88110 80010190 0080011E A4068301 0A950108 02012081 16800101
A4068301 01950108 80011EA4 0683010A 95010802 011A8116 800103A4 06830101
95010880 011CA406 83010A95 01080201 1A811B80 01019000 800102A4 06830101
95010880 011CA406 83010A95 01080201 1581118C 02A0E890 00800107 A4068301
0A950108 02011F81 1B840132 97008001 03A40683 01019501 08800118 A4068301
0A950108 02011581 2C840132 A4068301 01950108 800101A4 06830101 95010880
0102A406 83018195 01088001 18A40683 010A9501 08020104 81218001 01A40683
01019501 08800102 A4068301 81950108 80011CA4 0683010A 95010802 010F8110
80011B97 00800104 A4068301 0A950108 02012081 0B80011F A4068301 0A950108
30126210 82024121 83026FC4 8B010380 01808800 30196211 82024121 83026F05
8B010480 01068801 10810465 6E6E6C30 1E621182 02412183 026F388B 01028001
09880120 81098EEB 1F9C2336 78000030 16621182 02412183 026F088B 01038001
21880140 81010730 16621182 02412183 026F098B 01038001 21880148 81010730
1B621182 02412183 026F5B8B 01038001 06880178 8106F000 00F00000 30136211
82024121 83026F5C 8B010280 01038801 80301362 11820278 2183025F 3B8B0105
C6020181 88003019 62118202 41218302 4F208B01 03800109 88010802 01088101
07304F80 027F4F62 13820442 21001083 026FB78B 01018001 50880108 811011F2
FF456D65 7267656E 6379FFFF FF178110 99F9FF55 4B20456D 65726765 6E637917
811019F1 FF555320 456D6572 67656E63 791F3014 62128204 4221001E 83026F40
8B010380 015A8800 30156213 82044221 00128302 6F4F8B01 03800136 8801B030
47621382 04462100 2E83026F 808B0106 8001E688 01A00201 27810500 00000001
02012981 05000000 00010201 29810500 00000001 02012981 05000000 00010201
29810500 00000001 30196217 82044621 00038302 6F828B01 07800103 8800A503
C1010030 42621382 04462100 2D83026F 818B0106 8001E188 01A80201 27810400
00000102 01298104 00000001 02012981 04000000 01020129 81040000 00010201
29810400 00000130 19621782 04462100 0383026F 838B0107 80010388 00A503C1
01003012 62108202 41218302 6FD28B01 08800140 88003016 62118202 41218302
6F568B01 08800101 88012881 01003012 62108202 41218302 6F508B01 03800104
88003013 62118202 41218302 6F488B01 02800102 88017030 14800062 10820278
2183027F 108B0102 C6010188 003081EF 62138204 42210030 83026F06 8B010180
02018088 00811080 01019000 80011EA4 0683010A 95010802 0120810B 80011FA4
0683010A 95010802 01258111 8C02A0E8 90008001 07A40683 010A9501 0802011F
81168001 03A40683 01019501 0880011C A4068301 0A950108 02011A81 16800101
A4068301 01950108 80011EA4 0683010A 95010802 011A8121 800103A4 06830101
95010880 0104A406 83010A95 01088001 18A40683 01819501 0802010F 81218001
01A40683 01019501 08800102 A4068301 81950108 80011CA4 0683010A 95010802
010F811B 84013297 00800103 A4068301 01950108 800118A4 0683010A 95010830
12621082 02782183 025F3A8B 0103C601 01880030 1B621982 04422100 0283024F
098B0104 800201F4 880120A5 03C10100 302E6212 82044221 00188302 4F308B01
05800118 88008118 A80AC003 4F3A02C5 034F0904 AA0ACB03 4F3D07C2 034F4A06
30368002 7F106213 82044221 00228302 6F3A8B01 06800206 A4880081 1B68656C
70646573 6BFFFFFF FFFFFFFF FFFFFFFF FF069113 21436587 304D6212 82044221
000D8302 6F4A8B01 04800182 88008101 0002010C 81010002 010C8101 0002010C
81010002 010C8101 0002010C 81010002 010C8101 0002010C 81010002 010C8101
0002010C 81010030 14621282 04422100 0F83026F 4F8B0104 80012D88 00303162
12820442 21002283 026F498B 01058001 AA880081 1B68656C 70646573 6BFFFFFF
FFFFFFFF FFFFFFFF FF069113 21436587 301B6219 82044221 00B08302 6F3C8B01
04800244 C08800A5 04C10200 FF301262 10820241 2183026F 438B0104 80010288
003081A4 62128204 4221002E 83026F42 8B010480 018A8800 812E4173 70696465
7220534D 5363FFFF FFFFFFFF E1FFFFFF FFFFFFFF FFFFFFFF FF079113 56049938
00FFFFFF FF0000A9 812E4173 70696465 7220534D 5363FFFF FFFFFFFF E1FFFFFF
FFFFFFFF FFFFFFFF FF079113 56049938 00FFFFFF FF0000A9 812E4173 70696465
7220534D 5363FFFF FFFFFFFF E1FFFFFF FFFFFFFF FFFFFFFF FF079113 56049938
00FFFFFF FF0000A9 302F6212 82044221 000D8302 6F4B8B01 07800141 88008101
0002010C 81010002 010C8101 0002010C 81010002 010C8101 00301562 13820442
21002283 026F3B8B 01078002 01548800 30146212 82044221 001E8302 6F408B01
0480015A 88003015 62138204 46210022 83026F44 8B010880 02015488 00301480
00621082 02782183 027F208B 0102C601 01880030 81ED6213 82044221 00308302
6F068B01 01800201 B0880081 10800101 90008001 1EA40683 010A9501 08020120
81168001 11A40683 01019501 0880010E A4068301 0A950108 02011A81 16800113
A4068301 01950108 80010CA4 0683010A 95010802 011A8116 800103A4 06830101
95010880 011CA406 83010A95 01080201 1A811680 0101A406 83010195 01088001
1EA40683 010A9501 0802011A 810B8001 1FA40683 010A9501 08020125 811B8001
01900080 0102A406 83010195 01088001 1CA40683 010A9501 08020115 81108001
1DA40683 010A9501 08800102 97000201 20811080 011B9700 800104A4 0683010A
95010830 1D621082 02412183 026F078B 01028001 09880081 09082940 40970360
0388301E 62108202 41218302 6F7E8B01 0380010B 88000201 04810702 F4407FFF
FF01301E 62108202 41218302 6F538B01 0480010E 88000201 07810702 F4400000
FF013018 62108202 41218302 6FAD8B01 01800104 88008104 00000002 30166210
82024121 83026F78 8B010580 01028800 81020002 30126210 82024121 83026F3E
8B010580 01018800 30156210 82024121 83026F3F 8B010580 01018800 81010230
1E621082 02412183 026F548B 01068001 16880081 0A850853 65727669 63657330
12621082 02412183 026F7B8B 01048001 0C880030 18621082 02412183 026F528B
01048001 09880002 01088101 07308201 57621182 02412183 026F608B 01048002
01408800 02010381 82013D00 00FFFFFF 0000FFFF FF0000FF FFFF0000 FFFFFF00
00FFFFFF 0000FFFF FF0000FF FFFF0000 FFFFFF00 00FFFFFF 0000FFFF FF0000FF
FFFF0000 FFFFFF00 00FFFFFF 0000FFFF FF0000FF FFFF0000 FFFFFF00 00FFFFFF
0000FFFF FF0000FF FFFF0000 FFFFFF00 00FFFFFF 0000FFFF FF0000FF FFFF0000
FFFFFF00 00FFFFFF 0000FFFF FF0000FF FFFF0000 FFFFFF00 00FFFFFF 0000FFFF
FF0000FF FFFF0000 FFFFFF00 00FFFFFF 0000FFFF FF0000FF FFFF0000 FFFFFF00
00FFFFFF 0000FFFF FF0000FF FFFF0000 FFFFFF00 00FFFFFF 0000FFFF FF0000FF
FFFF0000 FFFFFF00 00FFFFFF 0000FFFF FF0000FF FFFF0000 FFFFFF00 00FFFFFF
0000FFFF FF0000FF FFFF0000 FFFFFF00 00FFFFFF 0000FFFF FF0000FF FFFF0000
FFFFFF00 00FFFFFF 0000FFFF FF0000FF FFFF0000 FFFFFF00 00FFFFFF 0000FFFF
FF0000FF FFFF0000 30820157 62118202 41218302 6F618B01 05800201 40880081
82014032 F2108080 02F61080 8082F410 808022F8 10808082 F0108080 32F03080
8062F220 808032F8 10808042 F8208080 42F45080 8002F802 808032F4 51808002
F2508080 12F60780 8072F210 808072F4 30808072 F4208080 22F20180 8092F550
808042F6 20808072 F0108080 42F75080 8072F810 808012F4 10808002 F4408080
42F21080 8062F060 808062F8 10808022 F6108080 32F11080 8042F080 808092F3
04808042 F4418080 72F62080 8005F530 808027F4 20808027 F4408080 03021680
8064F000 808006F2 20808032 F4308080 26F02080 8054F421 808004F4 11808054
F0808080 33F40280 8005F291 808035F0 10808017 F6018080 24F72080 8024F010
808025F5 508080FF FFFF0000 FFFFFF00 00FFFFFF 0000FFFF FF0000FF FFFF0000
FFFFFF00 00FFFFFF 0000FFFF FF0000FF FFFF0000 FFFFFF00 00FFFFFF 0000FFFF
FF000030 1E621082 02412183 026F628B 01058001 0A880081 0A02F440 8080FFFF
FF000030 15621082 02412183 026F318B 01058001 01880081 01143012 62108202
41218302 6F468B01 01800111 88003012 62108202 41218302 6F458B01 04800110
88003012 62108202 41218302 6FD08B01 058001A0 88003014 62128204 42210040
83026FD1 8B010480 01C08800 30616212 82044221 000C8302 6FCE8B01 04800178
88008103 00000102 01098103 00000102 01098103 00000102 01098103 00000102
01098103 00000102 01098103 00000102 01098103 00000102 01098103 00000102
01098103 00000102 01098103 00000130 15621382 04422100 1A83026F C58B0101
80020208 88003015 62138204 42210008 83026FC6 8B010180 02014088 00304D62
12820442 21000C83 026FCF8B 01048001 78880081 01000201 0B810100 02010B81
01000201 0B810100 02010B81 01000201 0B810100 02010B81 01000201 0B810100
02010B81 01000201 0B810100 30256210 82024121 83026F38 8B010580 010F8800
02010181 0E30FFFF 0F003C03 000CFCC3 F0000F30 15621082 02412183 026FAE8B
01018001 01880081 01033012 62108202 41218302 6F748B01 04800110 88003012
62108202 41218302 6F058B01 07800106 88003018 62108202 41218302 6F208B01
04800109 88000201 08810107 3081D562 10820241 2183026F 308B0104 8001C088
008181C0 32F21002 F61082F4 1022F810 82F01032 F03062F2 2032F810 42F82042
F45002F8 0232F451 02F25012 F60772F2 1072F430 72F42022 F20192F5 5042F620
72F01042 F75072F8 1012F410 02F44042 F21062F0 6062F810 22F61032 F11042F0
8092F304 42F44172 F62005F5 3027F420 27F44003 021664F0 0006F220 32F43026
F02054F4 2104F411 54F08033 F40205F2 9135F010 17F60124 F72024F0 1025F550
25F01082 F62052F5 60130051 25F53003 022204F4 3404F403 56F51017 F41005F5
2044F001 301C6210 82024121 83026FB7 8B010180 01098800 810811F2 FF99F9FF
19F1A182 02FCA005 80008101 08A18202 F1301A80 027F4F62 14820241 2183026F
078B0102 880138C7 047F206F 07301662 14820241 2183026F 7E8B0103 880158C7
047F206F 7E301662 14820241 2183026F 738B0103 880160C7 047F206F 53301662
14820241 2183026F AD8B0101 880118C7 047F206F AD301662 14820241 2183026F
788B0102 880130C7 047F206F 78301562 13820241 2183026F 3E8B0102 8800C704
7F206F3E 30156213 82024121 83026F3F 8B010288 00C7047F 206F3F30 16621482
02412183 026F7B8B 01038801 68C7047F 206F7B30 1C80047F 4F5F3B62 14820241
2183024F 528B0103 880110C7 047F206F 52301A80 027F4F62 14820241 2183026F
608B0103 880150C7 047F206F 60301662 14820241 2183026F 618B0102 880188C7
047F206F 61301662 14820241 2183026F 628B0102 880198C7 047F206F 62301662
14820241 2183026F 318B0102 880190C7 047F206F 31301562 13820241 2183026F
468B0101 8800C704 7F206F46 30156213 82024221 83026F49 8B010288 00C7047F
106F4930 15621382 02422183 026F3C8B 01038800 C7047F10 6F3C3015 62138202
41218302 6F438B01 038800C7 047F106F 43301562 13820242 2183026F 428B0103
8800C704 7F106F42 30156213 82024121 83026F45 8B010388 00C7047F 206F4530
15621382 02412183 026FD08B 01028800 C7047F20 6FD03015 62138202 42218302
6FD18B01 038800C7 047F206F D1301562 13820242 2183026F CE8B0103 8800C704
7F206FCE 30166214 82024221 83026FC5 8B010188 01C8C704 7F206FC5 30166214
82024221 83026FC6 8B010188 01D0C704 7F206FC6 30156213 82024221 83026F4B
8B010888 00C7047F 106F4B30 15621382 02422183 026F3B8B 01088800 C7047F10
6F3B3015 62138202 42218302 6FCF8B01 038800C7 047F206F CF301980 027F1062
13820241 2183026F 548B0102 8800C704 7F206F54 301C8004 7F105F3A 62148202
42218302 4F3A8B01 04880110 C7047F10 6F3A3016 62148202 42218302 4F4A8B01
04880130 C7047F10 6F4A3016 62148202 42218302 4F3D8B01 04880138 C7047F10
6F4FA682 027CA005 80008101 09A14C4F 07A00000 01515350 4F08A000 00015153
50414F08 A0000001 51000000 820382FC 8083010F C9148102 03708102 80008102
81048202 F0F08702 F0F0EA0F 800D0100 10000002 01120300 005500A2 82016830
22950138 82010183 01023017 30158001 888610F8 19583910 2919DEAB 90894719
8438FA30 229501C8 82010383 01023017 30158001 888610F8 19583910 2919DEAB
90894719 8438FA30 22950134 82010283 01023017 30158001 888610F8 19583910
2919DEAB 90894719 8438FA30 22950138 82010183 01303017 30158001 88861045
6E637279 7074696F 6E536563 72657430 22950134 82010283 01303017 30158001
88861050 6572736F 6E616C69 73617469 6F6E4B30 229501C8 82010383 01303017
30158001 8886104B 6579456E 63727970 74696F6E 4B657930 22950138 82010183
01703017 30158001 80861045 6E637279 7074696F 6E536563 72657430 22950138
82010183 01713017 30158001 80861045 6E637279 7074696F 6E536563 72657430
22950138 82010183 01423017 30158001 858610F8 19583910 2919DEAB 90894719
8438FA30 22950134 82010283 01423017 30158001 888610F8 19583910 2919DEAB
90894719 8438FAA3 81B80481 B50070B2 8581AF84 1E010301 40010202 81820500
35010339 0205DC3C 03021964 3E052194 FBDAE585 5E5A3830 30313032 38313130
36333634 31363033 31303030 30303934 33333746 30303030 30303030 30303034
34463130 41303030 30303035 35393130 31304646 46464646 46463839 30303030
30313030 38323031 30313833 30313431 02420186 07000025 03002000 89248A09
3132372E 302E302E 318B0A30 31323334 35363738 398C0B2F 41646D69 6E416765
6E74A742 A0058000 81010A4F 09A00000 01510000 00014F08 A0000001 51000000
A0050403 B0000181 01160401 00040100 3014800C A0000000 871002FF FFFFFF89
81010082 0100A72C A0058000 8101124F 09A00000 01510000 00024F08 A0000001
51000000 A0050403 B0000081 01160401 00040100 AA07A005 80008101 0A