A0438001 02810100 821D4441 5649445F 454D545F 6553494D 5F633038 315F6330
38345F76 65723283 0A981231 08001757 010051A5 06810084 008B00A6 08060667
810F0102 01B08202 34A00580 00810100 81066781 0F010201 A212A110 82027821
83023F00 8B0102C6 01018800 A319A111 82024121 83022F05 8B010E80 010A8801
28830465 74656EA4 1FA11182 02412183 022FE28B 010F8001 0A880110 830A8921
13800071 75100015 A559A113 82044221 00268302 2F008B01 0D800198 8801F083
1E611C4F 10A00000 00871002 FFFFFFFF 89040300 FF500845 4D542055 53494D82
0108831F 611D4F0C A0000000 63504B43 532D3135 5007504B 43532331 3551043F
007F50A6 820176A1 14820442 21003083 022F068B 01018002 06008801 30831580
01019000 80011A97 00800104 A4068301 0A950108 82011B83 118C02A0 E8900080
0147A406 83010A95 01088201 1F831080 011B9700 800104A4 0683010A 95010882
01208310 80010397 0080011C A4068301 0A950108 82012083 05800101 90008201
2B83118C 02A0E890 00800147 A4068301 0A950108 82011F83 15800101 90008001
1A970080 0104A406 83010A95 01088201 1B831080 011B9700 800104A4 0683010A
95010882 01208310 80010397 0080011C A4068301 0A950108 82012083 10800101
90008001 1EA40683 010A9501 08820120 830B8001 1FA40683 010A9501 08820125
83168001 03A40683 01019501 0880011C A4068301 0A950108 82011A83 1B8401D4
A4068301 0A950108 80010190 0080015E A4068301 0A950108 82011583 268401D4
A4068301 0A950108 80010190 00800102 A4068301 01950108 80015CA4 0683010A
95010882 010A8315 80010190 00800102 97008001 1CA40683 010A9501 08A249A0
05800081 0101A140 A03E3010 80010181 08313233 34FFFFFF FF820101 30148001
0A810893 3F57845F 70692183 01038402 00AA3014 80010B81 08933F57 845F7069
21830103 840200AA A328A005 80008101 02A11F30 0D800101 81083132 33343536
3738300E 80020081 81083132 33343536 3738A130 A0058000 810103A1 27302562
23820278 2183027F F08410A0 00000087 1002FFFF FFFF8904 0300FF8B 0106C602
01818800 A44AA005 80008101 04A131A1 2F800101 81010182 10AAAAAA AAAAAAAA
AAAAAAAA AAAAAAAA AA831053 1B9378F3 A784EEA0 652464F8 8F913C86 03FFFFFF
83060020 00000000 840607FF FFFFFFFF A222A005 80008101 05A119A0 17301580
02008181 08313233 34FFFFFF FF820200 81830103 A18212D0 A0058000 810106A1
8212C530 82024180 027FF062 14820442 21003083 026F068B 01018002 04B08801
B8810A80 01019000 80011E97 00020126 81168001 01A40683 01019501 0880015E
A4068301 0A950108 02011A81 16800103 A4068301 01950108 80015CA4 0683010A
95010802 011A8121 8401D4A4 0683010A 95010880 0101A406 83010195 01088001
5EA40683 010A9501 0802010F 81268401 32A40683 010A9501 088401D4 A4068301
0A950108 80010190 0080015E A4068301 0A950108 02010A81 1B8401D4 A4068301
0A950108 80010190 0080015E A4068301 0A950108 02011581 268401D4 A4068301
0A950108 80010190 00800102 A4068301 01950108 80015CA4 0683010A 95010802
010A8111 8C02A0E8 90008001 07A40683 010A9501 0802011F 81108001 01900080
015EA406 83010A95 01080201 20812184 01D4A406 83010A95 01088001 03A40683
01019501 0880015C A4068301 0A950108 02010F81 1B840132 97008001 03A40683
01019501 08800158 A4068301 0A950108 02011581 21840132 A4068301 01950108
800103A4 06830101 95010880 0158A406 83010A95 01080201 0F812C84 0132A406
83010195 01088001 01A40683 01019501 08800102 A4068301 81950108 800158A4
0683010A 95010802 01048121 800101A4 06830101 95010880 0102A406 83018195
01088001 5CA40683 010A9501 0802010F 812C8401 D4A40683 010A9501 08800101
A4068301 01950108 800102A4 06830181 95010880 015CA406 83010A95 01080201
04811080 011B9700 800104A4 0683010A 95010802 01208110 80011DA4 0683010A
95010880 01029700 30126210 82024121 83026FDC 8B010280 01018800 301B6211
82024121 83026FE3 8B010380 01128801 F002010F 81030000 01301562 13820442
21003683 026FE48B 01038001 368801C0 30136211 82024121 83026FD9 8B010480
013C8801 E8301262 10820241 2183026F DB8B0102 80010188 00301262 10820241
2183026F C48B0103 80019288 00302162 11820241 2183026F 388B0104 80010C88
0120810C 9EFF978D F3CE0400 00000000 30166211 82024121 83026F08 8B010380
01218801 40810107 30166211 82024121 83026F09 8B010380 01218801 48810107
301B6211 82024121 83026F5B 8B010380 01068801 788106F0 0000F000 00301362
11820241 2183026F 5C8B0102 80010388 01803013 62118202 78218302 5F3B8B01
08C60201 81880030 2980027F F0621482 04422100 1C83026F B78B0106 80020118
88010881 0D11F2FF 507B7B73 7465616D 65743012 62108202 41218302 6FC38B01
03800104 88003014 62128204 42210026 83026F40 8B010A80 01728800 30166214
82044621 00348302 6F808B01 0B800202 088801A0 30196217 82044621 00038302
6F828B01 0C800103 8800A503 C1010030 16621482 04462100 3383026F 818B010B
800201FE 8801A830 19621782 04462100 0383026F 838B010C 80010388 00A503C1
0100302F 62128204 4221000D 83026F4E 8B010A80 01418800 81010002 010C8101
0002010C 81010002 010C8101 0002010C 81010030 16621182 02412183 026F568B
010F8001 01880128 81010030 15621382 04422100 0F83026F 4F8B010A 80014B88
01B03014 80006210 82027821 83027F10 8B0106C6 01018800 30820171 62138204
42210030 83026F06 8B010180 02030088 00811580 01019000 80011A97 00800104
A4068301 0A950108 02011B81 268401D4 A4068301 0A950108 80010190 0080011E
A4068301 01950108 800140A4 0683010A 95010802 010A8116 8401D4A4 0683010A
95010880 015FA406 83010A95 01080201 1A81118C 02A0E890 00800147 A4068301
0A950108 02011F81 218401D4 A4068301 0A950108 800103A4 06830101 95010880
015CA406 83010A95 01080201 0F812184 01D4A406 83010A95 01088001 01A40683
01019501 0880015E A4068301 0A950108 02010F81 16800103 A4068301 01950108
80015CA4 0683010A 95010802 011A812C 8401D4A4 0683010A 95010880 0101A406
83010195 01088001 02A40683 01819501 0880015C A4068301 0A950108 02010481
2C8401D4 A4068301 0A950108 800103A4 06830101 95010880 0144A406 83010A95
01088001 18A40683 01819501 08020104 811B8401 32970080 0103A406 83010195
01088001 58A40683 010A9501 08301462 12820442 21002683 026FE08B 01028001
BE880030 15621382 04422100 6483026F E18B0102 800201F4 88003012 62108202
78218302 5F3A8B01 04C60101 88003016 62148204 42210026 83024F3A 8B010580
02251C88 01D03016 62148204 42210026 83024F3B 8B010580 02251C88 01A83016
62148204 42210011 83024F11 8B010580 02035288 01883016 62148204 42210032
83024F50 8B010580 0209C488 01803016 62148204 42210002 83024F25 8B010580
0201F488 01283016 62148204 42210002 83024F01 8B010580 0201F488 0118301B
62198204 42210002 83024F09 8B010580 0201F488 0148A503 C1010030 1B621982
04422100 0283024F 0A8B0105 800201F4 8801B0A5 03C10100 30818B62 12820442
21004C83 024F308B 01068001 98880081 38A814C0 034F3A1A C1034F25 05C6034F
2606C503 4F0909A9 0AC4034F 1111CA03 4F5010AA 14C8034F 4C0CCB03 4F4F0FC2
034F4A0A C7034F4B 0B020114 8138A814 C0034F3B 15C1034F 0103C603 4F2717C5
034F0A16 A90AC403 4F1111CA 034F5010 AA14C803 4F4C0CCB 034F4F0F C2034F4A
0AC7034F 4B0B3081 8B621482 04422100 0D83024F 4A8B0105 80020104 88015081
01000201 0C810100 02010C81 01000201 0C810100 02010C81 01000201 0C810100
02010C81 01000201 0C810100 02010C81 01000201 0C810100 02010C81 01000201
0C810100 02010C81 01000201 0C810100 02010C81 01000201 0C810100 02010C81
01000201 0C810100 02010C81 01000201 0C810100 301B6219 82044221 00028302
4F268B01 05800201 F4880130 A503C101 00301B62 19820442 21000283 024F278B
01058002 01F48801 B8A503C1 01003015 62138204 42210018 83024F4C 8B010580
01788801 60301562 13820442 21001883 024F4B8B 01058001 78880158 30166214
82044221 000F8302 4F4F8B01 05800201 2C880178 30198002 7F106213 82044221
002C8302 6F498B01 06800203 70880030 1B621982 04422100 B083026F 3C8B0105
80020DC0 8800A504 C10200FF 30126210 82024121 83026F43 8B010780 01028800
301B6219 82044221 001E8302 6F478B01 05800201 2C8800A5 04C10200 FF303A62
12820442 21002C83 026F428B 01058001 58880081 24454D54 FFFFFFFF FFFFFFFF
FFFFFFFF FFFDFFFF FFFFFFFF FFFFFFFF FFFF0691 73529009 00301562 13820442
21002683 026F3B8B 01088002 02F88800 301D6212 82044221 000D8302 6F4C8B01
0680011A 88008101 0002010C 81010030 23621282 04422100 0D83026F 4B8B0108
80012788 00810100 02010C81 01000201 0C810100 30146212 82044221 00268302
6F408B01 05800172 88003015 62138204 46210026 83026F44 8B010A80 02017C88
00301480 00621082 02782183 027F208B 0106C601 01880030 82021662 13820442
21003083 026F068B 01018002 03308800 81158001 01900080 011A9700 800104A4
0683010A 95010802 011B811B 8401D4A4 0683010A 95010880 01019000 80015EA4
0683010A 95010802 01158116 800111A4 06830101 95010880 014EA406 83010A95
01080201 1A811680 0113A406 83010195 01088001 4CA40683 010A9501 0802011A
81168001 03A40683 01019501 0880015C A4068301 0A950108 02011A81 16800101
A4068301 01950108 80015EA4 0683010A 95010802 011A8121 8401D4A4 0683010A
95010880 0101A406 83010195 01088001 5EA40683 010A9501 0802010F 81168401
D4A40683 010A9501 0880015F A4068301 0A950108 02011A81 10800101 90008001
5EA40683 010A9501 08020120 81218401 D4A40683 010A9501 08800103 A4068301
01950108 80015CA4 0683010A 95010802 010F812C 840132A4 06830101 95010880
0101A406 83010195 01088001 02A40683 01819501 08800158 A4068301 0A950108
02010481 21800101 A4068301 01950108 800102A4 06830181 95010880 015CA406
83010A95 01080201 0F812684 01D4A406 83010A95 01088001 01900080 0102A406
83010195 01088001 5CA40683 010A9501 0802010A 81108001 1DA40683 010A9501
08800102 97000201 20811680 0101A406 83010195 01088001 1EA40683 010A9501
0802011A 81168001 03A40683 01019501 0880011C A4068301 0A950108 02011A81
1080011B 97008001 04A40683 010A9501 08301562 13820442 21002C83 026FC58B
01028002 01B88800 30146212 82044221 00088302 6FC68B01 028001A0 8800301D
62108202 41218302 6F078B01 03800109 88008109 08498104 10002000 10301862
10820241 2183026F 7E8B0104 80010B88 0002010A 81010130 1B621082 02412183
026F538B 01058001 0E880002 010A8104 0000FF01 30186210 82024121 83026FAD
8B010280 01048800 81040100 01023016 62108202 41218302 6F788B01 06800102
88008102 00023012 62108202 41218302 6F3E8B01 0780010A 88003012 62108202
41218302 6F3F8B01 0780010A 88003016 62108202 41218302 6F548B01 08800120
88008102 851E3012 62108202 41218302 6F7B8B01 0580010C 88003018 62108202
41218302 6F208B01 05800109 88000201 08810107 30186210 82024121 83026F52
8B010580 01098800 02010881 01073082 01A76211 82024121 83026F61 8B010780
02019088 00818201 90000000 00000000 00000000 00000000 00000000 00000000
00000000 00000000 00000000 00000000 00000000 00000000 00000000 00000000
00000000 00000000 00000000 00000000 00000000 00000000 00000000 00000000
00000000 00000000 00000000 00000000 00000000 00000000 00000000 00000000
00000000 00000000 00000000 00000000 00000000 00000000 00000000 00000000
00000000 00000000 00000000 00000000 00000000 00000000 00000000 00000000
00000000 00000000 00000000 00000000 00000000 00000000 00000000 00000000
00000000 00000000 00000000 00000000 00000000 00000000 00000000 00000000
00000000 00000000 00000000 00000000 00000000 00000000 00000000 00000000
00000000 00000000 00000000 00000000 00000000 00000000 00000000 00000000
00000000 00000000 00000000 00000000 00000000 00000000 00000000 00000000
00000000 00000000 00000000 00000000 00000000 00000000 00000000 00000000
00000000 00000000 00000000 00000000 00000000 00000000 00302362 10820241
2183026F 628B0107 80010F88 00810F42 F8108080 FFFFFF00 00FFFFFF 00003015
62108202 41218302 6F318B01 06800101 88008101 05301262 10820241 2183026F
468B0109 80011188 00301262 10820241 2183026F 458B010A 80011488 00301962
17820446 21000383 026F398B 010B8001 248800A5 03C10100 30176210 82024121
83026F37 8B010C80 01038800 81030000 00301962 10820241 2183026F 418B010C
80010588 00020103 81020000 30126210 82024121 83026F50 8B010A80 010C8800
30126210 82024121 83026F32 8B010780 011E8800 30126210 82024121 83026F63
8B010580 01108800 30146212 82044221 00268302 6FC78B01 0A800198 88003017
62128204 4221000D 83026FC8 8B010A80 010D8800 81010030 1C621782 04422100
0483026F C98B010A 80010888 00A503C1 01008101 01301962 17820442 21000583
026FCA8B 01058001 0A8800A5 03C10100 301F6212 82044221 00108302 6FCB8B01
0A800120 88008102 01000201 0E810202 00301762 12820442 21000D83 026FCC8B
010A8001 0D880081 01003018 62108202 41218302 6FCD8B01 07800140 88008104
A33E803C 30156210 82024121 83026F64 8B010680 01018800 81010030 16621082
02412183 026FB58B 01068001 02880081 02000030 15621082 02412183 026FB68B
01058001 01880081 01003015 62108202 41218302 6FAE8B01 09800101 88008101
03301262 10820241 2183026F 748B0105 80011088 00301262 10820241 2183026F
058B010D 80010588 00302562 10820241 2183026F 388B0107 80010F88 00020101
810E33FF FF0F003C 03300CCC F3003C00 30820105 62108202 41218302 6F308B01
0A8001F0 88008181 F0000000 00000000 00000000 00000000 00000000 00000000
00000000 00000000 00000000 00000000 00000000 00000000 00000000 00000000
00000000 00000000 00000000 00000000 00000000 00000000 00000000 00000000
00000000 00000000 00000000 00000000 00000000 00000000 00000000 00000000
00000000 00000000 00000000 00000000 00000000 00000000 00000000 00000000
00000000 00000000 00000000 00000000 00000000 00000000 00000000 00000000
00000000 00000000 00000000 00000000 00000000 00000000 00000000 00000000
00000000 00000000 00000000 00000000 00000000 00000000 00301262 10820241
2183026F B78B0102 80010F88 00301262 10820241 2183026F 148B010F 80011088
00301762 10820241 2183026F 168B010F 80010388 00810302 00003015 62108202
41218302 6F138B01 10800101 88008101 55301562 10820241 2183026F 118B0110
80010188 00810155 A12CA005 80008101 07A12330 21621F82 02782183 027F5084
0CA00000 0063504B 43532D31 358B0102 C6020181 8800A182 0575A005 80008101
08A18205 6A307680 027F5062 13820442 21003083 026F068B 01018002 01808800
81108001 01900080 011EA406 83010A95 01080201 20811B84 01D4A406 83010A95
01088001 01900080 015EA406 83010A95 01080201 15812684 01D4A406 83010A95
01088001 01900080 0102A406 83010195 01088001 5CA40683 010A9501 08304C62
10820241 21830250 328B0102 80016A88 00813830 36020101 040A8921 13800071
75100017 0C154F62 65727468 75722054 6563686E 6F6C6F67 69657380 0A434552
54535F50 524F5603 02078030 818A6211 82024121 83024404 8B010280 0201F488
00817530 7330180C 12536F6E 65726120 4F706572 61746F72 20434103 02060030
46041453 6A2626F9 81448AD3 4015538F 14DF83BB 8A9EBD01 01FF3019 02010504
14536A26 26F98144 8AD34015 538F14DF 83BB8A9E BDA11030 0E060C2B 06010401
2A026E02 020201A1 0F300D30 0B040244 22020100 80020333 3082034A 62118202
41218302 44228B01 02800203 E8880081 82033330 82032F30 820217A0 03020102
02027C7D 300D0609 2A864886 F70D0101 05050030 40310B30 09060355 04061302
46493114 30120603 55040A13 0B54656C 6961536F 6E657261 311B3019 06035504
03131253 6F6E6572 61204F70 65726174 6F722043 41301E17 0D303431 30303831
30313430 315A170D 32343130 30383130 31343031 5A304031 0B300906 03550406
13024649 31143012 06035504 0A130B54 656C6961 536F6E65 7261311B 30190603
55040313 12536F6E 65726120 4F706572 61746F72 20434130 82012230 0D06092A
864886F7 0D010101 05000382 010F0030 82010A02 82010100 98326BCF 567B6C97
CF10C571 37B512F5 DFA6BCDA F9924764 BC6122AE 1826691D 79DE78D9 21AC99BB
8F162DB3 71A5ACB4 BFA89EAE 21797759 76518788 8BA7EE20 04858C22 889B986D
E1B8C83F 16B68CAA 1FED9001 17E019A5 17910B58 30BF49FE CB68EF1B 2BF4C970
6D480D1B B5281881 610CCEA8 D79CB357 BBAD3DA9 1BC30D76 E7029A27 B1E8A67B
71996C25 48D08147 BCF40EB5 BFE12465 9D175827 5F9B6146 F68FE484 73DF03D4
DECA8984 D4C4D015 4B4BCBBD E9FDEBD5 0898B01D F12723C0 5B9B57A2 F53821CC
72990FAC D2121A51 0BC4ECD1 AC8004B6 A331B3A1 4ACD2180 07E2C276 C9F2AC00
5C96DB08 225FE9AB E07E4ACE B109B006 17D0B297 7027F80B 02030100 01A33330
31300F06 03551D13 0101FF04 05300301 01FF3011 0603551D 0E040A04 084F14DF
83BB8A9E BD300B06 03551D0F 04040302 0106300D 06092A86 4886F70D 01010505
00038201 01001959 5F88BA8A 5A731A9C 8E69F651 D7226F78 76FC02E4 309E06EF
00CB5041 92E0154E E7138870 540AC9B3 834F1E06 4955520A DEA7B83E 8B7F7A0D
649C102F F1D27E80 A1BA08B3 BE84A40C 5F2547B3 ACF67FE1 BF06206C 29A37E8C
2564B5E6 8F9D42A0 68EBD030 8AF65895 00252EDC AD5B6C21 CCDDE351 86926A3C
F2B39EDC C36ABA14 B8CC2CF4 2513CB73 26240F4A E6484466 21477AA0 378D2A9D
67740EF6 36848AFC 7EC04F75 BD762931 35CA7E7E B9D343D8 70F5FF8D 93929A41
6E9129EB 5F7F2E7A 74B0A380 FFC40A52 7C981241 41662052 AD58B5ED 6653388A
9BFFF479 A7ABD3DA C9C64E77 DD6FA233 9D90AEB2 E21F6148 D4E1EB0C 7D59A30D
E546F0C5 7FB93013 62118202 41218302 44248B01 02800205 DC880030 24621082
02412183 0250318B 01028001 38880081 10A70630 04040244 07A50630 04040244
04301262 10820241 21830244 078B0102 8001C888 00301362 11820241 21830244
308B0102 800203E8 88003013 62118202 41218302 44318B01 03800203 E8880030
12621082 02412183 0242008B 01028001 64880030 12621082 02412183 0243008B
01028001 64880030 12621082 02412183 0243108B 01028001 64880030 12621082
02412183 0243118B 01028001 648800A1 820453A0 05800081 0109A182 0448301A
80027FF0 62148202 42218302 6FC58B01 058801C8 C7047F20 6FC53016 62148202
42218302 6FC68B01 058801D0 C7047F20 6FC63016 62148202 41218302 6F078B01
02880138 C7047F20 6F073016 62148202 41218302 6F7E8B01 03880158 C7047F20
6F7E3016 62148202 41218302 6F738B01 03880160 C7047F20 6F533016 62148202
41218302 6FAD8B01 06880118 C7047F20 6FAD3016 62148202 41218302 6F788B01
02880130 C7047F20 6F783014 62128202 41218302 6F058B01 07880110 C7022F05
30156213 82024121 83026F3E 8B010488 00C7047F 206F3E30 15621382 02412183
026F3F8B 01048800 C7047F20 6F3F3016 62148202 41218302 6F7B8B01 03880168
C7047F20 6F7B301C 80047FF0 5F3B6214 82024121 83024F20 8B010388 0108C704
7F206F20 30166214 82024121 83024F52 8B010388 0110C704 7F206F52 30156213
82024121 83024F63 8B010388 00C7047F 206F6330 15621382 02412183 024F648B
01028800 C7047F20 6F64301A 80027FF0 62148202 41218302 6F618B01 04880188
C7047F20 6F613016 62148202 41218302 6F628B01 04880198 C7047F20 6F623016
62148202 41218302 6F318B01 02880190 C7047F20 6F313015 62138202 41218302
6F468B01 098800C7 047F206F 46301562 13820242 2183026F 498B0104 8800C704
7F106F49 30156213 82024221 83026F3C 8B010A88 00C7047F 106F3C30 15621382
02412183 026F438B 01038800 C7047F10 6F433015 62138202 42218302 6F478B01
0A8800C7 047F106F 47301562 13820242 2183026F 428B010A 8800C704 7F106F42
30156213 82024121 83026F45 8B010A88 00C7047F 206F4530 16621482 02462183
026F398B 010D8801 E0C7047F 206F3930 15621382 02412183 026F378B 010E8800
C7047F20 6F373015 62138202 41218302 6F418B01 0E8800C7 047F206F 41301562
13820241 2183026F 508B010A 8800C704 7F206F50 30156213 82024121 83026F32
8B010488 00C7047F 206F3230 15621382 02422183 026FC78B 010A8800 C7047F20
6FC73015 62138202 42218302 6FC88B01 0A8800C7 047F206F C8301562 13820242
2183026F C98B010A 8800C704 7F206FC9 30156213 82024221 83026FCA 8B010388
00C7047F 206FCA30 15621382 02422183 026FCB8B 010A8800 C7047F20 6FCB3015
62138202 42218302 6FCC8B01 0A8800C7 047F206F CC301662 14820241 2183026F
CD8B0104 8801D8C7 047F206F CD301562 13820242 2183026F 3B8B010F 8800C704
7F106F3B 30156213 82024221 83026F4C 8B010488 00C7047F 106F4C30 15621382
02422183 026F4B8B 010F8800 C7047F10 6F4B3015 62138202 41218302 6FB58B01
028800C7 047F206F B5301562 13820241 2183026F B68B0103 8800C704 7F206FB6
30198002 7F106213 82024121 83026F54 8B010388 00C7047F 206F5430 17621582
02422183 026F3A8B 01098800 C7067F10 5F3A4F3A 30176215 82024221 83026F4A
8B010588 00C7067F 105F3A4F 4A301762 15820242 2183026F 4F8B0105 8800C706
7F105F3A 4F4FA682 0225A005 80008101 0AA1534F 07A00000 01515350 4F08A000
00015153 50414F08 A0000001 51000000 4F08A000 00015100 00008203 82FC8083
010FC90F 81028000 81028104 81020370 8201F0EA 11800F01 00000100 00000201
1203B201 0000A282 018C3022 95013882 01018301 01301730 15800180 8610F819
58391029 19DEAB90 89471984 38FA3022 9501C882 01038301 01301730 15800180
8610F819 58391029 19DEAB90 89471984 38FA3022 95013482 01028301 01301730
15800180 8610F819 58391029 19DEAB90 89471984 38FA3022 95013882 01018301
02301730 15800180 8610F819 58391029 19DEAB90 89471984 38FA3022 9501C882
01038301 02301730 15800180 8610F819 58391029 19DEAB90 89471984 38FA3022
95013482 01028301 02301730 15800180 8610F819 58391029 19DEAB90 89471984
38FA3022 95013C82 01018301 42301730 15800185 8610F819 58391029 19DEAB90
89471984 38FA3022 9501C882 01028301 42301730 15800188 8610F819 58391029
19DEAB90 89471984 38FA3022 95013882 01018301 30301730 15800188 8610456E
63727970 74696F6E 53656372 65743022 95013482 01028301 30301730 15800188
86105065 72736F6E 616C6973 6174696F 6E4B3022 9501C882 01038301 30301730
15800188 86104B65 79456E63 72797074 696F6E4B 6579A337 04350070 32663073
2E06072A 864886FC 6B01600B 06092A86 4886FC6B 02020263 0906072A 864886FC
6B03640B 06092A86 4886FC6B 048000A7 4CA00580 0081010C 4F09A000 00055910
1000014F 08A00000 01510000 00A00504 03B00001 81011604 01000401 00301E80
10A00000 00871002 FFFFFFFF 89040300 FF810402 00010082 04020001 00A72CA0
05800081 010D4F09 A0000005 59101000 024F08A0 00000151 000000A0 050403B0
00008101 12040100 040100AA 07A00580 0081010F