A06E8001 02810100 82204D45 2056312E 3820666F 72207465 73747320 5465736C
6120646F 776E6C6F 6164830A 89883011 65983009 3954A506 81008400 8B00A608
06066781 0F010201 8726A124 35010347 1108696E 7465726E 65740367 6D610369
6F740D05 046E6F6E 650D0504 6E6F6E65 B0820642 A0058000 81010081 0667810F
010201A2 12A11082 02782183 023F008B 0102C601 018800A3 1CA11682 02412183
022F058B 010A8001 0A880128 A503C001 40830266 72A424A1 16820241 2183022F
E28B0109 80010A88 0110A503 C0014083 0A988803 11568903 909345A5 36A11882
04422100 2683022F 008B0108 80014C88 01F0A503 C0014083 1A61184F 10A00000
00871002 F883FF01 89000001 00500455 53494DA6 82059FA1 19820442 21005583
022F068B 01018002 0AA08801 30A503C0 0140832F 800140A0 10A40683 010C9501
08A40683 010B9501 08800101 A00A9000 A4068301 0B950108 80011AA4 0683010A
95010882 0126831B 800107A0 10A40683 010C9501 08A40683 010B9501 088C02A0
E8900082 013A8310 80011B97 00800104 A4068301 0A950108 82014583 1080011B
97008001 04A40683 010A9501 08820145 83058001 01900082 0150831B 800107A0
10A40683 010C9501 08A40683 010B9501 088C02A0 E8900082 013A832F 800140A0
10A40683 010C9501 08A40683 010B9501 08800101 A00A9000 A4068301 0B950108
80011AA4 0683010A 95010882 01268344 800140A0 10A40683 010C9501 08A40683
010B9501 08800101 A00A9000 A4068301 0B950108 800102A0 10A40683 010A9501
08A40683 010B9501 08800118 A4068301 0A950108 82011183 1F800142 97008001
01A00A90 00A40683 010B9501 08800118 A4068301 0A950108 82013683 4B800140
A010A406 83010C95 0108A406 83010B95 01088001 01A00A90 00A40683 010B9501
08800102 A022A406 83010195 0108A406 83010B95 0108A010 A4068301 0A950108
A4068301 0B950108 82010A83 3F800142 A010A406 83010C95 0108A406 83010B95
01088001 19A010A4 0683010A 950108A4 0683010B 95010880 0101A010 A4068301
0A950108 A4068301 0B950108 82011683 2F800140 97008001 19A010A4 0683010A
950108A4 0683010B 95010880 0102A010 A4068301 0C950108 A4068301 0B950108
82012683 1480015A 97008001 01A00A90 00A40683 010B9501 08820141 831F8001
58970080 0101A00A 9000A406 83010B95 01088001 02A40683 010A9501 08820136
834E8001 40A010A4 0683010C 950108A4 0683010B 95010880 0101A00A 9000A406
83010B95 01088001 02A010A4 06830101 950108A4 0683010B 95010880 0118A010
A4068301 0A950108 A4068301 0B950108 82010783 40800140 A010A406 83010C95
0108A406 83010B95 01088001 01A010A4 06830101 950108A4 0683010B 95010880
010AA406 83010A95 01088001 10A40683 01019501 08820115 832B8001 40A010A4
0683010C 950108A4 0683010B 95010880 0103A406 83010195 01088001 18A40683
010A9501 0882012A 833F8001 40A010A4 0683010C 950108A4 0683010B 95010880
0101A010 A4068301 01950108 A4068301 0B950108 80011AA0 10A40683 010A9501
08A40683 010B9501 08820116 833F8001 40A010A4 0683010C 950108A4 0683010B
95010880 0103A010 A4068301 01950108 A4068301 0B950108 800118A0 10A40683
010A9501 08A40683 010B9501 08820116 83408001 40A010A4 0683010C 950108A4
0683010B 95010880 0103A010 A4068301 01950108 A4068301 0B950108 800108A4
0683010A 95010880 0110A406 83010195 01088201 15833980 0140A010 A4068301
0C950108 A4068301 0B950108 800101A0 0A9000A4 0683010B 95010880 011AA010
A4068301 0A950108 A4068301 0B950108 82011C83 2F800140 A010A406 83010C95
0108A406 83010B95 01088001 01A00A90 00A40683 010B9501 0880011A A4068301
0A950108 82012683 35800140 A010A406 83010C95 0108A406 83010B95 01088001
03A010A4 06830101 950108A4 0683010B 95010880 0118A406 83010A95 01088201
20832A80 0140A010 A4068301 0C950108 A4068301 0B950108 80011BA0 10A40683
010A9501 08A40683 010B9501 0882012B 831A8001 40970080 011BA010 A4068301
0A950108 A4068301 0B950108 82013B83 21800111 A4068301 01950108 80010AA4
0683010A 95010880 0140A406 83010C95 01088201 34831680 0119A406 83010A95
01088001 42A40683 010C9501 0882013F 83058001 7F970082 01508310 80011B97
00800104 A4068301 0A950108 82014583 0B80011F A4068301 0A950108 82014A83
15840132 97008001 01900080 011AA406 83010A95 01088201 40831B80 0107A406
83010A95 01088001 18970080 0140A406 83010C95 0108A259 A0058000 810101A1
50A04E30 13800101 81083030 3030FFFF FFFF8201 01830106 30108001 0A810893
3F57845F 70692183 01033013 80010B81 08933F57 845F7069 21830103 84010030
1080010C 8108933F 57845F70 69218301 03A328A0 05800081 0102A11F 300D8001
01810837 33303934 38323230 0E800200 81810834 36373738 353034A1 30A00580
00810104 A1273025 62238202 78218302 7FFF8410 A0000000 871002F8 83FF0189
00000100 8B0106C6 02018188 00A445A0 05800081 0105A12C A12A8001 01810101
82103A1A 71592DB0 72D7DC9C DF7BD8AB 6B0A8310 746A6224 202980F2 003691F2
6A4C86B8 83060000 20000000 84060000 00200000 A222A005 80008101 06A119A0
17301580 02008181 08303030 30303030 30820200 81830103 A1820F51 A0058000
810107A1 820F4630 82036C80 027FFF62 19820442 21005483 026F068B 01018002
05408801 B8A503C0 0140812F 800140A0 10A40683 010C9501 08A40683 010B9501
08800101 A00A9000 A4068301 0A950108 80011AA4 0683010A 95010802 01258135
800140A0 10A40683 010C9501 08A40683 010B9501 08800101 A010A406 83010195
0108A406 83010B95 01088001 1AA40683 010A9501 0802011F 813F8001 40A010A4
0683010C 950108A4 0683010B 95010880 0101A010 A4068301 01950108 A4068301
0B950108 80011AA0 10A40683 010A9501 08A40683 010B9501 08020115 81398001
40A010A4 0683010C 950108A4 0683010B 95010880 0101A00A 9000A406 83010B95
01088001 1AA010A4 0683010A 950108A4 0683010B 95010802 011B813F 800140A0
10A40683 010C9501 08A40683 010B9501 08800103 A010A406 83010195 0108A406
83010B95 01088001 18A010A4 0683010A 950108A4 0683010B 95010802 01158139
800140A0 10A40683 010C9501 08A40683 010B9501 08800101 A00A9000 A4068301
0A950108 80011AA0 10A40683 010A9501 08A40683 010B9501 0802011B 81548001
40A010A4 0683010C 950108A4 0683010B 95010880 0101A010 A4068301 01950108
A4068301 0B950108 800102A0 10A40683 01819501 08A40683 010B9501 08800118
A010A406 83010A95 0108A406 83010B95 0108814E 800140A0 10A40683 010C9501
08A40683 010B9501 08800101 A00A9000 A4068301 0B950108 800102A0 10A40683
01019501 08A40683 010B9501 08800118 A010A406 83010A95 0108A406 83010B95
01080201 06812B80 0140A010 A4068301 0C950108 A4068301 0B950108 800103A4
06830101 95010880 0118A406 83010A95 01080201 29813580 0140A010 A4068301
0C950108 A4068301 0B950108 800103A0 10A40683 01019501 08A40683 010B9501
08800118 A4068301 0A950108 02011F81 2B800140 A010A406 83010C95 0108A406
83010B95 01088001 01A40683 01019501 0880011A A4068301 0A950108 02012981
1080011B 97008001 04A40683 010A9501 08020144 811B8001 18970080 0143A406
83010C95 01088001 04A40683 010A9501 08020139 811B8001 07A40683 010A9501
08800118 97008001 40A40683 010C9501 08020139 81218001 01A40683 01019501
0880011A A4068301 0A950108 800140A4 0683010C 95010802 0133811B 8C02A0E8
90008001 07A010A4 0683010C 950108A4 0683010B 95010830 15621082 02412183
026FDC8B 01038001 01880081 01013020 62108202 41218302 6FE88B01 0380010C
8800810C 84010182 01018401 00850101 30176215 82024121 83026FC4 8B010980
012E8800 A503C001 40301C62 16820241 2183026F 058B0108 80010A88 0110A503
C0014081 02667230 26621682 02412183 026F388B 01038001 0C880120 A503C001
40810C0A 0A148CE3 32040040 03000130 1B621682 02412183 026F088B 01098001
21880140 A503C001 40810107 301B6216 82024121 83026F09 8B010980 01218801
48A503C0 01408101 07302062 16820241 2183026F 5B8B0105 80010688 0178A503
C0014081 06F00000 F0000030 18621682 02412183 026F5C8B 01038001 03880180
A503C001 40301862 16820241 2183026F 7B8B0105 80011288 0168A503 C0014030
13621182 02782183 025F3B8B 0110C602 01818800 301A6215 82024121 83024F64
8B010B80 01018800 A503C001 40810100 30176215 82024121 83024F63 8B010980
01108800 A503C001 40302680 027FFF62 15820241 2183026F 468B0104 80011188
00A503C0 01408109 024F7261 6E676520 46304662 18820442 21001483 026FB78B
01048001 C8880108 A503C001 40811411 F2FF4E75 6D05726F 20642775 7267656E
63651F81 1419F1FF 4E756D05 726F2064 27757267 656E6365 1F301D62 16820241
2183026F 568B0107 80010388 0128A503 C0014081 03000000 301A6215 82024121
83026F57 8B010780 01C88800 A503C001 40810100 301A6218 82044221 00288302
6FC58B01 068001C8 8801C8A5 03C00140 301A6218 82044221 00088302 6FC68B01
068001A0 8801D0A5 03C00140 301E6216 82024121 83026FCD 8B010380 011F8801
D8A503C0 01408104 A3028000 3081F762 16820241 2183026F 618B0103 8001DC88
0188A503 C0014081 81DC05F5 20808032 F2308080 32F25080 8002F601 808032F0
10808012 F9108080 32F80280 8042F810 808062F2 10808072 F4108080 72F21080
8022F210 808022F8 10808042 F6108080 72F09980 8052F910 808002F4 61808042
F2208080 62F03080 8062F860 808022F6 01808022 F0308080 32F11080 8022F810
808012F4 30808012 F4108080 42F01080 8032F403 808032F4 33808013 00148080
FFFFFF00 00FFFFFF 0000FFFF FF0000FF FFFF0000 FFFFFF00 00FFFFFF 0000FFFF
FF0000FF FFFF0000 FFFFFF00 00FFFFFF 0000FFFF FF0000FF FFFF0000 FFFFFF00
00FFFFFF 00003017 62158202 41218302 6FC38B01 09800104 8800A503 C0014030
1E621182 02412183 026FE38B 01058001 128801F0 02010C81 0609F113 00000030
15621382 04422100 3683026F E48B0105 80013688 01C03018 62118202 41218302
6FD98B01 03800103 8801E881 0302F810 30156210 82024121 83026FDB 8B010380
01018800 81010130 15800062 11820278 2183027F 108B0106 C6020181 88003082
025E6218 82044221 00528302 6F068B01 01800204 7C8800A5 03C00140 812F8001
01A00A90 00A40683 010B9501 08800140 A010A406 83010C95 0108A406 83010B95
01088001 1AA40683 010A9501 08020123 813F8001 40A010A4 0683010C 950108A4
0683010B 95010880 0103A010 A4068301 01950108 A4068301 0B950108 800118A0
10A40683 01819501 08A40683 010B9501 08020113 812A8001 40A010A4 0683010C
950108A4 0683010B 95010880 011BA010 A4068301 0A950108 A4068301 0B950108
02012881 3F800140 A010A406 83010C95 0108A406 83010B95 01088001 19A010A4
06830101 950108A4 0683010B 95010880 0102A010 A4068301 81950108 A4068301
0B950108 02011381 2A800140 A010A406 83010C95 0108A406 83010B95 01088001
1BA010A4 06830101 950108A4 0683010B 95010802 0128812A 800140A0 10A40683
010C9501 08A40683 010B9501 0880011B A010A406 83010A95 0108A406 83010B95
01080201 28813F80 0140A010 A4068301 0C950108 A4068301 0B950108 800103A0
10A40683 01019501 08A40683 010B9501 08800118 A010A406 83010A95 0108A406
83010B95 01080201 13815180 0140A010 A4068301 0C950108 A4068301 0B950108
800103A0 22A40683 01019501 08A40683 010B9501 08A010A4 0683010A 950108A4
0683010B 95010880 0118A010 A4068301 0A950108 A4068301 0B950108 02010181
3F800140 A010A406 83010C95 0108A406 83010B95 01088001 01A010A4 06830101
950108A4 0683010B 95010880 011AA010 A4068301 0A950108 A4068301 0B950108
02011381 1B8C02A0 E8900080 0107A010 A4068301 0C950108 A4068301 0B950108
30446213 82044221 000C8302 5F148B01 03800201 EC880081 05050033 08F00201
07810505 003312F2 02010781 05050033 12F30201 07810505 003312F4 02010781
05050033 12F53019 62178204 4221001C 83026F40 8B010580 011C8800 A503C001
40301962 17820442 21001C83 026F498B 01058001 388800A5 03C00140 30136211
82027821 83025F3A 8B010AC6 02018188 00301D62 1B820442 21000283 024F098B
01088001 04880148 A506C001 40C10100 30276217 82044221 00288302 4F308B01
09800150 8800A503 C0014081 0CA80AC0 034F3A1A C5034F09 09301D80 027F1062
17820442 21001C83 026F3B8B 01048001 388800A5 03C00140 30486217 82044221
002C8302 6F428B01 05800158 8800A503 C0014081 2D4E6F20 43656E74 7265204D
6573732E FFE1FFFF FFFFFFFF FFFFFFFF FFFF0991 88130300 001200F0 FFFF0000
A900301E 621C8204 422100B0 83026F3C 8B010580 0206E088 00A507C0 0140C102
00FF3017 62158202 41218302 6F438B01 05800102 8800A503 C0014030 1D621B82
04422100 1E83026F 478B0105 80019688 00A507C0 0140C102 00FF3014 62128204
4221001C 83026F3A 8B010280 01388800 30196217 82044621 001C8302 6F448B01
0580011C 8800A503 C0014030 19621782 04422100 0F83026F 4F8B0107 80014B88
00A503C0 01403015 80006211 82027821 83027F20 8B0106C6 02018188 00301F62
12820241 2183026F 078B032F 06108001 09880081 09089910 13020099 82653020
62128202 41218302 6F7E8B03 2F061480 010B8800 02010481 0709F113 0000FF01
30256217 82024121 83026F53 8B032F06 1780010E 8800A503 C0014002 01078107
09F11300 00FF0130 1F621782 02412183 026FAD8B 032F0615 80010488 00A503C0
01408104 01000102 301D6217 82024121 83026F78 8B032F06 12800102 8800A503
C0014081 02004030 1F621782 02412183 026F208B 032F0611 80010988 00A503C0
01400201 08810107 301F6217 82024121 83026F52 8B032F06 11800109 8800A503
C0014002 01088101 07301C62 17820241 2183026F 318B032F 06128001 018800A5
03C00140 81010330 19621782 02412183 026F3E8B 032F0612 80010488 00A503C0
01403019 62178202 41218302 6F3F8B03 2F061280 01048800 A503C001 40302562
17820241 2183026F 548B032F 06188001 0E8800A5 03C00140 810A8508 4F72616E
6765202B 302B6217 82024121 83026F38 8B032F06 1280010E 8800A503 C0014002
0101810D 30C3F30F 003D0330 0C0CC000 00301C62 17820241 2183026F AE8B032F
06168001 018800A5 03C00140 81010330 19621782 02412183 026F748B 032F0611
80011088 00A503C0 0140301C 62178202 41218302 6F058B03 2F060F80 01048800
A503C001 40810103 30196217 82024121 83026F7B 8B032F06 1380010C 8800A503
C0014030 75621782 02412183 026F308B 032F0613 80018488 00A503C0 0140815A
05F52032 F23032F2 5002F601 32F01012 F91032F8 0242F810 62F21072 F41072F2
1022F210 22F81042 F61072F0 9952F910 02F46142 F22062F0 3062F860 22F60122
F03032F1 1022F810 12F43012 F41042F0 1032F403 32F43313 00143024 62178202
41218302 6F468B03 2F061580 01118800 A503C001 40810900 4F72616E 67652046
30206217 82024121 83026FB7 8B032F06 1580010F 8800A503 C0014081 0511F2FF
19F13015 80006211 82027821 83027F40 8B0106C6 02018188 00301C62 17820241
2183026F 108B032F 06198001 018800A5 03C00140 81011E30 23800062 15820241
2183022F E18B010D 80010888 00A503C0 01408108 64100000 0401AF02 301B6215
82024121 83022FE6 8B010E80 01048800 A503C001 4081024D 45303262 15820241
2183022F E08B010C 80012888 00A503C0 01408119 510E5553 494D2032 2E312049
4F323730 52031000 40530200 0DA18201 E1A00580 00810108 A18201D6 301A8002
7FFF6214 82024121 83026F07 8B010288 0138C704 7F206F07 30166214 82024121
83026F7E 8B010588 0158C704 7F206F7E 30166214 82024121 83026F73 8B010A88
0160C704 7F206F53 30166214 82024121 83026FAD 8B010688 0118C704 7F206FAD
30166214 82024121 83026F78 8B010388 0130C704 7F206F78 301C8004 7FFF5F3B
62148202 41218302 4F208B01 09880108 C7047F20 6F203016 62148202 41218302
4F528B01 09880110 C7047F20 6F52301A 80027FFF 62148202 41218302 6F318B01
03880190 C7047F20 6F313015 62138202 42218302 6F408B01 058800C7 047F106F
40301562 13820242 2183026F 498B0103 8800C704 7F106F49 30156213 82024221
83026F3B 8B010788 00C7047F 106F3B30 15621382 02412183 026F3E8B 01038800
C7047F20 6F3E3015 62138202 41218302 6F3F8B01 038800C7 047F206F 3F301562
13820242 2183026F 428B0105 8800C704 7F106F42 30156213 82024221 83026F3C
8B010588 00C7047F 106F3C30 15621382 02412183 026F438B 01058800 C7047F10
6F433015 62138202 42218302 6F478B01 058800C7 047F106F 47301C80 047F105F
3A621482 02422183 024F3A8B 01088801 D0C7047F 106F3A30 1980027F 10621382
02412183 026F548B 01068800 C7047F20 6F54A682 017AA005 80008101 09A1504F
07A00000 01515350 4F08A000 00015153 50414F08 A0000001 51000000 4F08A000
00015100 00008203 82FC8083 010FC90E 81020255 81028000 8201F083 01F0EA0F
800D0100 10000002 01000300 005500A2 81D83022 95013882 01018301 01301730
15800180 8610F819 58391029 19DEAB90 89471984 38FA3022 9501C882 01038301
01301730 15800180 8610F819 58391029 19DEAB90 89471984 38FA3022 95013482
01028301 01301730 15800180 8610F819 58391029 19DEAB90 89471984 38FA3022
95013882 01018301 20301730 15800180 8610F819 58391029 19DEAB90 89471984
38FA3022 9501C882 01038301 20301730 15800180 8610F819 58391029 19DEAB90
89471984 38FA3022 95013482 01028301 20301730 15800180 8610F819 58391029
19DEAB90 89471984 38FAA344 04420070 3F663D73 3B06072A 864886FC 6B01600B
06092A86 4886FC6B 02020263 0906072A 864886FC 6B03640B 06092A86 4886FC6B
04025564 0B06092A 864886FC 6B048000 A732A005 80008101 0A4F09A0 00000151
00000001 4F08A000 00015100 0000A005 0403B000 10810112 04040100 41000404
01004100 A752A005 80008101 0B4F09A0 00000151 00000002 4F08A000 00015100
0000A005 0403B000 01810112 04040100 41000404 01004100 301E8010 A0000000
871002F8 83FF0189 00000100 81040100 41008204 01004100 AA07A005 80008101
0C