A0468001 02810100 82204441 5649445F 454D545F 6553494D 5F633038 315F6330
38345F76 6572325F 4D54830A 98123108 00175701 0071A506 81008400 8B00A608
06066781 0F010201 B0820249 A0058000 81010081 0667810F 010201A2 12A11082
02782183 023F008B 0102C601 018800A3 19A11182 02412183 022F058B 010F8001
0A880128 83046574 656EA41F A1118202 41218302 2FE28B01 1080010A 88011083
0A892113 80007175 100017A5 59A11382 04422100 2683022F 008B010E 80019888
01F0831E 611C4F10 A0000000 871002FF FFFFFF89 040300FF 5008454D 54205553
494D8201 08831F61 1D4F0CA0 00000063 504B4353 2D313550 07504B43 53233135
51043F00 7F50A682 018BA114 82044221 00308302 2F068B01 01800206 00880130
83158001 01900080 011A9700 800104A4 0683010A 95010882 011B8311 8C02A0E8
90008001 47A40683 010A9501 0882011F 83108001 1B970080 0104A406 83010A95
01088201 20831080 01039700 80011CA4 0683010A 95010882 01208305 80010190
0082012B 83118C02 A0E89000 800147A4 0683010A 95010882 011F8315 80010190
0080011A 97008001 04A40683 010A9501 0882011B 83108001 1B970080 0104A406
83010A95 01088201 20831080 01039700 80011CA4 0683010A 95010882 01208310
80010190 0080011E A4068301 0A950108 82012083 0B80011F A4068301 0A950108
82012583 16800103 A4068301 01950108 80011CA4 0683010A 95010882 011A8310
800107A4 0683010A 95010880 01189700 82012083 1B8401D4 A4068301 0A950108
80010190 0080015E A4068301 0A950108 82011583 268401D4 A4068301 0A950108
80010190 00800102 A4068301 01950108 80015CA4 0683010A 95010882 010A8315
80010190 00800102 97008001 1CA40683 010A9501 08A24CA0 05800081 0101A143
A0413013 80010181 08313233 34FFFFFF FF820101 83010630 1480010A 8108933F
57845F70 69218301 03840200 AA301480 010B8108 933F5784 5F706921 83010384
0200AAA3 28A00580 00810102 A11F300D 80010181 08313233 34353637 38300E80
02008181 08313233 34353637 38A130A0 05800081 0103A127 30256223 82027821
83027FF0 8410A000 00008710 02FFFFFF FF890403 00FF8B01 06C60201 818800A4
4AA00580 00810104 A131A12F 80010181 01018210 AAAAAAAA AAAAAAAA AAAAAAAA
AAAAAAAA 8310531B 9378F3A7 84EEA065 2464F88F 913C8603 FFFFFF83 06002000
00000084 0607FFFF FFFFFFA2 22A00580 00810105 A119A017 30158002 00818108
31323334 FFFFFFFF 82020081 830103A1 8212D0A0 05800081 0106A182 12C53082
02418002 7FF06214 82044221 00308302 6F068B01 01800204 B08801B8 810A8001
01900080 011E9700 02012681 16800101 A4068301 01950108 80015EA4 0683010A
95010802 011A8116 800103A4 06830101 95010880 015CA406 83010A95 01080201
1A812184 01D4A406 83010A95 01088001 01A40683 01019501 0880015E A4068301
0A950108 02010F81 26840132 A4068301 0A950108 8401D4A4 0683010A 95010880
01019000 80015EA4 0683010A 95010802 010A811B 8401D4A4 0683010A 95010880
01019000 80015EA4 0683010A 95010802 01158126 8401D4A4 0683010A 95010880
01019000 800102A4 06830101 95010880 015CA406 83010A95 01080201 0A81118C
02A0E890 00800107 A4068301 0A950108 02011F81 10800101 90008001 5EA40683
010A9501 08020120 81218401 D4A40683 010A9501 08800103 A4068301 01950108
80015CA4 0683010A 95010802 010F811B 84013297 00800103 A4068301 01950108
800158A4 0683010A 95010802 01158121 840132A4 06830101 95010880 0103A406
83010195 01088001 58A40683 010A9501 0802010F 812C8401 32A40683 01019501
08800101 A4068301 01950108 800102A4 06830181 95010880 0158A406 83010A95
01080201 04812180 0101A406 83010195 01088001 02A40683 01819501 0880015C
A4068301 0A950108 02010F81 2C8401D4 A4068301 0A950108 800101A4 06830101
95010880 0102A406 83018195 01088001 5CA40683 010A9501 08020104 81108001
1B970080 0104A406 83010A95 01080201 20811080 011DA406 83010A95 01088001
02970030 12621082 02412183 026FDC8B 01028001 01880030 1B621182 02412183
026FE38B 01038001 128801F0 02010F81 03000001 30156213 82044221 00368302
6FE48B01 03800136 8801C030 13621182 02412183 026FD98B 01048001 3C8801E8
30126210 82024121 83026FDB 8B010280 01018800 30126210 82024121 83026FC4
8B010380 01928800 30216211 82024121 83026F38 8B010480 010C8801 20810C9E
FF978DF3 CE040000 00000030 16621182 02412183 026F088B 01038001 21880140
81010730 16621182 02412183 026F098B 01038001 21880148 81010730 1B621182
02412183 026F5B8B 01038001 06880178 8106F000 00F00000 30136211 82024121
83026F5C 8B010280 01038801 80301362 11820278 2183025F 3B8B0108 C6020181
88003029 80027FF0 62148204 4221001C 83026FB7 8B010680 02011888 0108810D
11F2FF50 7B7B7374 65616D65 74301262 10820241 2183026F C38B0103 80010488
00301462 12820442 21002683 026F408B 010A8001 72880030 16621482 04462100
3483026F 808B010B 80020208 8801A030 19621782 04462100 0383026F 828B010C
80010388 00A503C1 01003016 62148204 46210033 83026F81 8B010B80 0201FE88
01A83019 62178204 46210003 83026F83 8B010C80 01038800 A503C101 00302F62
12820442 21000D83 026F4E8B 010A8001 41880081 01000201 0C810100 02010C81
01000201 0C810100 02010C81 01003016 62118202 41218302 6F568B01 0F800101
88012881 01003015 62138204 4221000F 83026F4F 8B010A80 014B8801 B0301480
00621082 02782183 027F108B 0106C601 01880030 82017162 13820442 21003083
026F068B 01018002 03008800 81158001 01900080 011A9700 800104A4 0683010A
95010802 011B8126 8401D4A4 0683010A 95010880 01019000 80011EA4 06830101
95010880 0140A406 83010A95 01080201 0A811684 01D4A406 83010A95 01088001
5FA40683 010A9501 0802011A 81118C02 A0E89000 800147A4 0683010A 95010802
011F8121 8401D4A4 0683010A 95010880 0103A406 83010195 01088001 5CA40683
010A9501 0802010F 81218401 D4A40683 010A9501 08800101 A4068301 01950108
80015EA4 0683010A 95010802 010F8116 800103A4 06830101 95010880 015CA406
83010A95 01080201 1A812C84 01D4A406 83010A95 01088001 01A40683 01019501
08800102 A4068301 81950108 80015CA4 0683010A 95010802 0104812C 8401D4A4
0683010A 95010880 0103A406 83010195 01088001 44A40683 010A9501 08800118
A4068301 81950108 02010481 1B840132 97008001 03A40683 01019501 08800158
A4068301 0A950108 30146212 82044221 00268302 6FE08B01 028001BE 88003015
62138204 42210064 83026FE1 8B010280 0201F488 00301262 10820278 2183025F
3A8B0104 C6010188 00301662 14820442 21002683 024F3A8B 01058002 251C8801
D0301662 14820442 21002683 024F3B8B 01058002 251C8801 A8301662 14820442
21001183 024F118B 01058002 03528801 88301662 14820442 21003283 024F508B
01058002 09C48801 80301662 14820442 21000283 024F258B 01058002 01F48801
28301662 14820442 21000283 024F018B 01058002 01F48801 18301B62 19820442
21000283 024F098B 01058002 01F48801 48A503C1 0100301B 62198204 42210002
83024F0A 8B010580 0201F488 01B0A503 C1010030 818B6212 82044221 004C8302
4F308B01 06800198 88008138 A814C003 4F3A1AC1 034F2505 C6034F26 06C5034F
0909A90A C4034F11 11CA034F 5010AA14 C8034F4C 0CCB034F 4F0FC203 4F4A0AC7
034F4B0B 02011481 38A814C0 034F3B15 C1034F01 03C6034F 2717C503 4F0A16A9
0AC4034F 1111CA03 4F5010AA 14C8034F 4C0CCB03 4F4F0FC2 034F4A0A C7034F4B
0B30818B 62148204 4221000D 83024F4A 8B010580 02010488 01508101 0002010C
81010002 010C8101 0002010C 81010002 010C8101 0002010C 81010002 010C8101
0002010C 81010002 010C8101 0002010C 81010002 010C8101 0002010C 81010002
010C8101 0002010C 81010002 010C8101 0002010C 81010002 010C8101 0002010C
81010002 010C8101 0002010C 81010030 1B621982 04422100 0283024F 268B0105
800201F4 880130A5 03C10100 301B6219 82044221 00028302 4F278B01 05800201
F48801B8 A503C101 00301562 13820442 21001883 024F4C8B 01058001 78880160
30156213 82044221 00188302 4F4B8B01 05800178 88015830 16621482 04422100
0F83024F 4F8B0105 8002012C 88017830 1980027F 10621382 04422100 2C83026F
498B0106 80020370 8800301B 62198204 422100B0 83026F3C 8B010580 020DC088
00A504C1 0200FF30 12621082 02412183 026F438B 01078001 02880030 1B621982
04422100 1E83026F 478B0105 8002012C 8800A504 C10200FF 303A6212 82044221
002C8302 6F428B01 05800158 88008124 454D54FF FFFFFFFF FFFFFFFF FFFFFFFF
FDFFFFFF FFFFFFFF FFFFFFFF FF069173 52900900 30156213 82044221 00268302
6F3B8B01 08800202 F8880030 1D621282 04422100 0D83026F 4C8B0106 80011A88
00810100 02010C81 01003023 62128204 4221000D 83026F4B 8B010880 01278800
81010002 010C8101 0002010C 81010030 14621282 04422100 2683026F 408B0105
80017288 00301562 13820446 21002683 026F448B 010A8002 017C8800 30148000
62108202 78218302 7F208B01 06C60101 88003082 02166213 82044221 00308302
6F068B01 01800203 30880081 15800101 90008001 1A970080 0104A406 83010A95
01080201 1B811B84 01D4A406 83010A95 01088001 01900080 015EA406 83010A95
01080201 15811680 0111A406 83010195 01088001 4EA40683 010A9501 0802011A
81168001 13A40683 01019501 0880014C A4068301 0A950108 02011A81 16800103
A4068301 01950108 80015CA4 0683010A 95010802 011A8116 800101A4 06830101
95010880 015EA406 83010A95 01080201 1A812184 01D4A406 83010A95 01088001
01A40683 01019501 0880015E A4068301 0A950108 02010F81 168401D4 A4068301
0A950108 80015FA4 0683010A 95010802 011A8110 80010190 0080015E A4068301
0A950108 02012081 218401D4 A4068301 0A950108 800103A4 06830101 95010880
015CA406 83010A95 01080201 0F812C84 0132A406 83010195 01088001 01A40683
01019501 08800102 A4068301 81950108 800158A4 0683010A 95010802 01048121
800101A4 06830101 95010880 0102A406 83018195 01088001 5CA40683 010A9501
0802010F 81268401 D4A40683 010A9501 08800101 90008001 02A40683 01019501
0880015C A4068301 0A950108 02010A81 1080011D A4068301 0A950108 80010297
00020120 81168001 01A40683 01019501 0880011E A4068301 0A950108 02011A81
16800103 A4068301 01950108 80011CA4 0683010A 95010802 011A8110 80011B97
00800104 A4068301 0A950108 30156213 82044221 002C8302 6FC58B01 02800201
B8880030 14621282 04422100 0883026F C68B0102 8001A088 00301D62 10820241
2183026F 078B0103 80010988 00810908 49810410 00200010 30186210 82024121
83026F7E 8B010480 010B8800 02010A81 0101301B 62108202 41218302 6F538B01
0580010E 88000201 0A810400 00FF0130 18621082 02412183 026FAD8B 01028001
04880081 04010001 02301662 10820241 2183026F 788B0106 80010288 00810200
02301262 10820241 2183026F 3E8B0107 80010A88 00301262 10820241 2183026F
3F8B0107 80010A88 00301662 10820241 2183026F 548B0108 80012088 00810285
1E301262 10820241 2183026F 7B8B0105 80010C88 00301862 10820241 2183026F
208B0105 80010988 00020108 81010730 18621082 02412183 026F528B 01058001
09880002 01088101 07308201 A7621182 02412183 026F618B 01078002 01908800
81820190 00000000 00000000 00000000 00000000 00000000 00000000 00000000
00000000 00000000 00000000 00000000 00000000 00000000 00000000 00000000
00000000 00000000 00000000 00000000 00000000 00000000 00000000 00000000
00000000 00000000 00000000 00000000 00000000 00000000 00000000 00000000
00000000 00000000 00000000 00000000 00000000 00000000 00000000 00000000
00000000 00000000 00000000 00000000 00000000 00000000 00000000 00000000
00000000 00000000 00000000 00000000 00000000 00000000 00000000 00000000
00000000 00000000 00000000 00000000 00000000 00000000 00000000 00000000
00000000 00000000 00000000 00000000 00000000 00000000 00000000 00000000
00000000 00000000 00000000 00000000 00000000 00000000 00000000 00000000
00000000 00000000 00000000 00000000 00000000 00000000 00000000 00000000
00000000 00000000 00000000 00000000 00000000 00000000 00000000 00000000
00000000 00000000 00000000 00000000 00000000 30236210 82024121 83026F62
8B010780 010F8800 810F42F8 108080FF FFFF0000 FFFFFF00 00301562 10820241
2183026F 318B0106 80010188 00810105 30126210 82024121 83026F46 8B010980
01118800 30126210 82024121 83026F45 8B010A80 01148800 30196217 82044621
00038302 6F398B01 0B800124 8800A503 C1010030 17621082 02412183 026F378B
010C8001 03880081 03000000 30196210 82024121 83026F41 8B010C80 01058800
02010381 02000030 12621082 02412183 026F508B 010A8001 0C880030 12621082
02412183 026F328B 01078001 1E880030 12621082 02412183 026F638B 01058001
10880030 14621282 04422100 2683026F C78B010A 80019888 00301762 12820442
21000D83 026FC88B 010A8001 0D880081 0100301C 62178204 42210004 83026FC9
8B010A80 01088800 A503C101 00810101 30196217 82044221 00058302 6FCA8B01
0580010A 8800A503 C1010030 1F621282 04422100 1083026F CB8B010A 80012088
00810201 0002010E 81020200 30176212 82044221 000D8302 6FCC8B01 0A80010D
88008101 00301862 10820241 2183026F CD8B0107 80014088 008104A3 3E803C30
15621082 02412183 026F648B 01068001 01880081 01003016 62108202 41218302
6FB58B01 06800102 88008102 00003015 62108202 41218302 6FB68B01 05800101
88008101 00301562 10820241 2183026F AE8B0109 80010188 00810103 30126210
82024121 83026F74 8B010580 01108800 30126210 82024121 83026F05 8B010D80
01058800 30256210 82024121 83026F38 8B010780 010F8800 02010181 0E33FFFF
0F003C03 300CCCF3 003C0030 82010562 10820241 2183026F 308B010A 8001F088
008181F0 00000000 00000000 00000000 00000000 00000000 00000000 00000000
00000000 00000000 00000000 00000000 00000000 00000000 00000000 00000000
00000000 00000000 00000000 00000000 00000000 00000000 00000000 00000000
00000000 00000000 00000000 00000000 00000000 00000000 00000000 00000000
00000000 00000000 00000000 00000000 00000000 00000000 00000000 00000000
00000000 00000000 00000000 00000000 00000000 00000000 00000000 00000000
00000000 00000000 00000000 00000000 00000000 00000000 00000000 00000000
00000000 00000000 00000000 00000000 00000000 30126210 82024121 83026FB7
8B010280 010F8800 30126210 82024121 83026F14 8B010F80 01108800 30176210
82024121 83026F16 8B010F80 01038800 81030200 00301562 10820241 2183026F
138B0110 80010188 00810155 30156210 82024121 83026F11 8B011080 01018800
810155A1 2CA00580 00810107 A1233021 621F8202 78218302 7F50840C A0000000
63504B43 532D3135 8B0102C6 02018188 00A18205 75A00580 00810108 A182056A
30768002 7F506213 82044221 00308302 6F068B01 01800201 80880081 10800101
90008001 1EA40683 010A9501 08020120 811B8401 D4A40683 010A9501 08800101
90008001 5EA40683 010A9501 08020115 81268401 D4A40683 010A9501 08800101
90008001 02A40683 01019501 0880015C A4068301 0A950108 304C6210 82024121
83025032 8B010280 016A8800 81383036 02010104 0A892113 80007175 1000170C
154F6265 72746875 72205465 63686E6F 6C6F6769 6573800A 43455254 535F5052
4F560302 07803081 8A621182 02412183 0244048B 01028002 01F48800 81753073
30180C12 536F6E65 7261204F 70657261 746F7220 43410302 06003046 0414536A
2626F981 448AD340 15538F14 DF83BB8A 9EBD0101 FF301902 01050414 536A2626
F981448A D3401553 8F14DF83 BB8A9EBD A110300E 060C2B06 0104012A 026E0202
0201A10F 300D300B 04024422 02010080 02033330 82034A62 11820241 21830244
228B0102 800203E8 88008182 03333082 032F3082 0217A003 02010202 027C7D30
0D06092A 864886F7 0D010105 05003040 310B3009 06035504 06130246 49311430
12060355 040A130B 54656C69 61536F6E 65726131 1B301906 03550403 1312536F
6E657261 204F7065 7261746F 72204341 301E170D 30343130 30383130 31343031
5A170D32 34313030 38313031 3430315A 3040310B 30090603 55040613 02464931
14301206 0355040A 130B5465 6C696153 6F6E6572 61311B30 19060355 04031312
536F6E65 7261204F 70657261 746F7220 43413082 0122300D 06092A86 4886F70D
01010105 00038201 0F003082 010A0282 01010098 326BCF56 7B6C97CF 10C57137
B512F5DF A6BCDAF9 924764BC 6122AE18 26691D79 DE78D921 AC99BB8F 162DB371
A5ACB4BF A89EAE21 79775976 5187888B A7EE2004 858C2288 9B986DE1 B8C83F16
B68CAA1F ED900117 E019A517 910B5830 BF49FECB 68EF1B2B F4C9706D 480D1BB5
28188161 0CCEA8D7 9CB357BB AD3DA91B C30D76E7 029A27B1 E8A67B71 996C2548
D08147BC F40EB5BF E124659D 1758275F 9B6146F6 8FE48473 DF03D4DE CA8984D4
C4D0154B 4BCBBDE9 FDEBD508 98B01DF1 2723C05B 9B57A2F5 3821CC72 990FACD2
121A510B C4ECD1AC 8004B6A3 31B3A14A CD218007 E2C276C9 F2AC005C 96DB0822
5FE9ABE0 7E4ACEB1 09B00617 D0B29770 27F80B02 03010001 A3333031 300F0603
551D1301 01FF0405 30030101 FF301106 03551D0E 040A0408 4F14DF83 BB8A9EBD
300B0603 551D0F04 04030201 06300D06 092A8648 86F70D01 01050500 03820101
0019595F 88BA8A5A 731A9C8E 69F651D7 226F7876 FC02E430 9E06EF00 CB504192
E0154EE7 13887054 0AC9B383 4F1E0649 55520ADE A7B83E8B 7F7A0D64 9C102FF1
D27E80A1 BA08B3BE 84A40C5F 2547B3AC F67FE1BF 06206C29 A37E8C25 64B5E68F
9D42A068 EBD0308A F6589500 252EDCAD 5B6C21CC DDE35186 926A3CF2 B39EDCC3
6ABA14B8 CC2CF425 13CB7326 240F4AE6 48446621 477AA037 8D2A9D67 740EF636
848AFC7E C04F75BD 76293135 CA7E7EB9 D343D870 F5FF8D93 929A416E 9129EB5F
7F2E7A74 B0A380FF C40A527C 98124141 662052AD 58B5ED66 53388A9B FFF479A7
ABD3DAC9 C64E77DD 6FA2339D 90AEB2E2 1F6148D4 E1EB0C7D 59A30DE5 46F0C57F
B9301362 11820241 21830244 248B0102 800205DC 88003024 62108202 41218302
50318B01 02800138 88008110 A7063004 04024407 A5063004 04024404 30126210
82024121 83024407 8B010280 01C88800 30136211 82024121 83024430 8B010280
0203E888 00301362 11820241 21830244 318B0103 800203E8 88003012 62108202
41218302 42008B01 02800164 88003012 62108202 41218302 43008B01 02800164
88003012 62108202 41218302 43108B01 02800164 88003012 62108202 41218302
43118B01 02800164 8800A182 0453A005 80008101 09A18204 48301A80 027FF062
14820242 2183026F C58B0105 8801C8C7 047F206F C5301662 14820242 2183026F
C68B0105 8801D0C7 047F206F C6301662 14820241 2183026F 078B0102 880138C7
047F206F 07301662 14820241 2183026F 7E8B0103 880158C7 047F206F 7E301662
14820241 2183026F 738B0103 880160C7 047F206F 53301662 14820241 2183026F
AD8B0106 880118C7 047F206F AD301662 14820241 2183026F 788B0102 880130C7
047F206F 78301462 12820241 2183026F 058B0107 880110C7 022F0530 15621382
02412183 026F3E8B 01048800 C7047F20 6F3E3015 62138202 41218302 6F3F8B01
048800C7 047F206F 3F301662 14820241 2183026F 7B8B0103 880168C7 047F206F
7B301C80 047FF05F 3B621482 02412183 024F208B 01038801 08C7047F 206F2030
16621482 02412183 024F528B 01038801 10C7047F 206F5230 15621382 02412183
024F638B 01038800 C7047F20 6F633015 62138202 41218302 4F648B01 028800C7
047F206F 64301A80 027FF062 14820241 2183026F 618B0104 880188C7 047F206F
61301662 14820241 2183026F 628B0104 880198C7 047F206F 62301662 14820241
2183026F 318B0102 880190C7 047F206F 31301562 13820241 2183026F 468B0109
8800C704 7F206F46 30156213 82024221 83026F49 8B010488 00C7047F 106F4930
15621382 02422183 026F3C8B 010A8800 C7047F10 6F3C3015 62138202 41218302
6F438B01 038800C7 047F106F 43301562 13820242 2183026F 478B010A 8800C704
7F106F47 30156213 82024221 83026F42 8B010A88 00C7047F 106F4230 15621382
02412183 026F458B 010A8800 C7047F20 6F453016 62148202 46218302 6F398B01
0D8801E0 C7047F20 6F393015 62138202 41218302 6F378B01 0E8800C7 047F206F
37301562 13820241 2183026F 418B010E 8800C704 7F206F41 30156213 82024121
83026F50 8B010A88 00C7047F 206F5030 15621382 02412183 026F328B 01048800
C7047F20 6F323015 62138202 42218302 6FC78B01 0A8800C7 047F206F C7301562
13820242 2183026F C88B010A 8800C704 7F206FC8 30156213 82024221 83026FC9
8B010A88 00C7047F 206FC930 15621382 02422183 026FCA8B 01038800 C7047F20
6FCA3015 62138202 42218302 6FCB8B01 0A8800C7 047F206F CB301562 13820242
2183026F CC8B010A 8800C704 7F206FCC 30166214 82024121 83026FCD 8B010488
01D8C704 7F206FCD 30156213 82024221 83026F3B 8B010F88 00C7047F 106F3B30
15621382 02422183 026F4C8B 01048800 C7047F10 6F4C3015 62138202 42218302
6F4B8B01 0F8800C7 047F106F 4B301562 13820241 2183026F B58B0102 8800C704
7F206FB5 30156213 82024121 83026FB6 8B010388 00C7047F 206FB630 1980027F
10621382 02412183 026F548B 01038800 C7047F20 6F543017 62158202 42218302
6F3A8B01 098800C7 067F105F 3A4F3A30 17621582 02422183 026F4A8B 01058800
C7067F10 5F3A4F4A 30176215 82024221 83026F4F 8B010588 00C7067F 105F3A4F
4FA68201 D9A00580 0081010A A14F4F07 A0000001 5153504F 08A00000 01515350
414F08A0 00000151 0000004F 08A00000 01510000 00820382 FC808301 0FC90B81
02800081 02037082 01F0EA11 800F0100 00010000 00020112 03B20100 00A28201
44302295 01388201 01830101 30173015 80018086 10F81958 39102919 DEAB9089
47198438 FA302295 01C88201 03830101 30173015 80018086 10F81958 39102919
DEAB9089 47198438 FA302295 01348201 02830101 30173015 80018086 10F81958
39102919 DEAB9089 47198438 FA302295 01388201 01830102 30173015 80018086
10F81958 39102919 DEAB9089 47198438 FA302295 01C88201 03830102 30173015
80018086 10F81958 39102919 DEAB9089 47198438 FA302295 01348201 02830102
30173015 80018086 10F81958 39102919 DEAB9089 47198438 FA302295 01388201
01830130 30173015 80018886 10456E63 72797074 696F6E53 65637265 74302295
01348201 02830130 30173015 80018886 10506572 736F6E61 6C697361 74696F6E
4B302295 01C88201 03830130 30173015 80018886 104B6579 456E6372 79707469
6F6E4B65 79A33704 35007032 6630732E 06072A86 4886FC6B 01600B06 092A8648
86FC6B02 02026309 06072A86 4886FC6B 03640B06 092A8648 86FC6B04 8000A882
297AA005 80008101 0BA18229 1A4F1000 00000000 F0000000 00000001 234D064F
08A00000 01510000 00C48228 FA01001A DECAFFED 01020400 01100000 000000F0
00000000 00000123 4D060200 1F001A00 1F001400 1E002E00 1C009827 80001200
00000300 04000227 70020100 04001E02 040107A0 00000062 01010602 10A00000
00090003 FFFFFFFF 89107100 02030014 01100000 000000A0 00000000 00000123
4D060001 06001C43 80030200 02050400 000094FF FF006E00 71810101 08810000
80020007 00980005 318F000A 3D8C0002 2E1B181D 0441181D 258B0006 1B8D0009
87001B83 00048B00 087A0510 188C0007 18100B90 0B3D0310 48383D04 1065383D
05106C38 3D06106C 383D0710 6F383D08 1020383D 10061077 383D1007 106F383D
10081072 383D1009 106C383D 100A1064 3887017A 00207A06 211D7500 1F000100
0100098D 00052D1A 108107AD 0103AD01 928B0003 1A8B0004 3B7A0130 18770827
80000400 02000203 13B80000 00000000 00000000 00000000 00000000 00000000
00000000 00000000 00000000 00000000 00000000 00000000 00000000 00000000
00000000 00000000 00000000 00000000 00000000 00000000 00000000 00000000
00000000 00000000 00000000 00000000 00000000 00000000 00000000 00000000
00000000 00000000 00000000 00000000 00000000 00000000 00000000 00000000
00000000 00000000 00000000 00000000 00000000 00000000 00000000 00000000
00000000 00000000 00000000 00000000 00000000 00000000 00000000 00000000
00000000 00000000 00000000 00000000 00000000 00000000 00000000 00000000
00000000 00000000 00000000 00000000 00000000 00000000 00000000 00000000
00000000 00000000 00000000 00000000 00000000 00000000 00000000 00000000
00000000 00000000 00000000 00000000 00000000 00000000 00000000 00000000
00000000 00000000 00000000 00000000 00000000 00000000 00000000 00000000
00000000 00000000 00000000 00000000 00000000 00000000 00000000 00000000
00000000 00000000 00000000 00000000 00000000 00000000 00000000 00000000
00000000 00000000 00000000 00000000 00000000 00000000 00000000 00000000
00000000 00000000 00000000 00000000 00000000 00000000 00000000 00000000
00000000 00000000 00000000 00000000 00000000 00000000 00000000 00000000
00000000 00000000 00000000 00000000 00000000 00000000 00000000 00000000
00000000 00000000 00000000 00000000 00000000 00000000 00000000 00000000
00000000 00000000 00000000 00000000 00000000 00000000 00000000 00000000
00000000 00000000 00000000 00000000 00000000 00000000 00000000 00000000
00000000 00000000 00000000 00000000 00000000 00000000 00000000 00000000
00000000 00000000 00000000 00000000 00000000 00000000 00000000 00000000
00000000 00000000 00000000 00000000 00000000 00000000 00000000 00000000
00000000 00000000 00000000 00000000 00000000 00000000 00000000 00000000
00000000 00000000 00000000 00000000 00000000 00000000 00000000 00000000
00000000 00000000 00000000 00000000 00000000 00000000 00000000 00000000
00000000 00000000 00000000 00000000 00000000 00000000 00000000 00000000
00000000 00000000 00000000 00000000 00000000 00000000 00000000 00000000
00000000 00000000 00000000 00000000 00000000 00000000 00000000 00000000
00000000 00000000 00000000 00000000 00000000 00000000 00000000 00000000
00000000 00000000 00000000 00000000 00000000 00000000 00000000 00000000
00000000 00000000 00000000 00000000 00000000 00000000 00000000 00000000
00000000 00000000 00000000 00000000 00000000 00000000 00000000 00000000
00000000 00000000 00000000 00000000 00000000 00000000 00000000 00000000
00000000 00000000 00000000 00000000 00000000 00000000 00000000 00000000
00000000 00000000 00000000 00000000 00000000 00000000 00000000 00000000
00000000 00000000 00000000 00000000 00000000 00000000 00000000 00000000
00000000 00000000 00000000 00000000 00000000 00000000 00000000 00000000
00000000 00000000 00000000 00000000 00000000 00000000 00000000 00000000
00000000 00000000 00000000 00000000 00000000 00000000 00000000 00000000
00000000 00000000 00000000 00000000 00000000 00000000 00000000 00000000
00000000 00000000 00000000 00000000 00000000 00000000 00000000 00000000
00000000 00000000 00000000 00000000 00000000 00000000 00000000 00000000
00000000 00000000 00000000 00000000 00000000 00000000 00000000 00000000
00000000 00000000 00000000 00000000 00000000 00000000 00000000 00000000
00000000 00000000 00000000 00000000 00000000 00000000 00000000 00000000
00000000 00000000 00000000 00000000 00000000 00000000 00000000 00000000
00000000 00000000 00000000 00000000 00000000 00000000 00000000 00000000
00000000 00000000 00000000 00000000 00000000 00000000 00000000 00000000
00000000 00000000 00000000 00000000 00000000 00000000 00000000 00000000
00000000 00000000 00000000 00000000 00000000 00000000 00000000 00000000
00000000 00000000 00000000 00000000 00000000 00000000 00000000 00000000
00000000 00000000 00000000 00000000 00000000 00000000 00000000 00000000
00000000 00000000 00000000 00000000 00000000 00000000 00000000 00000000
00000000 00000000 00000000 00000000 00000000 00000000 00000000 00000000
00000000 00000000 00000000 00000000 00000000 00000000 00000000 00000000
00000000 00000000 00000000 00000000 00000000 00000000 00000000 00000000
00000000 00000000 00000000 00000000 00000000 00000000 00000000 00000000
00000000 00000000 00000000 00000000 00000000 00000000 00000000 00000000
00000000 00000000 00000000 00000000 00000000 00000000 00000000 00000000
00000000 00000000 00000000 00000000 00000000 00000000 00000000 00000000
00000000 00000000 00000000 00000000 00000000 00000000 00000000 00000000
00000000 00000000 00000000 00000000 00000000 00000000 00000000 00000000
00000000 00000000 00000000 00000000 00000000 00000000 00000000 00000000
00000000 00000000 00000000 00000000 00000000 00000000 00000000 00000000
00000000 00000000 00000000 00000000 00000000 00000000 00000000 00000000
00000000 00000000 00000000 00000000 00000000 00000000 00000000 00000000
00000000 00000000 00000000 00000000 00000000 00000000 00000000 00000000
00000000 00000000 00000000 00000000 00000000 00000000 00000000 00000000
00000000 00000000 00000000 00000000 00000000 00000000 00000000 00000000
00000000 00000000 00000000 00000000 00000000 00000000 00000000 00000000
00000000 00000000 00000000 00000000 00000000 00000000 00000000 00000000
00000000 00000000 00000000 00000000 00000000 00000000 00000000 00000000
00000000 00000000 00000000 00000000 00000000 00000000 00000000 00000000
00000000 00000000 00000000 00000000 00000000 00000000 00000000 00000000
00000000 00000000 00000000 00000000 00000000 00000000 00000000 00000000
00000000 00000000 00000000 00000000 00000000 00000000 00000000 00000000
00000000 00000000 00000000 00000000 00000000 00000000 00000000 00000000
00000000 00000000 00000000 00000000 00000000 00000000 00000000 00000000
00000000 00000000 00000000 00000000 00000000 00000000 00000000 00000000
00000000 00000000 00000000 00000000 00000000 00000000 00000000 00000000
00000000 00000000 00000000 00000000 00000000 00000000 00000000 00000000
00000000 00000000 00000000 00000000 00000000 00000000 00000000 00000000
00000000 00000000 00000000 00000000 00000000 00000000 00000000 00000000
00000000 00000000 00000000 00000000 00000000 00000000 00000000 00000000
00000000 00000000 00000000 00000000 00000000 00000000 00000000 00000000
00000000 00000000 00000000 00000000 00000000 00000000 00000000 00000000
00000000 00000000 00000000 00000000 00000000 00000000 00000000 00000000
00000000 00000000 00000000 00000000 00000000 00000000 00000000 00000000
00000000 00000000 00000000 00000000 00000000 00000000 00000000 00000000
00000000 00000000 00000000 00000000 00000000 00000000 00000000 00000000
00000000 00000000 00000000 00000000 00000000 00000000 00000000 00000000
00000000 00000000 00000000 00000000 00000000 00000000 00000000 00000000
00000000 00000000 00000000 00000000 00000000 00000000 00000000 00000000
00000000 00000000 00000000 00000000 00000000 00000000 00000000 00000000
00000000 00000000 00000000 00000000 00000000 00000000 00000000 00000000
00000000 00000000 00000000 00000000 00000000 00000000 00000000 00000000
00000000 00000000 00000000 00000000 00000000 00000000 00000000 00000000
00000000 00000000 00000000 00000000 00000000 00000000 00000000 00000000
00000000 00000000 00000000 00000000 00000000 00000000 00000000 00000000
00000000 00000000 00000000 00000000 00000000 00000000 00000000 00000000
00000000 00000000 00000000 00000000 00000000 00000000 00000000 00000000
00000000 00000000 00000000 00000000 00000000 00000000 00000000 00000000
00000000 00000000 00000000 00000000 00000000 00000000 00000000 00000000
00000000 00000000 00000000 00000000 00000000 00000000 00000000 00000000
00000000 00000000 00000000 00000000 00000000 00000000 00000000 00000000
00000000 00000000 00000000 00000000 00000000 00000000 00000000 00000000
00000000 00000000 00000000 00000000 00000000 00000000 00000000 00000000
00000000 00000000 00000000 00000000 00000000 00000000 00000000 00000000
00000000 00000000 00000000 00000000 00000000 00000000 00000000 00000000
00000000 00000000 00000000 00000000 00000000 00000000 00000000 00000000
00000000 00000000 00000000 00000000 00000000 00000000 00000000 00000000
00000000 00000000 00000000 00000000 00000000 00000000 00000000 00000000
00000000 00000000 00000000 00000000 00000000 00000000 00000000 00000000
00000000 00000000 00000000 00000000 00000000 00000000 00000000 00000000
00000000 00000000 00000000 00000000 00000000 00000000 00000000 00000000
00000000 00000000 00000000 00000000 00000000 00000000 00000000 00000000
00000000 00000000 00000000 00000000 00000000 00000000 00000000 00000000
00000000 00000000 00000000 00000000 00000000 00000000 00000000 00000000
00000000 00000000 00000000 00000000 00000000 00000000 00000000 00000000
00000000 00000000 00000000 00000000 00000000 00000000 00000000 00000000
00000000 00000000 00000000 00000000 00000000 00000000 00000000 00000000
00000000 00000000 00000000 00000000 00000000 00000000 00000000 00000000
00000000 00000000 00000000 00000000 00000000 00000000 00000000 00000000
00000000 00000000 00000000 00000000 00000000 00000000 00000000 00000000
00000000 00000000 00000000 00000000 00000000 00000000 00000000 00000000
00000000 00000000 00000000 00000000 00000000 00000000 00000000 00000000
00000000 00000000 00000000 00000000 00000000 00000000 00000000 00000000
00000000 00000000 00000000 00000000 00000000 00000000 00000000 00000000
00000000 00000000 00000000 00000000 00000000 00000000 00000000 00000000
00000000 00000000 00000000 00000000 00000000 00000000 00000000 00000000
00000000 00000000 00000000 00000000 00000000 00000000 00000000 00000000
00000000 00000000 00000000 00000000 00000000 00000000 00000000 00000000
00000000 00000000 00000000 00000000 00000000 00000000 00000000 00000000
00000000 00000000 00000000 00000000 00000000 00000000 00000000 00000000
00000000 00000000 00000000 00000000 00000000 00000000 00000000 00000000
00000000 00000000 00000000 00000000 00000000 00000000 00000000 00000000
00000000 00000000 00000000 00000000 00000000 00000000 00000000 00000000
00000000 00000000 00000000 00000000 00000000 00000000 00000000 00000000
00000000 00000000 00000000 00000000 00000000 00000000 00000000 00000000
00000000 00000000 00000000 00000000 00000000 00000000 00000000 00000000
00000000 00000000 00000000 00000000 00000000 00000000 00000000 00000000
00000000 00000000 00000000 00000000 00000000 00000000 00000000 00000000
00000000 00000000 00000000 00000000 00000000 00000000 00000000 00000000
00000000 00000000 00000000 00000000 00000000 00000000 00000000 00000000
00000000 00000000 00000000 00000000 00000000 00000000 00000000 00000000
00000000 00000000 00000000 00000000 00000000 00000000 00000000 00000000
00000000 00000000 00000000 00000000 00000000 00000000 00000000 00000000
00000000 00000000 00000000 00000000 00000000 00000000 00000000 00000000
00000000 00000000 00000000 00000000 00000000 00000000 00000000 00000000
00000000 00000000 00000000 00000000 00000000 00000000 00000000 00000000
00000000 00000000 00000000 00000000 00000000 00000000 00000000 00000000
00000000 00000000 00000000 00000000 00000000 00000000 00000000 00000000
00000000 00000000 00000000 00000000 00000000 00000000 00000000 00000000
00000000 00000000 00000000 00000000 00000000 00000000 00000000 00000000
00000000 00000000 00000000 00000000 00000000 00000000 00000000 00000000
00000000 00000000 00000000 00000000 00000000 00000000 00000000 00000000
00000313 B8000000 00000000 00000000 00000000 00000000 00000000 00000000
00000000 00000000 00000000 00000000 00000000 00000000 00000000 00000000
00000000 00000000 00000000 00000000 00000000 00000000 00000000 00000000
00000000 00000000 00000000 00000000 00000000 00000000 00000000 00000000
00000000 00000000 00000000 00000000 00000000 00000000 00000000 00000000
00000000 00000000 00000000 00000000 00000000 00000000 00000000 00000000
00000000 00000000 00000000 00000000 00000000 00000000 00000000 00000000
00000000 00000000 00000000 00000000 00000000 00000000 00000000 00000000
00000000 00000000 00000000 00000000 00000000 00000000 00000000 00000000
00000000 00000000 00000000 00000000 00000000 00000000 00000000 00000000
00000000 00000000 00000000 00000000 00000000 00000000 00000000 00000000
00000000 00000000 00000000 00000000 00000000 00000000 00000000 00000000
00000000 00000000 00000000 00000000 00000000 00000000 00000000 00000000
00000000 00000000 00000000 00000000 00000000 00000000 00000000 00000000
00000000 00000000 00000000 00000000 00000000 00000000 00000000 00000000
00000000 00000000 00000000 00000000 00000000 00000000 00000000 00000000
00000000 00000000 00000000 00000000 00000000 00000000 00000000 00000000
00000000 00000000 00000000 00000000 00000000 00000000 00000000 00000000
00000000 00000000 00000000 00000000 00000000 00000000 00000000 00000000
00000000 00000000 00000000 00000000 00000000 00000000 00000000 00000000
00000000 00000000 00000000 00000000 00000000 00000000 00000000 00000000
00000000 00000000 00000000 00000000 00000000 00000000 00000000 00000000
00000000 00000000 00000000 00000000 00000000 00000000 00000000 00000000
00000000 00000000 00000000 00000000 00000000 00000000 00000000 00000000
00000000 00000000 00000000 00000000 00000000 00000000 00000000 00000000
00000000 00000000 00000000 00000000 00000000 00000000 00000000 00000000
00000000 00000000 00000000 00000000 00000000 00000000 00000000 00000000
00000000 00000000 00000000 00000000 00000000 00000000 00000000 00000000
00000000 00000000 00000000 00000000 00000000 00000000 00000000 00000000
00000000 00000000 00000000 00000000 00000000 00000000 00000000 00000000
00000000 00000000 00000000 00000000 00000000 00000000 00000000 00000000
00000000 00000000 00000000 00000000 00000000 00000000 00000000 00000000
00000000 00000000 00000000 00000000 00000000 00000000 00000000 00000000
00000000 00000000 00000000 00000000 00000000 00000000 00000000 00000000
00000000 00000000 00000000 00000000 00000000 00000000 00000000 00000000
00000000 00000000 00000000 00000000 00000000 00000000 00000000 00000000
00000000 00000000 00000000 00000000 00000000 00000000 00000000 00000000
00000000 00000000 00000000 00000000 00000000 00000000 00000000 00000000
00000000 00000000 00000000 00000000 00000000 00000000 00000000 00000000
00000000 00000000 00000000 00000000 00000000 00000000 00000000 00000000
00000000 00000000 00000000 00000000 00000000 00000000 00000000 00000000
00000000 00000000 00000000 00000000 00000000 00000000 00000000 00000000
00000000 00000000 00000000 00000000 00000000 00000000 00000000 00000000
00000000 00000000 00000000 00000000 00000000 00000000 00000000 00000000
00000000 00000000 00000000 00000000 00000000 00000000 00000000 00000000
00000000 00000000 00000000 00000000 00000000 00000000 00000000 00000000
00000000 00000000 00000000 00000000 00000000 00000000 00000000 00000000
00000000 00000000 00000000 00000000 00000000 00000000 00000000 00000000
00000000 00000000 00000000 00000000 00000000 00000000 00000000 00000000
00000000 00000000 00000000 00000000 00000000 00000000 00000000 00000000
00000000 00000000 00000000 00000000 00000000 00000000 00000000 00000000
00000000 00000000 00000000 00000000 00000000 00000000 00000000 00000000
00000000 00000000 00000000 00000000 00000000 00000000 00000000 00000000
00000000 00000000 00000000 00000000 00000000 00000000 00000000 00000000
00000000 00000000 00000000 00000000 00000000 00000000 00000000 00000000
00000000 00000000 00000000 00000000 00000000 00000000 00000000 00000000
00000000 00000000 00000000 00000000 00000000 00000000 00000000 00000000
00000000 00000000 00000000 00000000 00000000 00000000 00000000 00000000
00000000 00000000 00000000 00000000 00000000 00000000 00000000 00000000
00000000 00000000 00000000 00000000 00000000 00000000 00000000 00000000
00000000 00000000 00000000 00000000 00000000 00000000 00000000 00000000
00000000 00000000 00000000 00000000 00000000 00000000 00000000 00000000
00000000 00000000 00000000 00000000 00000000 00000000 00000000 00000000
00000000 00000000 00000000 00000000 00000000 00000000 00000000 00000000
00000000 00000000 00000000 00000000 00000000 00000000 00000000 00000000
00000000 00000000 00000000 00000000 00000000 00000000 00000000 00000000
00000000 00000000 00000000 00000000 00000000 00000000 00000000 00000000
00000000 00000000 00000000 00000000 00000000 00000000 00000000 00000000
00000000 00000000 00000000 00000000 00000000 00000000 00000000 00000000
00000000 00000000 00000000 00000000 00000000 00000000 00000000 00000000
00000000 00000000 00000000 00000000 00000000 00000000 00000000 00000000
00000000 00000000 00000000 00000000 00000000 00000000 00000000 00000000
00000000 00000000 00000000 00000000 00000000 00000000 00000000 00000000
00000000 00000000 00000000 00000000 00000000 00000000 00000000 00000000
00000000 00000000 00000000 00000000 00000000 00000000 00000000 00000000
00000000 00000000 00000000 00000000 00000000 00000000 00000000 00000000
00000000 00000000 00000000 00000000 00000000 00000000 00000000 00000000
00000000 00000000 00000000 00000000 00000000 00000000 00000000 00000000
00000000 00000000 00000000 00000000 00000000 00000000 00000000 00000000
00000000 00000000 00000000 00000000 00000000 00000000 00000000 00000000
00000000 00000000 00000000 00000000 00000000 00000000 00000000 00000000
00000000 00000000 00000000 00000000 00000000 00000000 00000000 00000000
00000000 00000000 00000000 00000000 00000000 00000000 00000000 00000000
00000000 00000000 00000000 00000000 00000000 00000000 00000000 00000000
00000000 00000000 00000000 00000000 00000000 00000000 00000000 00000000
00000000 00000000 00000000 00000000 00000000 00000000 00000000 00000000
00000000 00000000 00000000 00000000 00000000 00000000 00000000 00000000
00000000 00000000 00000000 00000000 00000000 00000000 00000000 00000000
00000000 00000000 00000000 00000000 00000000 00000000 00000000 00000000
00000000 00000000 00000000 00000000 00000000 00000000 00000000 00000000
00000000 00000000 00000000 00000000 00000000 00000000 00000000 00000000
00000000 00000000 00000000 00000000 00000000 00000000 00000000 00000000
00000000 00000000 00000000 00000000 00000000 00000000 00000000 00000000
00000000 00000000 00000000 00000000 00000000 00000000 00000000 00000000
00000000 00000000 00000000 00000000 00000000 00000000 00000000 00000000
00000000 00000000 00000000 00000000 00000000 00000000 00000000 00000000
00000000 00000000 00000000 00000000 00000000 00000000 00000000 00000000
00000000 00000000 00000000 00000000 00000000 00000000 00000000 00000000
00000000 00000000 00000000 00000000 00000000 00000000 00000000 00000000
00000000 00000000 00000000 00000000 00000000 00000000 00000000 00000000
00000000 00000000 00000000 00000000 00000000 00000000 00000000 00000000
00000000 00000000 00000000 00000000 00000000 00000000 00000000 00000000
00000000 00000000 00000000 00000000 00000000 00000000 00000000 00000000
00000000 00000000 00000000 00000000 00000000 00000000 00000000 00000000
00000000 00000000 00000000 00000000 00000000 00000000 00000000 00000000
00000000 00000000 00000000 00000000 00000000 00000000 00000000 00000000
00000000 00000000 00000000 00000000 00000000 00000000 00000000 00000000
00000000 00000000 00000000 00000000 00000000 00000000 00000000 00000000
00000000 00000000 00000000 00000000 00000000 00000000 00000000 00000000
00000000 00000000 00000000 00000000 00000000 00000000 00000000 00000000
00000000 00000000 00000000 00000000 00000000 00000000 00000000 00000000
00000000 00000000 00000000 00000000 00000000 00000000 00000000 00000000
00000000 00000000 00000000 00000000 00000000 00000000 00000000 00000000
00000000 00000000 00000000 00000000 00000000 00000000 00000000 00000000
00000000 00000000 00000000 00000000 00000000 00000000 00000000 00000000
00000000 00000000 00000000 00000000 00000000 00000000 00000000 00000000
00000000 00000000 00000000 00000000 00000000 00000000 00000000 00000000
00000000 00000000 00000000 00000000 00000000 00000000 00000000 00000000
00000000 00000000 00000000 00000000 00000000 00000000 00000000 00000000
00000000 00000000 00000000 00000000 00000000 00000000 00000000 00000000
00000000 00000000 00000000 00000000 00000000 00000000 00000000 00000000
00000000 00000000 00000000 00000000 00000000 00000000 00000000 00000000
00000000 00000000 00000000 00000000 00000000 00000000 00000000 00000000
00000000 00000000 00000000 00000000 00000000 00000000 00000000 00000000
00000000 00000000 00000000 00000000 00000000 00000000 00000000 00000000
00000000 00000000 00000000 00000000 00000000 00000000 00000000 00000000
00000000 00000000 00000000 00000000 00000000 00000000 00000000 00000000
00000000 00000000 00000000 00000000 00000000 00000000 00000000 00000000
00000000 00000000 00000000 00000000 00000000 00000000 00000000 00000000
00000000 00000000 00000000 00000000 00000000 00000000 00000000 00000000
00000000 00000000 00000000 00000000 00000000 00000000 00000000 00000000
00000000 00000000 00000000 00000000 00000000 00000000 00000000 00000000
00000000 00000000 00000000 00000000 00000000 00000000 00000000 00000000
00000000 00000000 00000000 00000000 00000000 00000000 00000000 00000000
00000000 00000000 00000000 00000000 00000000 00000000 00000000 00000000
00000000 00000000 00000000 00000000 00000000 00000000 00000000 00000000
00000000 00000000 00000000 00000000 00000000 00000000 00000000 00000000
00000000 00000000 00000000 00000000 00000000 00000000 00000000 00000000
00000000 00000000 00000000 00000000 00000000 00000000 00000000 00000000
00000000 00000000 00000000 00000000 00000000 00000000 00000000 00000000
00000000 00000000 00000000 00000000 00000000 00000000 00000000 00000000
00000000 00000000 00000000 00000000 00000000 00000000 00000000 00000000
00000000 00000000 00000000 00000000 00000000 00000000 00000000 00000000
00000000 00000000 00000000 00000000 00000000 00000000 00000000 00000000
00000000 00000000 00000000 00000000 00000000 00000000 00000000 00000000
00000000 00000000 00000000 00000000 00000000 00000000 00000000 00000000
00000000 00000000 00000000 00000000 00000000 00000000 00000000 00000000
00000000 00000000 00000000 00000000 00000000 00000000 00000000 00000000
00000000 00000000 00000000 00000000 00000000 00000000 00000000 00000000
00000000 00000000 00000000 00000000 00000000 00000000 00000000 00000000
00000000 00000000 00000000 00000000 00000000 00000000 00000000 00000000
00000000 00000000 00000000 00000000 00000000 00000000 00000000 00000000
00000000 00000000 00000000 00000000 00000000 00000000 00000000 00000000
00000000 00000000 00000000 00000000 00000000 00000000 00000000 00000000
00000000 00000000 00000000 00000000 00000000 00000000 00000000 00000000
00000000 00000000 00000000 00000000 00000000 00000000 00000000 00000000
00000000 00000000 00000000 00000000 00000000 00000000 00000000 00000000
00000000 00000000 00000000 00000000 00000000 00000000 00000000 00000000
0005002E 000B0200 00000200 00010600 00240381 0A130381 0A160681 0A000380
03020680 03000381 09090681 09000100 00000900 1200051B 034E1A03 00090404
0C040907 560E04A2 5330514F 10000000 0000F000 00000000 0001234D 064F1000
00000000 A0000000 00000001 234D064F 10000000 0000A000 00000000 0001234D
06820300 0000C900 EF12C702 0001CA0C 0100FF00 10010000 00020100 A74CA005
80008101 0D4F09A0 00000559 10100001 4F08A000 00015100 0000A005 0403B000
01810116 04010004 0100301E 8010A000 00008710 02FFFFFF FF890403 00FF8104
02000100 82040200 0100A72C A0058000 81010E4F 09A00000 05591010 00024F08
A0000001 51000000 A0050403 B0000081 01160401 00040100 AA07A005 80008101
10