rec1value ProfileElement ::= header : {
  major-version 2,
  minor-version 0,
  profileType "Sierra Wireless UICC-G Mono prof",
  iccid '89211380007175100017'H,
  eUICC-Mandatory-services {
    usim NULL,
    isim NULL,
    milenage NULL,
    gba-usim NULL,
    gba-isim NULL,
    javacard NULL
  },
  eUICC-Mandatory-GFSTEList {
    { 2 23 143 1 2 1 },
    { 2 23 143 1 2 4 },
    { 2 23 143 1 2 7 },
    { 2 23 143 1 2 5 },
    { 2 23 143 1 2 8 },
    { 2 23 143 1 2 9 },
    { 2 23 143 1 2 3 }
  }
}
rec2value ProfileElement ::= mf : {
  mf-header {
    mandated NULL,
    identification 0
  },
  templateID { 2 23 143 1 2 1 },
  mf {
    fileDescriptor : {
      fileDescriptor '7821'H,
      lcsi '05'H,
      securityAttributesReferenced '02'H,
      pinStatusTemplateDO '01'H
    }
  },
  ef-pl {
    fileDescriptor : {
      fileDescriptor '4121'H,
      lcsi '05'H,
      securityAttributesReferenced '10'H,
      efFileSize '0A'H,
      shortEFID '28'H
    },
    fillFileContent : '454E'H
  },
  ef-iccid {
    fileDescriptor : {
      fileDescriptor '4121'H,
      lcsi '05'H,
      securityAttributesReferenced '0F'H,
      shortEFID '10'H
    },
    fillFileContent : '98123108001757010071'H
  },
  ef-dir {
    fileDescriptor : {
      fileDescriptor '42210026'H,
      lcsi '05'H,
      securityAttributesReferenced '08'H,
      efFileSize '72'H,
      shortEFID 'F0'H
    },
    fillFileContent : '61184F10A0000000871002FFFFFFFF890302000050045553494D'H,
    fillFileOffset : 12,
    fillFileContent : '61184F10A0000000871004FFFFFFFF890302000050044953494D'H
  },
  ef-arr {
    fileDescriptor : {
      fileDescriptor '42210030'H,
      lcsi '05'H,
      securityAttributesReferenced '01'H,
      efFileSize '0510'H,
      shortEFID '30'H
    },
    fillFileContent : '8401D4A40683010A950108800101900080011EA40683010A950108'H,
    fillFileOffset : 21,
    fillFileContent : '8C02A0E89000800107A40683010A950108'H,
    fillFileOffset : 31,
    fillFileContent : '800104A40683010A950108'H,
    fillFileOffset : 37,
    fillFileContent : '800104A40683010A9501088401D4A40683010A950108'H,
    fillFileOffset : 26,
    fillFileContent : '8001019000'H,
    fillFileOffset : 43,
    fillFileContent : '8401D4A40683010A950108800101900080011EA40683010A950108'H,
    fillFileOffset : 21,
    fillFileContent : '80011B9700800104A40683010A950108'H,
    fillFileOffset : 32,
    fillFileContent : '800101900080011EA40683010A950108'H,
    fillFileOffset : 32,
    fillFileContent : '80011FA40683010A950108'H,
    fillFileOffset : 37,
    fillFileContent : '8C02A0E89000800147A40683010A950108'H,
    fillFileOffset : 31,
    fillFileContent : '8C02A0E890008001079000'H,
    fillFileOffset : 37,
    fillFileContent : '8401D4A40683010A950108800101900080015EA40683010A950108'H,
    fillFileOffset : 21,
    fillFileContent : '8401D4A40683010A950108800103900080015CA40683010A950108'H,
    fillFileOffset : 21,
    fillFileContent : '8401D4A40683010A950108800101A40683010195010880015EA40683010A950108'H,
    fillFileOffset : 15,
    fillFileContent : '8401D4A40683010A9501088001019000800102970080015CA40683010A950108'H,
    fillFileOffset : 16,
    fillFileContent : '8401D4A40683010A9501088001019000800102A40683010195010880015CA40683010A950108'H
  },
  ef-umpc {
    doNotCreate : NULL
  }
}
rec3value ProfileElement ::= pinCodes : {
  pin-Header {
    mandated NULL,
    identification 1
  },
  pinCodes pinconfig : {
    {
      keyReference pinAppl1,
      pinValue '31313131FFFFFFFF'H,
      unblockingPINReference pukAppl1,
      pinAttributes 6,
      maxNumOfAttemps-retryNumLeft 51
    },
    {
      keyReference adm1,
      pinValue '933F57845F706921'H,
      pinAttributes 3,
      maxNumOfAttemps-retryNumLeft 170
    }
  }
}
rec4value ProfileElement ::= pukCodes : {
  puk-Header {
    mandated NULL,
    identification 2
  },
  pukCodes {
    {
      keyReference pukAppl1,
      pukValue '3132333435363738'H,
      maxNumOfAttemps-retryNumLeft 170
    },
    {
      keyReference secondPUKAppl1,
      pukValue '3132333435363738'H,
      maxNumOfAttemps-retryNumLeft 170
    }
  }
}
rec5value ProfileElement ::= usim : {
  usim-header {
    mandated NULL,
    identification 3
  },
  templateID { 2 23 143 1 2 4 },
  adf-usim {
    fileDescriptor : {
      fileID '7FF1'H,
      dfName 'A0000000871002FFFFFFFF8903020000'H,
      lcsi '05'H,
      securityAttributesReferenced '0A'H,
      pinStatusTemplateDO '0181'H
    }
  },
  ef-imsi {
    fileDescriptor : {
      fileDescriptor '4121'H,
      lcsi '05'H,
      securityAttributesReferenced '07'H,
      shortEFID '38'H
    },
    fillFileContent : '084981041000200010'H
  },
  ef-arr {
    fileDescriptor : {
      fileDescriptor '42210030'H,
      lcsi '05'H,
      securityAttributesReferenced '01'H,
      efFileSize '0360'H,
      shortEFID 'B8'H
    },
    fillFileContent : '8401D4A40683010A950108800101900080015EA40683010A950108'H,
    fillFileOffset : 21,
    fillFileContent : '8C02A0E89000800147A40683010A950108'H,
    fillFileOffset : 31,
    fillFileContent : '840132A40683010A9501088401D4A40683010A950108800101900080015EA40683010A950108'H,
    fillFileOffset : 10,
    fillFileContent : '8401D4A40683010A950108800103900080015CA40683010A950108'H,
    fillFileOffset : 21,
    fillFileContent : '840132A40683010A9501088401D4A40683010A950108800103900080015CA40683010A950108'H,
    fillFileOffset : 10,
    fillFileContent : '8401D4A40683010A950108800101A40683010195010880015EA40683010A950108'H,
    fillFileOffset : 15,
    fillFileContent : '800101A40683010195010880011EA40683010A950108'H,
    fillFileOffset : 26,
    fillFileContent : '800103A40683010195010880011CA40683010A950108'H,
    fillFileOffset : 26,
    fillFileContent : '800101900080011EA40683010A950108'H,
    fillFileOffset : 32,
    fillFileContent : '8401D4A40683010A950108800103A40683010195010880015CA40683010A950108'H,
    fillFileOffset : 15,
    fillFileContent : '8401D4A40683010A9501088001019000800102A40683010195010880015CA40683010A950108'H,
    fillFileOffset : 10,
    fillFileContent : '8C02A0E89000800107A40683010A950108'H,
    fillFileOffset : 31,
    fillFileContent : '8401D4A40683010A950108800101A406830101950108800102A40683018195010880015CA40683010A950108'H,
    fillFileOffset : 4,
    fillFileContent : '800101A406830101950108800102A40683018195010880011CA40683010A950108'H,
    fillFileOffset : 15,
    fillFileContent : '8401329700800103A406830101950108800118A40683010A950108'H,
    fillFileOffset : 21,
    fillFileContent : '840132A406830101950108800101A406830101950108800102A406830181950108800118A40683010A950108'H,
    fillFileOffset : 4,
    fillFileContent : '800101970080011EA40683010A950108'H,
    fillFileOffset : 32,
    fillFileContent : '80011B9700800104A40683010A950108'H
  },
  ef-keys {
    fileDescriptor : {
      fileDescriptor '4121'H,
      lcsi '05'H,
      securityAttributesReferenced '08'H,
      shortEFID '40'H
    },
    fillFileContent : '07'H
  },
  ef-keysPS {
    fileDescriptor : {
      fileDescriptor '4121'H,
      lcsi '05'H,
      securityAttributesReferenced '08'H,
      shortEFID '48'H
    },
    fillFileContent : '07'H
  },
  ef-hpplmn {
    fileDescriptor : {
      fileDescriptor '4121'H,
      lcsi '05'H,
      securityAttributesReferenced '07'H,
      shortEFID '90'H
    },
    fillFileContent : '01'H
  },
  ef-ust {
    fileDescriptor : {
      fileDescriptor '4121'H,
      lcsi '05'H,
      securityAttributesReferenced '06'H,
      efFileSize '0C'H,
      shortEFID '20'H
    },
    fillFileContent : 'AEEF100D273E000048023000'H
  },
  ef-fdn {
    fileDescriptor : {
      fileDescriptor '4221001A'H,
      lcsi '05'H,
      securityAttributesReferenced '0E'H,
      shortEFID ''H
    },
    fillFileContent : 'FFFFFFFFFFFFFFFFFFFFFFFFFFFFFFFFFFFFFFFFFFFFFFFFFFFF'H,
    fillFileContent : 'FFFFFFFFFFFFFFFFFFFFFFFFFFFFFFFFFFFFFFFFFFFFFFFFFFFF'H,
    fillFileContent : 'FFFFFFFFFFFFFFFFFFFFFFFFFFFFFFFFFFFFFFFFFFFFFFFFFFFF'H,
    fillFileContent : 'FFFFFFFFFFFFFFFFFFFFFFFFFFFFFFFFFFFFFFFFFFFFFFFFFFFF'H,
    fillFileContent : 'FFFFFFFFFFFFFFFFFFFFFFFFFFFFFFFFFFFFFFFFFFFFFFFFFFFF'H,
    fillFileContent : 'FFFFFFFFFFFFFFFFFFFFFFFFFFFFFFFFFFFFFFFFFFFFFFFFFFFF'H,
    fillFileContent : 'FFFFFFFFFFFFFFFFFFFFFFFFFFFFFFFFFFFFFFFFFFFFFFFFFFFF'H,
    fillFileContent : 'FFFFFFFFFFFFFFFFFFFFFFFFFFFFFFFFFFFFFFFFFFFFFFFFFFFF'H,
    fillFileContent : 'FFFFFFFFFFFFFFFFFFFFFFFFFFFFFFFFFFFFFFFFFFFFFFFFFFFF'H,
    fillFileContent : 'FFFFFFFFFFFFFFFFFFFFFFFFFFFFFFFFFFFFFFFFFFFFFFFFFFFF'H,
    fillFileContent : 'FFFFFFFFFFFFFFFFFFFFFFFFFFFFFFFFFFFFFFFFFFFFFFFFFFFF'H,
    fillFileContent : 'FFFFFFFFFFFFFFFFFFFFFFFFFFFFFFFFFFFFFFFFFFFFFFFFFFFF'H,
    fillFileContent : 'FFFFFFFFFFFFFFFFFFFFFFFFFFFFFFFFFFFFFFFFFFFFFFFFFFFF'H,
    fillFileContent : 'FFFFFFFFFFFFFFFFFFFFFFFFFFFFFFFFFFFFFFFFFFFFFFFFFFFF'H,
    fillFileContent : 'FFFFFFFFFFFFFFFFFFFFFFFFFFFFFFFFFFFFFFFFFFFFFFFFFFFF'H,
    fillFileContent : 'FFFFFFFFFFFFFFFFFFFFFFFFFFFFFFFFFFFFFFFFFFFFFFFFFFFF'H,
    fillFileContent : 'FFFFFFFFFFFFFFFFFFFFFFFFFFFFFFFFFFFFFFFFFFFFFFFFFFFF'H,
    fillFileContent : 'FFFFFFFFFFFFFFFFFFFFFFFFFFFFFFFFFFFFFFFFFFFFFFFFFFFF'H,
    fillFileContent : 'FFFFFFFFFFFFFFFFFFFFFFFFFFFFFFFFFFFFFFFFFFFFFFFFFFFF'H,
    fillFileContent : 'FFFFFFFFFFFFFFFFFFFFFFFFFFFFFFFFFFFFFFFFFFFFFFFFFFFF'H
  },
  ef-sms {
    fileDescriptor : {
      fileDescriptor '422100B0'H,
      lcsi '05'H,
      securityAttributesReferenced '08'H,
      efFileSize '2260'H,
      shortEFID ''H
    },
    fillFileContent : 'FFFFFFFFFFFFFFFFFFFFFFFFFFFFFFFFFFFFFFFFFFFFFFFFFFFFFFFFFFFFFFFFFFFFFFFFFFFFFFFFFFFFFFFFFFFFFFFF'H,
    fillFileContent : 'FFFFFFFFFFFFFFFFFFFFFFFFFFFFFFFFFFFFFFFFFFFFFFFFFFFFFFFFFFFFFFFFFFFFFFFFFFFFFFFFFFFFFFFFFFFFFFFF'H,
    fillFileContent : 'FFFFFFFFFFFFFFFFFFFFFFFFFFFFFFFFFFFFFFFFFFFFFFFFFFFFFFFFFFFFFFFFFFFFFFFFFFFFFFFFFFFFFFFFFFFFFFFF'H,
    fillFileContent : 'FFFFFFFFFFFFFFFFFFFFFFFFFFFFFFFFFFFFFFFFFFFFFFFFFFFFFFFFFFFFFFFFFFFFFFFFFFFFFFFFFFFFFFFFFFFFFFFF'H,
    fillFileContent : 'FFFFFFFFFFFFFFFFFFFFFFFFFFFFFFFFFFFFFFFFFFFFFFFFFFFFFFFFFFFFFFFFFFFFFFFFFFFFFFFFFFFFFFFFFFFFFFFF'H,
    fillFileContent : 'FFFFFFFFFFFFFFFFFFFFFFFFFFFFFFFFFFFFFFFFFFFFFFFFFFFFFFFFFFFFFFFFFFFFFFFFFFFFFFFFFFFFFFFFFFFFFFFF'H,
    fillFileContent : 'FFFFFFFFFFFFFFFFFFFFFFFFFFFFFFFFFFFFFFFFFFFFFFFFFFFFFFFFFFFFFFFFFFFFFFFFFFFFFFFFFFFFFFFFFFFFFFFF'H,
    fillFileContent : 'FFFFFFFFFFFFFFFFFFFFFFFFFFFFFFFFFFFFFFFFFFFFFFFFFFFFFFFFFFFFFFFFFFFFFFFFFFFFFFFFFFFFFFFFFFFFFFFF'H,
    fillFileContent : 'FFFFFFFFFFFFFFFFFFFFFFFFFFFFFFFFFFFFFFFFFFFFFFFFFFFFFFFFFFFFFFFFFFFFFFFFFFFFFFFFFFFFFFFFFFFFFFFF'H,
    fillFileContent : 'FFFFFFFFFFFFFFFFFFFFFFFFFFFFFFFFFFFFFFFFFFFFFFFFFFFFFFFFFFFFFFFFFFFFFFFFFFFFFFFFFFFFFFFFFFFFFFFF'H,
    fillFileContent : 'FFFFFFFFFFFFFFFFFFFFFFFFFFFFFFFFFFFFFFFFFFFFFFFFFFFFFFFFFFFFFFFFFFFFFFFFFFFFFFFFFFFFFFFFFFFFFFFF'H,
    fillFileContent : 'FFFFFFFFFFFFFFFFFFFFFFFFFFFFFFFFFFFFFFFFFFFFFFFFFFFFFFFFFFFFFFFFFFFFFFFFFFFFFFFFFFFFFFFFFFFFFFFF'H,
    fillFileContent : 'FFFFFFFFFFFFFFFFFFFFFFFFFFFFFFFFFFFFFFFFFFFFFFFFFFFFFFFFFFFFFFFFFFFFFFFFFFFFFFFFFFFFFFFFFFFFFFFF'H,
    fillFileContent : 'FFFFFFFFFFFFFFFFFFFFFFFFFFFFFFFFFFFFFFFFFFFFFFFFFFFFFFFFFFFFFFFFFFFFFFFFFFFFFFFFFFFFFFFFFFFFFFFF'H,
    fillFileContent : 'FFFFFFFFFFFFFFFFFFFFFFFFFFFFFFFFFFFFFFFFFFFFFFFFFFFFFFFFFFFFFFFFFFFFFFFFFFFFFFFFFFFFFFFFFFFFFFFF'H,
    fillFileContent : 'FFFFFFFFFFFFFFFFFFFFFFFFFFFFFFFFFFFFFFFFFFFFFFFFFFFFFFFFFFFFFFFFFFFFFFFFFFFFFFFFFFFFFFFFFFFFFFFF'H,
    fillFileContent : 'FFFFFFFFFFFFFFFFFFFFFFFFFFFFFFFFFFFFFFFFFFFFFFFFFFFFFFFFFFFFFFFFFFFFFFFFFFFFFFFFFFFFFFFFFFFFFFFF'H,
    fillFileContent : 'FFFFFFFFFFFFFFFFFFFFFFFFFFFFFFFFFFFFFFFFFFFFFFFFFFFFFFFFFFFFFFFFFFFFFFFFFFFFFFFFFFFFFFFFFFFFFFFF'H,
    fillFileContent : 'FFFFFFFFFFFFFFFFFFFFFFFFFFFFFFFFFFFFFFFFFFFFFFFFFFFFFFFFFFFFFFFFFFFFFFFFFFFFFFFFFFFFFFFFFFFFFFFF'H,
    fillFileContent : 'FFFFFFFFFFFFFFFFFFFFFFFFFFFFFFFFFFFFFFFFFFFFFFFFFFFFFFFFFFFFFFFFFFFFFFFFFFFFFFFFFFFFFFFFFFFFFFFF'H,
    fillFileContent : 'FFFFFFFFFFFFFFFFFFFFFFFFFFFFFFFFFFFFFFFFFFFFFFFFFFFFFFFFFFFFFFFFFFFFFFFFFFFFFFFFFFFFFFFFFFFFFFFF'H,
    fillFileContent : 'FFFFFFFFFFFFFFFFFFFFFFFFFFFFFFFFFFFFFFFFFFFFFFFFFFFFFFFFFFFFFFFFFFFFFFFFFFFFFFFFFFFFFFFFFFFFFFFF'H,
    fillFileContent : 'FFFFFFFFFFFFFFFFFFFFFFFFFFFFFFFFFFFFFFFFFFFFFFFFFFFFFFFFFFFFFFFFFFFFFFFFFFFFFFFFFFFFFFFFFFFFFFFF'H,
    fillFileContent : 'FFFFFFFFFFFFFFFFFFFFFFFFFFFFFFFFFFFFFFFFFFFFFFFFFFFFFFFFFFFFFFFFFFFFFFFFFFFFFFFFFFFFFFFFFFFFFFFF'H,
    fillFileContent : 'FFFFFFFFFFFFFFFFFFFFFFFFFFFFFFFFFFFFFFFFFFFFFFFFFFFFFFFFFFFFFFFFFFFFFFFFFFFFFFFFFFFFFFFFFFFFFFFF'H,
    fillFileContent : 'FFFFFFFFFFFFFFFFFFFFFFFFFFFFFFFFFFFFFFFFFFFFFFFFFFFFFFFFFFFFFFFFFFFFFFFFFFFFFFFFFFFFFFFFFFFFFFFF'H,
    fillFileContent : 'FFFFFFFFFFFFFFFFFFFFFFFFFFFFFFFFFFFFFFFFFFFFFFFFFFFFFFFFFFFFFFFFFFFFFFFFFFFFFFFFFFFFFFFFFFFFFFFF'H,
    fillFileContent : 'FFFFFFFFFFFFFFFFFFFFFFFFFFFFFFFFFFFFFFFFFFFFFFFFFFFFFFFFFFFFFFFFFFFFFFFFFFFFFFFFFFFFFFFFFFFFFFFF'H,
    fillFileContent : 'FFFFFFFFFFFFFFFFFFFFFFFFFFFFFFFFFFFFFFFFFFFFFFFFFFFFFFFFFFFFFFFFFFFFFFFFFFFFFFFFFFFFFFFFFFFFFFFF'H,
    fillFileContent : 'FFFFFFFFFFFFFFFFFFFFFFFFFFFFFFFFFFFFFFFFFFFFFFFFFFFFFFFFFFFFFFFFFFFFFFFFFFFFFFFFFFFFFFFFFFFFFFFF'H,
    fillFileContent : 'FFFFFFFFFFFFFFFFFFFFFFFFFFFFFFFFFFFFFFFFFFFFFFFFFFFFFFFFFFFFFFFFFFFFFFFFFFFFFFFFFFFFFFFFFFFFFFFF'H,
    fillFileContent : 'FFFFFFFFFFFFFFFFFFFFFFFFFFFFFFFFFFFFFFFFFFFFFFFFFFFFFFFFFFFFFFFFFFFFFFFFFFFFFFFFFFFFFFFFFFFFFFFF'H,
    fillFileContent : 'FFFFFFFFFFFFFFFFFFFFFFFFFFFFFFFFFFFFFFFFFFFFFFFFFFFFFFFFFFFFFFFFFFFFFFFFFFFFFFFFFFFFFFFFFFFFFFFF'H,
    fillFileContent : 'FFFFFFFFFFFFFFFFFFFFFFFFFFFFFFFFFFFFFFFFFFFFFFFFFFFFFFFFFFFFFFFFFFFFFFFFFFFFFFFFFFFFFFFFFFFFFFFF'H,
    fillFileContent : 'FFFFFFFFFFFFFFFFFFFFFFFFFFFFFFFFFFFFFFFFFFFFFFFFFFFFFFFFFFFFFFFFFFFFFFFFFFFFFFFFFFFFFFFFFFFFFFFF'H,
    fillFileContent : 'FFFFFFFFFFFFFFFFFFFFFFFFFFFFFFFFFFFFFFFFFFFFFFFFFFFFFFFFFFFFFFFFFFFFFFFFFFFFFFFFFFFFFFFFFFFFFFFF'H,
    fillFileContent : 'FFFFFFFFFFFFFFFFFFFFFFFFFFFFFFFFFFFFFFFFFFFFFFFFFFFFFFFFFFFFFFFFFFFFFFFFFFFFFFFFFFFFFFFFFFFFFFFF'H,
    fillFileContent : 'FFFFFFFFFFFFFFFFFFFFFFFFFFFFFFFFFFFFFFFFFFFFFFFFFFFFFFFFFFFFFFFFFFFFFFFFFFFFFFFFFFFFFFFFFFFFFFFF'H,
    fillFileContent : 'FFFFFFFFFFFFFFFFFFFFFFFFFFFFFFFFFFFFFFFFFFFFFFFFFFFFFFFFFFFFFFFFFFFFFFFFFFFFFFFFFFFFFFFFFFFFFFFF'H,
    fillFileContent : 'FFFFFFFFFFFFFFFFFFFFFFFFFFFFFFFFFFFFFFFFFFFFFFFFFFFFFFFFFFFFFFFFFFFFFFFFFFFFFFFFFFFFFFFFFFFFFFFF'H,
    fillFileContent : 'FFFFFFFFFFFFFFFFFFFFFFFFFFFFFFFFFFFFFFFFFFFFFFFFFFFFFFFFFFFFFFFFFFFFFFFFFFFFFFFFFFFFFFFFFFFFFFFF'H,
    fillFileContent : 'FFFFFFFFFFFFFFFFFFFFFFFFFFFFFFFFFFFFFFFFFFFFFFFFFFFFFFFFFFFFFFFFFFFFFFFFFFFFFFFFFFFFFFFFFFFFFFFF'H,
    fillFileContent : 'FFFFFFFFFFFFFFFFFFFFFFFFFFFFFFFFFFFFFFFFFFFFFFFFFFFFFFFFFFFFFFFFFFFFFFFFFFFFFFFFFFFFFFFFFFFFFFFF'H,
    fillFileContent : 'FFFFFFFFFFFFFFFFFFFFFFFFFFFFFFFFFFFFFFFFFFFFFFFFFFFFFFFFFFFFFFFFFFFFFFFFFFFFFFFFFFFFFFFFFFFFFFFF'H,
    fillFileContent : 'FFFFFFFFFFFFFFFFFFFFFFFFFFFFFFFFFFFFFFFFFFFFFFFFFFFFFFFFFFFFFFFFFFFFFFFFFFFFFFFFFFFFFFFFFFFFFFFF'H,
    fillFileContent : 'FFFFFFFFFFFFFFFFFFFFFFFFFFFFFFFFFFFFFFFFFFFFFFFFFFFFFFFFFFFFFFFFFFFFFFFFFFFFFFFFFFFFFFFFFFFFFFFF'H,
    fillFileContent : 'FFFFFFFFFFFFFFFFFFFFFFFFFFFFFFFFFFFFFFFFFFFFFFFFFFFFFFFFFFFFFFFFFFFFFFFFFFFFFFFFFFFFFFFFFFFFFFFF'H,
    fillFileContent : 'FFFFFFFFFFFFFFFFFFFFFFFFFFFFFFFFFFFFFFFFFFFFFFFFFFFFFFFFFFFFFFFFFFFFFFFFFFFFFFFFFFFFFFFFFFFFFFFF'H,
    fillFileContent : 'FFFFFFFFFFFFFFFFFFFFFFFFFFFFFFFFFFFFFFFFFFFFFFFFFFFFFFFFFFFFFFFFFFFFFFFFFFFFFFFFFFFFFFFFFFFFFFFF'H,
    fillFileContent : 'FFFFFFFFFFFFFFFFFFFFFFFFFFFFFFFFFFFFFFFFFFFFFFFFFFFFFFFFFFFFFFFFFFFFFFFFFFFFFFFFFFFFFFFFFFFFFFFF'H
  },
  ef-smsp {
    fileDescriptor : {
      fileDescriptor '4221002C'H,
      lcsi '05'H,
      securityAttributesReferenced '08'H,
      efFileSize '01B8'H,
      shortEFID ''H
    },
    fillFileContent : '4D6F62697175695468696E6773'H,
    fillFileOffset : 31,
    fillFileContent : '456D707479'H,
    fillFileOffset : 39,
    fillFileContent : '456D707479'H
  },
  ef-smss {
    fileDescriptor : {
      fileDescriptor '4121'H,
      lcsi '05'H,
      securityAttributesReferenced '08'H,
      shortEFID ''H
    },
    fillFileContent : 'FFFF'H
  },
  ef-spn {
    doNotCreate : NULL
  },
  ef-est {
    fileDescriptor : {
      fileDescriptor '4121'H,
      lcsi '05'H,
      securityAttributesReferenced '0D'H,
      efFileSize '02'H,
      shortEFID '28'H
    },
    fillFileContent : '0000'H
  },
  ef-start-hfn {
    fileDescriptor : {
      fileDescriptor '4121'H,
      lcsi '05'H,
      securityAttributesReferenced '08'H,
      shortEFID '78'H
    },
    fillFileContent : 'F00000F00000'H
  },
  ef-threshold {
    fileDescriptor : {
      fileDescriptor '4121'H,
      lcsi '05'H,
      securityAttributesReferenced '07'H,
      shortEFID '80'H
    },
    fillFileContent : 'FFFFFF'H
  },
  ef-psloci {
    fileDescriptor : {
      fileDescriptor '4121'H,
      lcsi '05'H,
      securityAttributesReferenced '08'H,
      shortEFID '60'H
    },
    fillFileOffset : 7,
    fillFileContent : '1300140000FF01'H
  },
  ef-acc {
    fileDescriptor : {
      fileDescriptor '4121'H,
      lcsi '05'H,
      securityAttributesReferenced '07'H,
      shortEFID '30'H
    },
    fillFileContent : '0002'H
  },
  ef-fplmn {
    fileDescriptor : {
      fileDescriptor '4121'H,
      lcsi '05'H,
      securityAttributesReferenced '0A'H,
      shortEFID '68'H
    },
    fillFileContent : 'FFFFFFFFFFFFFFFFFFFFFFFF'H
  },
  ef-loci {
    fileDescriptor : {
      fileDescriptor '4121'H,
      lcsi '05'H,
      securityAttributesReferenced '08'H,
      shortEFID '58'H
    },
    fillFileOffset : 4,
    fillFileContent : '1300140000FF01'H
  },
  ef-ad {
    fileDescriptor : {
      fileDescriptor '4121'H,
      lcsi '05'H,
      securityAttributesReferenced '09'H,
      shortEFID '18'H
    },
    fillFileContent : '01000102'H
  },
  ef-ecc {
    fileDescriptor : {
      fileDescriptor '42210011'H,
      lcsi '05'H,
      securityAttributesReferenced '01'H,
      efFileSize 'AA'H,
      shortEFID '08'H
    },
	fillFileContent : 'FFFFFFFFFFFFFFFFFFFF'H
  },
  ef-netpar {
    fileDescriptor : {
      fileDescriptor '4121'H,
      lcsi '05'H,
      securityAttributesReferenced '0A'H,
      efFileSize '2E'H,
      shortEFID ''H
    }
  },
  ef-epsloci {
    fileDescriptor : {
      fileDescriptor '4121'H,
      lcsi '05'H,
      securityAttributesReferenced '0A'H,
      shortEFID 'F0'H
    },
    fillFileOffset : 12,
    fillFileContent : '130014000001'H
  },
  ef-epsnsc {
    fileDescriptor : {
      fileDescriptor '42210036'H,
      lcsi '05'H,
      securityAttributesReferenced '0A'H,
      efFileSize '36'H,
      shortEFID 'C0'H
    }
  }
}
rec6value ProfileElement ::= opt-usim : {
  optusim-header {
    mandated NULL,
    identification 4
  },
  templateID { 2 23 143 1 2 5 },
  ef-li {
    fileDescriptor : {
      fileDescriptor '4121'H,
      lcsi '05'H,
      securityAttributesReferenced '0B'H,
      efFileSize '0A'H,
      shortEFID '10'H
    },
    fillFileContent : '454E'H
  },
  ef-msisdn {
    fileDescriptor : {
      fileDescriptor '42210020'H,
      lcsi '05'H,
      securityAttributesReferenced '0A'H,
      efFileSize '80'H,
      shortEFID ''H
    },
    fillFileContent : 'FFFFFFFFFFFFFFFFFFFFFFFFFFFFFFFFFFFFFFFFFFFFFFFFFFFFFFFFFFFFFFFF'H,
    fillFileContent : 'FFFFFFFFFFFFFFFFFFFFFFFFFFFFFFFFFFFFFFFFFFFFFFFFFFFFFFFFFFFFFFFF'H,
    fillFileContent : 'FFFFFFFFFFFFFFFFFFFFFFFFFFFFFFFFFFFFFFFFFFFFFFFFFFFFFFFFFFFFFFFF'H,
    fillFileContent : 'FFFFFFFFFFFFFFFFFFFFFFFFFFFFFFFFFFFFFFFFFFFFFFFFFFFFFFFFFFFFFFFF'H
  },
  ef-cbmi {
    fileDescriptor : {
      fileDescriptor '4121'H,
      lcsi '05'H,
      securityAttributesReferenced '08'H,
      efFileSize '10'H,
      shortEFID ''H
    }
  },
  ef-cbmid {
    fileDescriptor : {
      fileDescriptor '4121'H,
      lcsi '05'H,
      securityAttributesReferenced '07'H,
      efFileSize '10'H,
      shortEFID '70'H
    }
  },
  ef-sdn {
    fileDescriptor : {
      fileDescriptor '42210018'H,
      lcsi '05'H,
      securityAttributesReferenced '07'H,
      shortEFID ''H
    },
    fillFileContent : 'FFFFFFFFFFFFFFFFFFFFFFFFFFFFFFFFFFFFFFFFFFFFFFFF'H,
    fillFileContent : 'FFFFFFFFFFFFFFFFFFFFFFFFFFFFFFFFFFFFFFFFFFFFFFFF'H,
    fillFileContent : 'FFFFFFFFFFFFFFFFFFFFFFFFFFFFFFFFFFFFFFFFFFFFFFFF'H,
    fillFileContent : 'FFFFFFFFFFFFFFFFFFFFFFFFFFFFFFFFFFFFFFFFFFFFFFFF'H,
    fillFileContent : 'FFFFFFFFFFFFFFFFFFFFFFFFFFFFFFFFFFFFFFFFFFFFFFFF'H,
    fillFileContent : 'FFFFFFFFFFFFFFFFFFFFFFFFFFFFFFFFFFFFFFFFFFFFFFFF'H,
    fillFileContent : 'FFFFFFFFFFFFFFFFFFFFFFFFFFFFFFFFFFFFFFFFFFFFFFFF'H,
    fillFileContent : 'FFFFFFFFFFFFFFFFFFFFFFFFFFFFFFFFFFFFFFFFFFFFFFFF'H,
    fillFileContent : 'FFFFFFFFFFFFFFFFFFFFFFFFFFFFFFFFFFFFFFFFFFFFFFFF'H,
    fillFileContent : 'FFFFFFFFFFFFFFFFFFFFFFFFFFFFFFFFFFFFFFFFFFFFFFFF'H
  },
  ef-ext2 {
    fileDescriptor : {
      fileDescriptor '4221000D'H,
      lcsi '05'H,
      securityAttributesReferenced '0E'H,
      efFileSize '0D'H,
      shortEFID ''H
    },
    fillFileContent : '00'H
  },
  ef-cbmir {
    fileDescriptor : {
      fileDescriptor '4121'H,
      lcsi '05'H,
      securityAttributesReferenced '08'H,
      efFileSize '20'H,
      shortEFID ''H
    }
  },
  ef-oplmnwact {
    fileDescriptor : {
      fileDescriptor '4121'H,
      lcsi '05'H,
      securityAttributesReferenced '06'H,
      efFileSize '50'H,
      shortEFID '88'H
    },
    fillFileContent : ''H
  },
  ef-hplmnwact {
    fileDescriptor : {
      fileDescriptor '4121'H,
      lcsi '05'H,
      securityAttributesReferenced '06'H,
      shortEFID '98'H
    },
    fillFileOffset : 3,
    fillFileContent : '0000'H
  },
  ef-smsr {
    fileDescriptor : {
      fileDescriptor '4221001E'H,
      lcsi '05'H,
      securityAttributesReferenced '08'H,
      efFileSize '5A'H,
      shortEFID ''H,
      proprietaryEFInfo {
        specialFileInformation '00'H,
        fillPattern '00'H
      }
    },
    fillFileContent : 'FFFFFFFFFFFFFFFFFFFFFFFFFFFFFFFFFFFFFFFFFFFFFFFFFFFFFFFFFFFF'H,
    fillFileContent : 'FFFFFFFFFFFFFFFFFFFFFFFFFFFFFFFFFFFFFFFFFFFFFFFFFFFFFFFFFFFF'H,
    fillFileContent : 'FFFFFFFFFFFFFFFFFFFFFFFFFFFFFFFFFFFFFFFFFFFFFFFFFFFFFFFFFFFF'H
  },
  ef-bdn {
    fileDescriptor : {
      fileDescriptor '4221001C'H,
      lcsi '05'H,
      securityAttributesReferenced '0E'H,
      efFileSize '0348'H,
      shortEFID ''H
    },
    fillFileContent : 'FFFFFFFFFFFFFFFFFFFFFFFFFFFFFFFFFFFFFFFFFFFFFFFFFFFFFFFF'H,
    fillFileContent : 'FFFFFFFFFFFFFFFFFFFFFFFFFFFFFFFFFFFFFFFFFFFFFFFFFFFFFFFF'H,
    fillFileContent : 'FFFFFFFFFFFFFFFFFFFFFFFFFFFFFFFFFFFFFFFFFFFFFFFFFFFFFFFF'H,
    fillFileContent : 'FFFFFFFFFFFFFFFFFFFFFFFFFFFFFFFFFFFFFFFFFFFFFFFFFFFFFFFF'H,
    fillFileContent : 'FFFFFFFFFFFFFFFFFFFFFFFFFFFFFFFFFFFFFFFFFFFFFFFFFFFFFFFF'H,
    fillFileContent : 'FFFFFFFFFFFFFFFFFFFFFFFFFFFFFFFFFFFFFFFFFFFFFFFFFFFFFFFF'H,
    fillFileContent : 'FFFFFFFFFFFFFFFFFFFFFFFFFFFFFFFFFFFFFFFFFFFFFFFFFFFFFFFF'H,
    fillFileContent : 'FFFFFFFFFFFFFFFFFFFFFFFFFFFFFFFFFFFFFFFFFFFFFFFFFFFFFFFF'H,
    fillFileContent : 'FFFFFFFFFFFFFFFFFFFFFFFFFFFFFFFFFFFFFFFFFFFFFFFFFFFFFFFF'H,
    fillFileContent : 'FFFFFFFFFFFFFFFFFFFFFFFFFFFFFFFFFFFFFFFFFFFFFFFFFFFFFFFF'H,
    fillFileContent : 'FFFFFFFFFFFFFFFFFFFFFFFFFFFFFFFFFFFFFFFFFFFFFFFFFFFFFFFF'H,
    fillFileContent : 'FFFFFFFFFFFFFFFFFFFFFFFFFFFFFFFFFFFFFFFFFFFFFFFFFFFFFFFF'H,
    fillFileContent : 'FFFFFFFFFFFFFFFFFFFFFFFFFFFFFFFFFFFFFFFFFFFFFFFFFFFFFFFF'H,
    fillFileContent : 'FFFFFFFFFFFFFFFFFFFFFFFFFFFFFFFFFFFFFFFFFFFFFFFFFFFFFFFF'H,
    fillFileContent : 'FFFFFFFFFFFFFFFFFFFFFFFFFFFFFFFFFFFFFFFFFFFFFFFFFFFFFFFF'H,
    fillFileContent : 'FFFFFFFFFFFFFFFFFFFFFFFFFFFFFFFFFFFFFFFFFFFFFFFFFFFFFFFF'H,
    fillFileContent : 'FFFFFFFFFFFFFFFFFFFFFFFFFFFFFFFFFFFFFFFFFFFFFFFFFFFFFFFF'H,
    fillFileContent : 'FFFFFFFFFFFFFFFFFFFFFFFFFFFFFFFFFFFFFFFFFFFFFFFFFFFFFFFF'H,
    fillFileContent : 'FFFFFFFFFFFFFFFFFFFFFFFFFFFFFFFFFFFFFFFFFFFFFFFFFFFFFFFF'H,
    fillFileContent : 'FFFFFFFFFFFFFFFFFFFFFFFFFFFFFFFFFFFFFFFFFFFFFFFFFFFFFFFF'H,
    fillFileContent : 'FFFFFFFFFFFFFFFFFFFFFFFFFFFFFFFFFFFFFFFFFFFFFFFFFFFFFFFF'H,
    fillFileContent : 'FFFFFFFFFFFFFFFFFFFFFFFFFFFFFFFFFFFFFFFFFFFFFFFFFFFFFFFF'H,
    fillFileContent : 'FFFFFFFFFFFFFFFFFFFFFFFFFFFFFFFFFFFFFFFFFFFFFFFFFFFFFFFF'H,
    fillFileContent : 'FFFFFFFFFFFFFFFFFFFFFFFFFFFFFFFFFFFFFFFFFFFFFFFFFFFFFFFF'H,
    fillFileContent : 'FFFFFFFFFFFFFFFFFFFFFFFFFFFFFFFFFFFFFFFFFFFFFFFFFFFFFFFF'H,
    fillFileContent : 'FFFFFFFFFFFFFFFFFFFFFFFFFFFFFFFFFFFFFFFFFFFFFFFFFFFFFFFF'H,
    fillFileContent : 'FFFFFFFFFFFFFFFFFFFFFFFFFFFFFFFFFFFFFFFFFFFFFFFFFFFFFFFF'H,
    fillFileContent : 'FFFFFFFFFFFFFFFFFFFFFFFFFFFFFFFFFFFFFFFFFFFFFFFFFFFFFFFF'H,
    fillFileContent : 'FFFFFFFFFFFFFFFFFFFFFFFFFFFFFFFFFFFFFFFFFFFFFFFFFFFFFFFF'H,
    fillFileContent : 'FFFFFFFFFFFFFFFFFFFFFFFFFFFFFFFFFFFFFFFFFFFFFFFFFFFFFFFF'H
  },
  ef-ext5 {
    fileDescriptor : {
      fileDescriptor '4221000D'H,
      lcsi '05'H,
      securityAttributesReferenced '08'H,
      efFileSize '0D'H,
      shortEFID ''H
    },
    fillFileContent : '00'H
  },
  ef-ccp2 {
    fileDescriptor : {
      fileDescriptor '4221000F'H,
      lcsi '05'H,
      securityAttributesReferenced '08'H,
      shortEFID 'B0'H
    },
    fillFileContent : 'FFFFFFFFFFFFFFFFFFFFFFFFFFFFFF'H,
    fillFileContent : 'FFFFFFFFFFFFFFFFFFFFFFFFFFFFFF'H,
    fillFileContent : 'FFFFFFFFFFFFFFFFFFFFFFFFFFFFFF'H,
    fillFileContent : 'FFFFFFFFFFFFFFFFFFFFFFFFFFFFFF'H,
    fillFileContent : 'FFFFFFFFFFFFFFFFFFFFFFFFFFFFFF'H
  },
  ef-acl {
    fileDescriptor : {
      fileDescriptor '4121'H,
      lcsi '05'H,
      securityAttributesReferenced '0D'H,
      efFileSize '64'H,
      shortEFID ''H
    },
    fillFileContent : '00'H
  },
  ef-cmi {
    fileDescriptor : {
      fileDescriptor '42210001'H,
      lcsi '05'H,
      securityAttributesReferenced '07'H,
      efFileSize '01'H,
      shortEFID ''H
    },
    fillFileContent : 'FF'H
  },
  ef-ici {
    fileDescriptor : {
      fileDescriptor '46210028'H,
      lcsi '05'H,
      securityAttributesReferenced '0F'H,
      efFileSize 'C8'H,
      shortEFID 'A0'H
    },
    fillFileOffset : 73,
    fillFileContent : '0000000000'H,
    fillFileOffset : 35,
    fillFileContent : '0000000000'H,
    fillFileOffset : 35,
    fillFileContent : '0000000000'H,
    fillFileOffset : 35,
    fillFileContent : '0000000000'H
  },
  ef-oci {
    fileDescriptor : {
      fileDescriptor '46210027'H,
      lcsi '05'H,
      securityAttributesReferenced '0F'H,
      efFileSize 'C3'H,
      shortEFID 'A8'H
    },
    fillFileOffset : 33,
    fillFileContent : '00000000'H,
    fillFileOffset : 35,
    fillFileContent : '00000000'H,
    fillFileOffset : 35,
    fillFileContent : '00000000'H,
    fillFileOffset : 35,
    fillFileContent : '00000000'H,
    fillFileOffset : 35,
    fillFileContent : '00000000'H
  },
  ef-ict {
    fileDescriptor : {
      fileDescriptor '46210003'H,
      lcsi '05'H,
      securityAttributesReferenced '10'H,
      shortEFID ''H,
      proprietaryEFInfo {
        specialFileInformation '00'H,
        fillPattern '00'H
      }
    },
    fillFileContent : 'FFFFFF'H
  },
  ef-oct {
    fileDescriptor : {
      fileDescriptor '46210003'H,
      lcsi '05'H,
      securityAttributesReferenced '10'H,
      shortEFID ''H,
      proprietaryEFInfo {
        specialFileInformation '00'H,
        fillPattern '00'H
      }
    },
    fillFileContent : 'FFFFFF'H
  },
  ef-aaem {
    fileDescriptor : {
      fileDescriptor '4121'H,
      lcsi '05'H,
      securityAttributesReferenced '08'H,
      shortEFID ''H
    },
    fillFileContent : '00'H
  },
  ef-pnn {
    fileDescriptor : {
      fileDescriptor '42210028'H,
      lcsi '05'H,
      securityAttributesReferenced '01'H,
      efFileSize 'C8'H,
      shortEFID 'C8'H
    },
    fillFileContent : '4305844D61940A4505844D61940A'H
  },
  ef-opl {
    fileDescriptor : {
      fileDescriptor '42210008'H,
      lcsi '05'H,
      securityAttributesReferenced '01'H,
      efFileSize '28'H,
      shortEFID 'D0'H
    },
    fillFileContent : 'FFFFFFFFFFFFFFFF'H,
    fillFileContent : 'FFFFFFFFFFFFFFFF'H,
    fillFileContent : 'FFFFFFFFFFFFFFFF'H,
    fillFileContent : 'FFFFFFFFFFFFFFFF'H,
    fillFileContent : 'FFFFFFFFFFFFFFFF'H
  },
  ef-gbabp {
    fileDescriptor : {
      fileDescriptor '4121'H,
      lcsi '05'H,
      securityAttributesReferenced '08'H,
      efFileSize 'FF'H,
      shortEFID ''H
    }
  },
  ef-ehplmn {
    fileDescriptor : {
      fileDescriptor '4121'H,
      lcsi '05'H,
      securityAttributesReferenced '07'H,
      efFileSize '1E'H,
      shortEFID 'E8'H
    },
    fillFileContent : '130014'H
  },
  ef-gbanl {
    fileDescriptor : {
      fileDescriptor '422100FF'H,
      lcsi '05'H,
      securityAttributesReferenced '07'H,
      efFileSize '09F6'H,
      shortEFID ''H
    },
    fillFileContent : 'FFFFFFFFFFFFFFFFFFFFFFFFFFFFFFFFFFFFFFFFFFFFFFFFFFFFFFFFFFFFFFFFFFFFFFFFFFFFFFFFFFFFFFFFFFFFFFFFFFFFFFFFFFFFFFFFFFFFFFFFFFFFFFFFFFFFFFFFFFFFFFFFFFFFFFFFFFFFFFFFFFFFFFFFFFFFFFFFFFFFFFFFFFFFFFFFFFFFFFFFFFFFFFFFFFFFFFFFFFFFFFFFFFFFFFFFFFFFFFFFFFFFFFFFFFFFFF'H,
    fillFileContent : 'FFFFFFFFFFFFFFFFFFFFFFFFFFFFFFFFFFFFFFFFFFFFFFFFFFFFFFFFFFFFFFFFFFFFFFFFFFFFFFFFFFFFFFFFFFFFFFFFFFFFFFFFFFFFFFFFFFFFFFFFFFFFFFFFFFFFFFFFFFFFFFFFFFFFFFFFFFFFFFFFFFFFFFFFFFFFFFFFFFFFFFFFFFFFFFFFFFFFFFFFFFFFFFFFFFFFFFFFFFFFFFFFFFFFFFFFFFFFFFFFFFFFFFFFFFFFFF'H,
    fillFileContent : 'FFFFFFFFFFFFFFFFFFFFFFFFFFFFFFFFFFFFFFFFFFFFFFFFFFFFFFFFFFFFFFFFFFFFFFFFFFFFFFFFFFFFFFFFFFFFFFFFFFFFFFFFFFFFFFFFFFFFFFFFFFFFFFFFFFFFFFFFFFFFFFFFFFFFFFFFFFFFFFFFFFFFFFFFFFFFFFFFFFFFFFFFFFFFFFFFFFFFFFFFFFFFFFFFFFFFFFFFFFFFFFFFFFFFFFFFFFFFFFFFFFFFFFFFFFFFFF'H,
    fillFileContent : 'FFFFFFFFFFFFFFFFFFFFFFFFFFFFFFFFFFFFFFFFFFFFFFFFFFFFFFFFFFFFFFFFFFFFFFFFFFFFFFFFFFFFFFFFFFFFFFFFFFFFFFFFFFFFFFFFFFFFFFFFFFFFFFFFFFFFFFFFFFFFFFFFFFFFFFFFFFFFFFFFFFFFFFFFFFFFFFFFFFFFFFFFFFFFFFFFFFFFFFFFFFFFFFFFFFFFFFFFFFFFFFFFFFFFFFFFFFFFFFFFFFFFFFFFFFFFFF'H,
    fillFileContent : 'FFFFFFFFFFFFFFFFFFFFFFFFFFFFFFFFFFFFFFFFFFFFFFFFFFFFFFFFFFFFFFFFFFFFFFFFFFFFFFFFFFFFFFFFFFFFFFFFFFFFFFFFFFFFFFFFFFFFFFFFFFFFFFFFFFFFFFFFFFFFFFFFFFFFFFFFFFFFFFFFFFFFFFFFFFFFFFFFFFFFFFFFFFFFFFFFFFFFFFFFFFFFFFFFFFFFFFFFFFFFFFFFFFFFFFFFFFFFFFFFFFFFFFFFFFFFFF'H,
    fillFileContent : 'FFFFFFFFFFFFFFFFFFFFFFFFFFFFFFFFFFFFFFFFFFFFFFFFFFFFFFFFFFFFFFFFFFFFFFFFFFFFFFFFFFFFFFFFFFFFFFFFFFFFFFFFFFFFFFFFFFFFFFFFFFFFFFFFFFFFFFFFFFFFFFFFFFFFFFFFFFFFFFFFFFFFFFFFFFFFFFFFFFFFFFFFFFFFFFFFFFFFFFFFFFFFFFFFFFFFFFFFFFFFFFFFFFFFFFFFFFFFFFFFFFFFFFFFFFFFFF'H,
    fillFileContent : 'FFFFFFFFFFFFFFFFFFFFFFFFFFFFFFFFFFFFFFFFFFFFFFFFFFFFFFFFFFFFFFFFFFFFFFFFFFFFFFFFFFFFFFFFFFFFFFFFFFFFFFFFFFFFFFFFFFFFFFFFFFFFFFFFFFFFFFFFFFFFFFFFFFFFFFFFFFFFFFFFFFFFFFFFFFFFFFFFFFFFFFFFFFFFFFFFFFFFFFFFFFFFFFFFFFFFFFFFFFFFFFFFFFFFFFFFFFFFFFFFFFFFFFFFFFFFFF'H,
    fillFileContent : 'FFFFFFFFFFFFFFFFFFFFFFFFFFFFFFFFFFFFFFFFFFFFFFFFFFFFFFFFFFFFFFFFFFFFFFFFFFFFFFFFFFFFFFFFFFFFFFFFFFFFFFFFFFFFFFFFFFFFFFFFFFFFFFFFFFFFFFFFFFFFFFFFFFFFFFFFFFFFFFFFFFFFFFFFFFFFFFFFFFFFFFFFFFFFFFFFFFFFFFFFFFFFFFFFFFFFFFFFFFFFFFFFFFFFFFFFFFFFFFFFFFFFFFFFFFFFFF'H,
    fillFileContent : 'FFFFFFFFFFFFFFFFFFFFFFFFFFFFFFFFFFFFFFFFFFFFFFFFFFFFFFFFFFFFFFFFFFFFFFFFFFFFFFFFFFFFFFFFFFFFFFFFFFFFFFFFFFFFFFFFFFFFFFFFFFFFFFFFFFFFFFFFFFFFFFFFFFFFFFFFFFFFFFFFFFFFFFFFFFFFFFFFFFFFFFFFFFFFFFFFFFFFFFFFFFFFFFFFFFFFFFFFFFFFFFFFFFFFFFFFFFFFFFFFFFFFFFFFFFFFFF'H,
    fillFileContent : 'FFFFFFFFFFFFFFFFFFFFFFFFFFFFFFFFFFFFFFFFFFFFFFFFFFFFFFFFFFFFFFFFFFFFFFFFFFFFFFFFFFFFFFFFFFFFFFFFFFFFFFFFFFFFFFFFFFFFFFFFFFFFFFFFFFFFFFFFFFFFFFFFFFFFFFFFFFFFFFFFFFFFFFFFFFFFFFFFFFFFFFFFFFFFFFFFFFFFFFFFFFFFFFFFFFFFFFFFFFFFFFFFFFFFFFFFFFFFFFFFFFFFFFFFFFFFFF'H
  },
  ef-lrplmnsi {
    fileDescriptor : {
      fileDescriptor '4121'H,
      lcsi '05'H,
      securityAttributesReferenced '06'H,
      efFileSize '02'H,
      shortEFID ''H
    },
    fillFileContent : '0101'H
  }
}
rec7value ProfileElement ::= akaParameter : {
  aka-header {
    mandated NULL,
    identification 5
  },
  algoConfiguration algoParameter : {
    algorithmID milenage,
    algorithmOptions '01'H,
    key 'AAAAAAAAAAAAAAAAAAAAAAAAAAAAAAAA'H,
    opc 'BAEBC618A55C351F25CEDF37BF70F390'H,
    rotationConstants '4000204060'H,
    xoringConstants '0000000000000000000000000000000000000000000000000000000000000001000000000000000000000000000000020000000000000000000000000000000400000000000000000000000000000008'H
  },
  sqnOptions '02'H,
  sqnDelta '000010000000'H,
  sqnAgeLimit '07FFFFFFFFFF'H,
  sqnInit {
    '000000000000'H,
    '000000000000'H,
    '000000000000'H,
    '000000000000'H,
    '000000000000'H,
    '000000000000'H,
    '000000000000'H,
    '000000000000'H,
    '000000000000'H,
    '000000000000'H,
    '000000000000'H,
    '000000000000'H,
    '000000000000'H,
    '000000000000'H,
    '000000000000'H,
    '000000000000'H,
    '000000000000'H,
    '000000000000'H,
    '000000000000'H,
    '000000000000'H,
    '000000000000'H,
    '000000000000'H,
    '000000000000'H,
    '000000000000'H,
    '000000000000'H,
    '000000000000'H,
    '000000000000'H,
    '000000000000'H,
    '000000000000'H,
    '000000000000'H,
    '000000000000'H,
    '000000000000'H
  }
}
rec8value ProfileElement ::= pinCodes : {
  pin-Header {
    mandated NULL,
    identification 6
  },
  pinCodes pinconfig : {
    {
      keyReference secondPINAppl1,
      pinValue '32323232FFFFFFFF'H,
      unblockingPINReference secondPUKAppl1,
      pinAttributes 3,
      maxNumOfAttemps-retryNumLeft 51
    }
  }
}
rec9value ProfileElement ::= gsm-access : {
  gsm-access-header {
    mandated NULL,
    identification 7
  },
  templateID { 2 23 143 1 2 7 },
  df-gsm-access {
    fileDescriptor : {
      lcsi '05'H,
      securityAttributesReferenced '0C'H,
      pinStatusTemplateDO '0181'H
    }
  },
  ef-kc {
    fileDescriptor : {
      fileDescriptor '4121'H,
      lcsi '05'H,
      securityAttributesReferenced '08'H,
      shortEFID '08'H
    },
    fillFileOffset : 8,
    fillFileContent : '07'H
  },
  ef-kcgprs {
    fileDescriptor : {
      fileDescriptor '4121'H,
      lcsi '05'H,
      securityAttributesReferenced '08'H,
      shortEFID '10'H
    },
    fillFileOffset : 8,
    fillFileContent : '07'H
  },
  ef-cpbcch {
    doNotCreate : NULL
  },
  ef-invscan {
    doNotCreate : NULL
  }
}
rec10value ProfileElement ::= telecom : {
  telecom-header {
    mandated NULL,
    identification 8
  },
  templateID { 2 23 143 1 2 3 },
  df-telecom {
    fileDescriptor : {
      lcsi '05'H,
      securityAttributesReferenced '0A'H,
      pinStatusTemplateDO '0181'H
    }
  },
  ef-arr {
    fileDescriptor : {
      fileDescriptor '42210030'H,
      lcsi '05'H,
      securityAttributesReferenced '01'H,
      efFileSize '01B0'H,
      shortEFID ''H
    },
    fillFileContent : '8401D4A40683010A950108800101900080011EA40683010A950108'H,
    fillFileOffset : 21,
    fillFileContent : '8C02A0E89000800107A40683010A950108'H,
    fillFileOffset : 31,
    fillFileContent : '8401D4A40683010A950108800103A40683010195010880015CA40683010A950108'H,
    fillFileOffset : 15,
    fillFileContent : '8401D4A40683010A950108800101A40683010195010880015EA40683010A950108'H,
    fillFileOffset : 15,
    fillFileContent : '800103A40683010195010880011CA40683010A950108'H
  },
  ef-psismsc {
    fileDescriptor : {
      fileDescriptor '4221004B'H,
      lcsi '05'H,
      securityAttributesReferenced '03'H,
      efFileSize '4B'H,
      shortEFID ''H
    },
    fillFileContent : '801074656C3A2B3133313233313439383130'H
  },
  df-phonebook {
    fileDescriptor : {
      lcsi '05'H,
      securityAttributesReferenced '02'H,
      pinStatusTemplateDO '0181'H
    }
  },
  ef-pbr {
    fileDescriptor : {
      fileDescriptor '42210022'H,
      lcsi '05'H,
      securityAttributesReferenced '04'H,
      efFileSize '22'H,
      shortEFID ''H
    },
    fillFileContent : 'A80FC0034F3A01C9034F210BC5034F0909AA0FCB034F3D0FC2034F4A03C7034F4B04'H
  },
  ef-ext1 {
    fileDescriptor : {
      fileDescriptor '42210022'H,
      fileID '4F3A'H,
      lcsi '05'H,
      securityAttributesReferenced '03'H,
      efFileSize '44'H,
      shortEFID '08'H,
      proprietaryEFInfo {
        specialFileInformation '40'H
      }
    }
  },
  ef-gas {
    fileDescriptor : {
      fileDescriptor '4221000D'H,
      fileID '4F4A'H,
      lcsi '05'H,
      securityAttributesReferenced '03'H,
      efFileSize '82'H,
      shortEFID '18'H
    }
  },
  ef-psc {
    fileDescriptor : {
      fileDescriptor '4121'H,
      lcsi '05'H,
      securityAttributesReferenced '03'H,
      shortEFID 'E0'H
    },
    fillFileContent : '00000000'H
  },
  ef-cc {
    fileDescriptor : {
      fileDescriptor '4121'H,
      lcsi '05'H,
      securityAttributesReferenced '03'H,
      shortEFID 'E8'H
    },
    fillFileContent : '0000'H
  },
  ef-puid {
    fileDescriptor : {
      fileDescriptor '4121'H,
      lcsi '05'H,
      securityAttributesReferenced '03'H,
      shortEFID 'F0'H
    },
    fillFileContent : '0000'H
  }
}
rec11value ProfileElement ::= isim : {
  isim-header {
    mandated NULL,
    identification 9
  },
  templateID { 2 23 143 1 2 8 },
  adf-isim {
    fileDescriptor : {
      fileID '7FF2'H,
      dfName 'A0000000871004FFFFFFFF8903020000'H,
      lcsi '05'H,
      securityAttributesReferenced '0B'H,
      pinStatusTemplateDO '0181'H
    }
  },
  ef-impi {
    fileDescriptor : {
      fileDescriptor '4121'H,
      lcsi '05'H,
      securityAttributesReferenced '02'H,
      efFileSize '0101'H,
      shortEFID '10'H
    },
    fillFileContent : 'FF'H
  },
  ef-impu {
    fileDescriptor : {
      fileDescriptor '422100FF'H,
      lcsi '05'H,
      securityAttributesReferenced '02'H,
      efFileSize '04FB'H,
      shortEFID '20'H
    },
    fillFileContent : '8000'H,
    fillFileOffset : 253,
    fillFileContent : '8000'H,
    fillFileOffset : 253,
    fillFileContent : '8000'H
  },
  ef-domain {
    fileDescriptor : {
      fileDescriptor '4121'H,
      lcsi '05'H,
      securityAttributesReferenced '02'H,
      efFileSize '48'H,
      shortEFID '28'H
    },
    fillFileContent : '8000'H
  },
  ef-ist {
    fileDescriptor : {
      fileDescriptor '4121'H,
      lcsi '05'H,
      securityAttributesReferenced '02'H,
      efFileSize '02'H,
      shortEFID '38'H
    },
    fillFileContent : '8000'H
  },
  ef-ad {
    fileDescriptor : {
      fileDescriptor '4121'H,
      lcsi '05'H,
      securityAttributesReferenced '03'H,
      efFileSize '04'H,
      shortEFID '18'H
    }
  },
  ef-arr {
    fileDescriptor : {
      fileDescriptor '42210032'H,
      lcsi '05'H,
      securityAttributesReferenced '01'H,
      efFileSize '02EE'H,
      shortEFID 'B8'H
    },
    fillFileContent : '8401D4A40683010A950108800101900080011EA40683010A950108'H,
    fillFileOffset : 23,
    fillFileContent : '800101A40683010195010880011EA40683010A950108'H,
    fillFileOffset : 28,
    fillFileContent : '800101900080011EA40683010A950108'H,
    fillFileOffset : 34,
    fillFileContent : '8401D4A40683010A950108800103A40683010195010880015CA40683010A950108'H,
    fillFileOffset : 17,
    fillFileContent : '800103A40683010195010880011CA40683010A950108'H,
    fillFileOffset : 28,
    fillFileContent : '800101970080011EA40683010A950108'H,
    fillFileOffset : 34,
    fillFileContent : '80011B9700800104A40683010A950108'H
  }
}
rec12value ProfileElement ::= opt-isim : {
  optisim-header {
    mandated NULL,
    identification 10
  },
  templateID { 2 23 143 1 2 9 },
  ef-pcscf {
    fileDescriptor : {
      fileDescriptor '4221004B'H,
      lcsi '05'H,
      securityAttributesReferenced '02'H,
      efFileSize '4B'H,
      shortEFID ''H
    },
    fillFileContent : 'FFFFFFFFFFFFFFFFFFFFFFFFFFFFFFFFFFFFFFFFFFFFFFFFFFFFFFFFFFFFFFFFFFFFFFFFFFFFFFFFFFFFFFFFFFFFFFFFFFFFFFFFFFFFFFFFFFFFFFFFFFFFFFFFFFFFFFFFFFFFFFFFFFFFFF'H
  },
  ef-smsp {
    fileDescriptor : {
      fileDescriptor '4221002E'H,
      lcsi '05'H,
      securityAttributesReferenced '04'H,
      efFileSize '8A'H,
      shortEFID ''H
    },
    fillFileContent : '534D532053657474696E6773FFFFFFFFFFFFE1FFFFFFFFFFFFFFFFFFFFFFFF07919107739608F0FFFFFFFF0000'H,
    fillFileOffset : 1,
    fillFileContent : '456D707479'H,
    fillFileOffset : 41,
    fillFileContent : '456D707479'H
  }
}
rec13value ProfileElement ::= akaParameter : {
  aka-header {
    mandated NULL,
    identification 11
  },
  algoConfiguration algoParameter : {
    algorithmID milenage,
    algorithmOptions '01'H,
    key 'AAAAAAAAAAAAAAAAAAAAAAAAAAAAAAAA'H,
    opc 'BAEBC618A55C351F25CEDF37BF70F390'H,
    rotationConstants '4000204060'H,
    xoringConstants '0000000000000000000000000000000000000000000000000000000000000001000000000000000000000000000000020000000000000000000000000000000400000000000000000000000000000008'H
  },
  sqnOptions '02'H,
  sqnDelta '000010000000'H,
  sqnAgeLimit '07FFFFFFFFFF'H,
  sqnInit {
    '000000000000'H,
    '000000000000'H,
    '000000000000'H,
    '000000000000'H,
    '000000000000'H,
    '000000000000'H,
    '000000000000'H,
    '000000000000'H,
    '000000000000'H,
    '000000000000'H,
    '000000000000'H,
    '000000000000'H,
    '000000000000'H,
    '000000000000'H,
    '000000000000'H,
    '000000000000'H,
    '000000000000'H,
    '000000000000'H,
    '000000000000'H,
    '000000000000'H,
    '000000000000'H,
    '000000000000'H,
    '000000000000'H,
    '000000000000'H,
    '000000000000'H,
    '000000000000'H,
    '000000000000'H,
    '000000000000'H,
    '000000000000'H,
    '000000000000'H,
    '000000000000'H,
    '000000000000'H
  }
}
rec14value ProfileElement ::= pinCodes : {
  pin-Header {
    mandated NULL,
    identification 12
  },
  pinCodes pinconfig : {
    {
      keyReference secondPINAppl1,
      pinValue '32323232FFFFFFFF'H,
      unblockingPINReference secondPUKAppl1,
      pinAttributes 3,
      maxNumOfAttemps-retryNumLeft 51
    }
  }
}
rec15value ProfileElement ::= genericFileManagement : {
  gfm-header {
    mandated NULL,
    identification 13
  },
  fileManagementCMD {
    {
      filePath : '7FDE'H,
      createFCP : {
        fileDescriptor '4121'H,
        fileID '6F6F'H,
        lcsi '05'H,
        securityAttributesReferenced '2F0609'H,
        efFileSize '06'H,
        shortEFID ''H
      },
      fillFileContent : '2003100310'H
    },
    {
      filePath : '7FF1'H,
      createFCP : {
        fileDescriptor '42210020'H,
        fileID '8F06'H,
        lcsi '05'H,
        securityAttributesReferenced '8F0601'H,
        efFileSize '40'H,
        shortEFID ''H
      },
      fillFileContent : '8001019000800104A40683010A950108'H,
      fillFileOffset : 16,
      fillFileContent : '800144A40683010A950108'H
    },
    {
      createFCP : {
        fileDescriptor '7821'H,
        fileID '7F66'H,
        lcsi '05'H,
        securityAttributesReferenced '02'H,
        pinStatusTemplateDO '0181'H,
        shortEFID ''H
      }
    },
    {
      createFCP : {
        fileDescriptor '7821'H,
        fileID '5F30'H,
        lcsi '05'H,
        securityAttributesReferenced '02'H,
        pinStatusTemplateDO '0181'H,
        shortEFID ''H
      }
    },
    {
      filePath : '7FF17F66'H,
      createFCP : {
        fileDescriptor '7821'H,
        fileID '5F40'H,
        lcsi '05'H,
        securityAttributesReferenced '02'H,
        pinStatusTemplateDO '0181'H,
        shortEFID ''H
      }
    },
    {
      createFCP : {
        fileDescriptor '4121'H,
        fileID '4F40'H,
        lcsi '05'H,
        securityAttributesReferenced '01'H,
        efFileSize '01'H,
        shortEFID ''H
      },
      fillFileContent : '01'H
    },
    {
      createFCP : {
        fileDescriptor '4121'H,
        fileID '4F41'H,
        lcsi '05'H,
        securityAttributesReferenced '01'H,
        efFileSize '20'H,
        shortEFID ''H
      },
      fillFileContent : '140A3C1E3C1E0000000000000000000000000000000000000000000000000000'H
    },
    {
      createFCP : {
        fileDescriptor '4121'H,
        fileID '4F42'H,
        lcsi '05'H,
        securityAttributesReferenced '01'H,
        efFileSize '06'H,
        shortEFID ''H
      },
      fillFileContent : '181818000000'H
    },
    {
      createFCP : {
        fileDescriptor '4121'H,
        fileID '4F43'H,
        lcsi '05'H,
        securityAttributesReferenced '04'H,
        efFileSize '20'H,
        shortEFID ''H
      },
      fillFileContent : '0000000000000000000000000000000000000000000000000000000000000000'H
    },
    {
      createFCP : {
        fileDescriptor '4121'H,
        fileID '4F44'H,
        lcsi '05'H,
        securityAttributesReferenced '04'H,
        efFileSize '01'H,
        shortEFID ''H
      },
      fillFileContent : '00'H
    },
    {
      filePath : '7FF1'H,
      createFCP : {
        fileDescriptor '4121'H,
        fileID '6F15'H,
        lcsi '05'H,
        securityAttributesReferenced '06'H,
        efFileSize '1A'H,
        shortEFID ''H
      },
      fillFileContent : '01F00200038004C005C00600070008830984C05DFF00FF00FF00'H
    },
    {
      createFCP : {
        fileDescriptor '42210024'H,
        fileID '6FFA'H,
        lcsi '05'H,
        securityAttributesReferenced '11'H,
        efFileSize '018C'H,
        shortEFID ''H
      }
    },
    {
      createFCP : {
        fileDescriptor '7821'H,
        fileID '5F50'H,
        lcsi '05'H,
        securityAttributesReferenced '0C'H,
        pinStatusTemplateDO '0181'H,
        shortEFID ''H
      }
    },
    {
      createFCP : {
        fileDescriptor '4221001E'H,
        fileID '4F81'H,
        lcsi '05'H,
        securityAttributesReferenced '08'H,
        efFileSize '96'H,
        shortEFID '08'H
      }
    },
    {
      createFCP : {
        fileDescriptor '42210032'H,
        fileID '4F82'H,
        lcsi '05'H,
        securityAttributesReferenced '08'H,
        efFileSize 'FA'H,
        shortEFID '10'H
      }
    },
    {
      createFCP : {
        fileDescriptor '42210032'H,
        fileID '4F83'H,
        lcsi '05'H,
        securityAttributesReferenced '08'H,
        efFileSize 'FA'H,
        shortEFID '18'H
      }
    },
    {
      filePath : '7F105F3A'H,
      createFCP : {
        fileDescriptor '42210002'H,
        fileID '4F21'H,
        lcsi '05'H,
        securityAttributesReferenced '03'H,
        efFileSize '04'H,
        shortEFID '58'H,
        proprietaryEFInfo {
          specialFileInformation '00'H,
          fillPattern '00'H
        }
      }
    },
    {
      createFCP : {
        fileDescriptor '42210002'H,
        fileID '4F09'H,
        lcsi '05'H,
        securityAttributesReferenced '03'H,
        efFileSize '04'H,
        shortEFID '48'H,
        proprietaryEFInfo {
          specialFileInformation '00'H,
          fillPattern '00'H
        }
      }
    },
    {
      createFCP : {
        fileDescriptor '42210028'H,
        fileID '4F4B'H,
        lcsi '05'H,
        securityAttributesReferenced '03'H,
        efFileSize '0190'H,
        shortEFID '20'H
      }
    },
    {
      createFCP : {
        fileDescriptor '4221000F'H,
        fileID '4F3D'H,
        lcsi '05'H,
        securityAttributesReferenced '05'H,
        efFileSize '96'H,
        shortEFID '78'H
      }
    },
    {
      filePath : '7FF2'H,
      createFCP : {
        fileDescriptor '42210020'H,
        fileID '8F06'H,
        lcsi '05'H,
        securityAttributesReferenced '8F0601'H,
        efFileSize '40'H,
        shortEFID ''H
      },
      fillFileContent : '8001019000800104A40683010A950108'H,
      fillFileOffset : 16,
      fillFileContent : '800144A40683010A950108'H
    },
    {
      createFCP : {
        fileDescriptor '4121'H,
        fileID '6FD5'H,
        lcsi '05'H,
        securityAttributesReferenced '05'H,
        efFileSize 'FF'H,
        shortEFID ''H
      }
    },
    {
      createFCP : {
        fileDescriptor '422100FF'H,
        fileID '6FD7'H,
        lcsi '05'H,
        securityAttributesReferenced '02'H,
        efFileSize '09F6'H,
        shortEFID ''H
      }
    },
    {
      createFCP : {
        fileDescriptor '42210024'H,
        fileID '6FFA'H,
        lcsi '05'H,
        securityAttributesReferenced '06'H,
        efFileSize '018C'H,
        shortEFID ''H
      }
    },
    {
      filePath : ''H,
      createFCP : {
        fileDescriptor '7821'H,
        fileID '7F66'H,
        lcsi '05'H,
        securityAttributesReferenced '0A'H,
        pinStatusTemplateDO '0181'H,
        shortEFID ''H
      }
    },
    {
      createFCP : {
        fileDescriptor '4121'H,
        fileID '6FD1'H,
        lcsi '05'H,
        securityAttributesReferenced '2F060C'H,
        efFileSize '10'H,
        shortEFID ''H
      },
      fillFileOffset : 1,
      fillFileContent : '00FF00000000000000000000000000'H
    },
    {
      createFCP : {
        fileDescriptor '4121'H,
        fileID '6FD2'H,
        lcsi '05'H,
        securityAttributesReferenced '2F060D'H,
        efFileSize '10'H,
        shortEFID ''H
      },
      fillFileContent : '00000000000000000000000000000000'H
    },
    {
      createFCP : {
        fileDescriptor '7821'H,
        fileID '5F10'H,
        lcsi '05'H,
        securityAttributesReferenced '2F060A'H,
        pinStatusTemplateDO '0181'H,
        shortEFID ''H
      }
    },
    {
      createFCP : {
        fileDescriptor '4121'H,
        fileID '4F10'H,
        lcsi '05'H,
        securityAttributesReferenced '2F060E'H,
        efFileSize '29'H,
        shortEFID ''H
      }
    },
    {
      createFCP : {
        fileDescriptor '4121'H,
        fileID '4F11'H,
        lcsi '05'H,
        securityAttributesReferenced '2F060E'H,
        efFileSize '46'H,
        shortEFID ''H
      }
    },
    {
      createFCP : {
        fileDescriptor '4121'H,
        fileID '4F12'H,
        lcsi '05'H,
        securityAttributesReferenced '2F060E'H,
        efFileSize '45'H,
        shortEFID ''H
      }
    },
    {
      createFCP : {
        fileDescriptor '4121'H,
        fileID '4F13'H,
        lcsi '05'H,
        securityAttributesReferenced '2F060E'H,
        efFileSize '15'H,
        shortEFID ''H
      }
    },
    {
      filePath : '7F66'H,
      createFCP : {
        fileDescriptor '7821'H,
        fileID '5F20'H,
        lcsi '05'H,
        securityAttributesReferenced '2F0602'H,
        pinStatusTemplateDO '0181'H,
        shortEFID ''H
      }
    },
    {
      createFCP : {
        fileDescriptor '4121'H,
        fileID '4F20'H,
        lcsi '05'H,
        securityAttributesReferenced '2F060E'H,
        efFileSize '09'H,
        shortEFID ''H
      }
    },
    {
      createFCP : {
        fileDescriptor '4121'H,
        fileID '4F21'H,
        lcsi '05'H,
        securityAttributesReferenced '2F060E'H,
        efFileSize '20'H,
        shortEFID ''H
      },
      fillFileContent : '0000000000000000000000000000000000000000000000000000000000000000'H
    },
    {
      createFCP : {
        fileDescriptor '4121'H,
        fileID '4F22'H,
        lcsi '05'H,
        securityAttributesReferenced '2F060E'H,
        efFileSize '02'H,
        shortEFID ''H
      },
      fillFileContent : '0301'H
    },
    {
      createFCP : {
        fileDescriptor '4121'H,
        fileID '4F23'H,
        lcsi '05'H,
        securityAttributesReferenced '2F060E'H,
        efFileSize '06'H,
        shortEFID ''H
      },
      fillFileContent : '030403000F00'H
    },
    {
      createFCP : {
        fileDescriptor '4121'H,
        fileID '4F24'H,
        lcsi '05'H,
        securityAttributesReferenced '2F060E'H,
        efFileSize '18'H,
        shortEFID ''H
      },
      fillFileContent : '0A811111430020FFFFFFFFFF07914140279508F0'H
    },
    {
      createFCP : {
        fileDescriptor '42210007'H,
        fileID '4F25'H,
        lcsi '05'H,
        securityAttributesReferenced '2F060E'H,
        efFileSize '46'H,
        shortEFID ''H
      }
    },
    {
      createFCP : {
        fileDescriptor '4121'H,
        fileID '4F26'H,
        lcsi '05'H,
        securityAttributesReferenced '2F060E'H,
        efFileSize '02'H,
        shortEFID ''H
      },
      fillFileContent : '0101'H
    },
    {
      createFCP : {
        fileDescriptor '4121'H,
        fileID '4F27'H,
        lcsi '05'H,
        securityAttributesReferenced '2F060E'H,
        efFileSize '09'H,
        shortEFID ''H
      }
    },
    {
      createFCP : {
        fileDescriptor '4121'H,
        fileID '4F28'H,
        lcsi '05'H,
        securityAttributesReferenced '2F060E'H,
        efFileSize '10'H,
        shortEFID ''H
      },
      fillFileContent : '00000000000000000000000000000000'H
    },
    {
      createFCP : {
        fileDescriptor '4121'H,
        fileID '4F29'H,
        lcsi '05'H,
        securityAttributesReferenced '2F060E'H,
        efFileSize '0C'H,
        shortEFID ''H
      }
    },
    {
      createFCP : {
        fileDescriptor '4121'H,
        fileID '4F30'H,
        lcsi '05'H,
        securityAttributesReferenced '2F060E'H,
        efFileSize '8C'H,
        shortEFID ''H
      }
    },
    {
      filePath : '7F66'H,
      createFCP : {
        fileDescriptor '7821'H,
        fileID '5F30'H,
        lcsi '05'H,
        securityAttributesReferenced '2F060A'H,
        pinStatusTemplateDO '0181'H,
        shortEFID ''H
      }
    },
    {
      createFCP : {
        fileDescriptor '4121'H,
        fileID '4F30'H,
        lcsi '05'H,
        securityAttributesReferenced '2F060C'H,
        efFileSize '04'H,
        shortEFID ''H
      },
      fillFileContent : '01000001'H
    },
    {
      createFCP : {
        fileDescriptor '42210007'H,
        fileID '4F31'H,
        lcsi '05'H,
        securityAttributesReferenced '2F060C'H,
        efFileSize '46'H,
        shortEFID ''H
      },
      fillFileContent : '00000000000000'H,
      fillFileContent : '00000000000000'H,
      fillFileContent : '00000000000000'H,
      fillFileContent : '00000000000000'H,
      fillFileContent : '00000000000000'H,
      fillFileContent : '00000000000000'H,
      fillFileContent : '00000000000000'H,
      fillFileContent : '00000000000000'H,
      fillFileContent : '00000000000000'H,
      fillFileContent : '00000000000000'H
    },
    {
      createFCP : {
        fileDescriptor '42210003'H,
        fileID '4F33'H,
        lcsi '05'H,
        securityAttributesReferenced '2F060C'H,
        efFileSize '0F'H,
        shortEFID ''H
      },
      fillFileContent : '13F000'H,
      fillFileContent : '03F200'H,
      fillFileContent : '33F400'H,
      fillFileContent : 'DDFD01'H,
      fillFileContent : '0000'H
    },
    {
      createFCP : {
        fileDescriptor '4121'H,
        fileID '4F34'H,
        lcsi '05'H,
        securityAttributesReferenced '2F060C'H,
        efFileSize '03'H,
        shortEFID ''H
      },
      fillFileContent : '130014'H
    },
    {
      createFCP : {
        fileDescriptor '42210007'H,
        fileID '4F35'H,
        lcsi '05'H,
        securityAttributesReferenced '2F060C'H,
        efFileSize '46'H,
        shortEFID ''H
      },
      fillFileContent : '00000000000000'H,
      fillFileContent : '00000000000000'H,
      fillFileContent : '00000000000000'H,
      fillFileContent : '00000000000000'H,
      fillFileContent : '00000000000000'H,
      fillFileContent : '00000000000000'H,
      fillFileContent : '00000000000000'H,
      fillFileContent : '00000000000000'H,
      fillFileContent : '00000000000000'H,
      fillFileContent : '00000000000000'H
    },
    {
      createFCP : {
        fileDescriptor '4121'H,
        fileID '4F36'H,
        lcsi '05'H,
        securityAttributesReferenced '2F060C'H,
        efFileSize '01'H,
        shortEFID ''H
      },
      fillFileContent : '03'H
    },
    {
      createFCP : {
        fileDescriptor '4121'H,
        fileID '4F37'H,
        lcsi '05'H,
        securityAttributesReferenced '2F060C'H,
        efFileSize '03'H,
        shortEFID ''H
      },
      fillFileContent : '000F0C'H
    },
    {
      createFCP : {
        fileDescriptor '42210002'H,
        fileID '4F38'H,
        lcsi '05'H,
        securityAttributesReferenced '2F060C'H,
        efFileSize '0A'H,
        shortEFID ''H
      },
      fillFileContent : '44F0'H,
      fillFileContent : '44F1'H,
      fillFileContent : '54F0'H
    },
    {
      createFCP : {
        fileDescriptor '42210007'H,
        fileID '4F39'H,
        lcsi '05'H,
        securityAttributesReferenced '2F060C'H,
        efFileSize '46'H,
        shortEFID ''H
      },
      fillFileContent : '00000000000000'H,
      fillFileContent : '00000000000000'H,
      fillFileContent : '00000000000000'H,
      fillFileContent : '00000000000000'H,
      fillFileContent : '00000000000000'H,
      fillFileContent : '00000000000000'H,
      fillFileContent : '00000000000000'H,
      fillFileContent : '00000000000000'H,
      fillFileContent : '00000000000000'H,
      fillFileContent : '00000000000000'H
    },
    {
      createFCP : {
        fileDescriptor '4121'H,
        fileID '4F40'H,
        lcsi '05'H,
        securityAttributesReferenced '2F060C'H,
        efFileSize '2D'H,
        shortEFID ''H
      }
    },
    {
      filePath : '7F66'H,
      createFCP : {
        fileDescriptor '4121'H,
        fileID '6FD3'H,
        lcsi '05'H,
        securityAttributesReferenced '2F060D'H,
        efFileSize '0100'H,
        shortEFID ''H
      }
    }
  }
}
rec16value ProfileElement ::= genericFileManagement : {
  gfm-header {
    mandated NULL,
    identification 14
  },
  fileManagementCMD {
    {
      filePath : '7FF17F665F30'H,
      createFCP : {
        fileDescriptor '4121'H,
        fileID '4F34'H,
        lcsi '05'H,
        securityAttributesReferenced '03'H,
        shortEFID '08'H,
        linkPath '7F665F304F34'H
      }
    },
    {
      createFCP : {
        fileDescriptor '4121'H,
        fileID '4F36'H,
        lcsi '05'H,
        securityAttributesReferenced '03'H,
        shortEFID '10'H,
        linkPath '7F665F304F36'H
      }
    },
    {
      filePath : '7FF17F66'H,
      createFCP : {
        fileDescriptor '4121'H,
        fileID '6FD2'H,
        lcsi '05'H,
        securityAttributesReferenced '05'H,
        shortEFID '08'H,
        linkPath '7F666FD2'H
      }
    },
    {
      createFCP : {
        fileDescriptor '4121'H,
        fileID '6FD3'H,
        lcsi '05'H,
        securityAttributesReferenced '05'H,
        shortEFID ''H,
        linkPath '7F666FD3'H
      }
    }
  }
}
rec17value ProfileElement ::= securityDomain : {
  sd-Header {
    mandated NULL,
    identification 15
  },
  instance {
    applicationLoadPackageAID 'A0000001515350'H,
    classAID 'A000000151535041'H,
    instanceAID 'A000000151000000'H,
    extraditeSecurityDomainAID 'A000000151000000'H,
    applicationPrivileges '82FC80'H,
    lifeCycleState '07'H,
    applicationSpecificParametersC9 '81028000810281048201F0'H,
    applicationParameters {
      uiccToolkitApplicationSpecificParametersField '01001000000201000300005500'H
    }
  },
  keyList {
    {
      keyUsageQualifier '38'H,
      keyAccess '00'H,
      keyIdentifier '01'H,
      keyVersionNumber '01'H,
      keyCompontents {
        {
          keyType '80'H,
          keyData 'F8195839102919DEAB908947198438FA'H,
          macLength 8
        }
      }
    },
    {
      keyUsageQualifier '34'H,
      keyAccess '00'H,
      keyIdentifier '02'H,
      keyVersionNumber '01'H,
      keyCompontents {
        {
          keyType '80'H,
          keyData 'F8195839102919DEAB908947198438FA'H,
          macLength 8
        }
      }
    },
    {
      keyUsageQualifier 'C8'H,
      keyAccess '00'H,
      keyIdentifier '03'H,
      keyVersionNumber '01'H,
      keyCompontents {
        {
          keyType '80'H,
          keyData 'FFFFFFFFFFFFFFFFFFFFFFFFFFFFFFFFFFFFFFFFFFFFFFFF'H,
          macLength 8
        }
      }
    }
  },
  sdPersoData {
    '0070326630732E06072A864886FC6B01600B06092A864886FC6B020202630906072A864886FC6B03640B06092A864886FC6B048000'H
  }
}
rec18value ProfileElement ::= rfm : {
  rfm-header {
    mandated NULL,
    identification 16
  },
  instanceAID 'A00000015100000001'H,
  securityDomainAID 'A000000151000000'H,
  tarList {
    '3F0001'H
  },
  minimumSecurityLevel '00'H,
  uiccAccessDomain '00'H,
  uiccAdminAccessDomain '00'H,
  adfRFMAccess {
    adfAID 'A0000000871002FFFFFFFF8903020000'H,
    adfAccessDomain '00'H,
    adfAdminAccessDomain '00'H
  }
}
rec19value ProfileElement ::= rfm : {
  rfm-header {
    mandated NULL,
    identification 17
  },
  instanceAID 'A00000015100000002'H,
  securityDomainAID 'A000000151000000'H,
  tarList {
    '3F0002'H
  },
  minimumSecurityLevel '00'H,
  uiccAccessDomain '00'H,
  uiccAdminAccessDomain '00'H,
  adfRFMAccess {
    adfAID 'A0000000871004FFFFFFFF8903020000'H,
    adfAccessDomain '00'H,
    adfAdminAccessDomain '00'H
  }
}
rec20value ProfileElement ::= end : {
  end-header {
    mandated NULL,
    identification 18
  }
}
