A0468001 02810100 82204368 696E6120 556E6963 6F6D2065 55494343 20536169
70205072 6F66696C 6520830A 89860116 81103998 5108A506 81008400 8B00A608
06066781 0F010201 B0820250 A0058000 81010081 0667810F 010201A2 12A11082
02782183 023F008B 0102C601 018800A3 13A11182 02412183 022F058B 010E8001
04880128 A41FA111 82024121 83022FE2 8B010880 010A8801 10830A98 68106118
01938915 80A536A1 13820442 21002083 022F008B 01088001 208801F0 831F611D
4F10A000 00008710 02FF86FF FF89FFFF FFFF5009 556E6976 65725349 4DA68201
BBA11482 04422100 3083022F 068B0101 80020300 88013083 1B8401D4 A4068301
0A950108 80010190 0080015E A4068301 0A950108 82011583 118C02A0 E8900080
0107A406 83010A95 01088201 1F830B80 0104A406 83010A95 01088201 25831680
0104A406 83010A95 01088401 D4A40683 010A9501 0882011A 83058001 01900082
012B831B 8401D4A4 0683010A 95010880 01019000 80015EA4 0683010A 95010882
01158310 80011B97 00800104 A4068301 0A950108 82012083 10800101 90008001
1EA40683 010A9501 08820120 830B8001 1FA40683 010A9501 08820125 83168001
01A40683 01019501 0880011E A4068301 0A950108 82011A83 16800111 A4068301
01950108 80010EA4 0683010A 95010882 011A8316 800113A4 06830101 95010880
010CA406 83010A95 01088201 1A831680 0103A406 83010195 01088001 1CA40683
010A9501 0882011A 831B8001 01900080 0102A406 83010195 01088001 1CA40683
010A9501 08820115 832C8401 32A40683 01019501 08800101 A4068301 01950108
800102A4 06830181 95010880 0118A406 83010A95 01088201 04832180 0101A406
83010195 01088001 02A40683 01819501 0880011C A4068301 0A950108 A244A005
80008101 01A13BA0 39301380 01018108 31323334 FFFFFFFF 82010183 01063010
80010A81 08463644 31413933 44830103 30108001 0B810852 55485452 45424F83
0103A328 A0058000 810102A1 1F300D80 01018108 32343830 35323030 300E8002
00818108 32323038 37323236 A130A005 80008101 04A12730 25622382 02782183
027FF084 10A00000 00871002 FF86FFFF 89FFFFFF FF8B0102 C6020181 8800A445
A0058000 810105A1 2CA12A80 01018101 01821003 2C2A0EE2 18CD44AD AD8DB1AC
834F0483 1069581E 9B3481F8 90413D42 A514C406 63830600 02000000 00840607
FFFFFFFF FFA222A0 05800081 0106A119 A0173015 80020081 81083733 38303930
35358202 00818301 03A18214 11A00580 00810107 A1821406 30820124 80027FF0
62148204 42210030 83026F06 8B010180 0201B088 01B88110 80010190 0080011E
A4068301 0A950108 02012081 16800101 A4068301 01950108 80011EA4 0683010A
95010802 011A8116 800103A4 06830101 95010880 011CA406 83010A95 01080201
1A811B80 01019000 800102A4 06830101 95010880 011CA406 83010A95 01080201
1581118C 02A0E890 00800107 A4068301 0A950108 02011F81 1B840132 97008001
03A40683 01019501 08800118 A4068301 0A950108 02011581 2C840132 A4068301
01950108 800101A4 06830101 95010880 0102A406 83018195 01088001 18A40683
010A9501 08020104 81218001 01A40683 01019501 08800102 A4068301 81950108
80011CA4 0683010A 95010802 010F8110 80011B97 00800104 A4068301 0A950108
30176210 82024121 83026FD9 8B010280 010C8800 810364F0 10301562 10820241
2183026F DB8B0102 80010188 00810102 301E6211 82024121 83026F07 8B010280
01098801 38810908 49061020 06261596 301B6211 82024121 83026F7E 8B010380
010B8801 58020108 8103FEFF 01301B62 11820241 2183026F 738B0103 80010E88
01600201 0B8103FE FF013019 62118202 41218302 6FAD8B01 01800104 88011881
04000000 02301762 11820241 2183026F 788B0102 80010288 01308102 02003012
62108202 41218302 6FC48B01 03800132 88003019 62118202 41218302 6F058B01
04800104 88011081 047A6865 6E301662 11820241 2183026F 088B0103 80012188
01408101 07301662 11820241 2183026F 098B0103 80012188 01488101 07301A62
10820241 2183026F 5B8B0103 80010688 008106F0 0000F000 00301362 11820241
2183026F 5C8B0102 80010388 01803012 62108202 41218302 6F3E8B01 02800101
88003012 62108202 41218302 6F3F8B01 02800101 8800302A 62118202 41218302
6F7B8B01 0380011E 88016881 1564F000 64F02064 F04064F0 7064F080 64F03064
F0113013 62118202 78218302 5F3B8B01 05C60201 81880030 19621182 02412183
024F208B 01038001 09880108 02010881 01073019 62118202 41218302 4F528B01
03800109 88011002 01088101 07301262 10820241 2183024F 638B0103 80010A88
00301562 10820241 2183024F 648B0102 80010188 00810100 30418002 7FF06211
82024121 83026F60 8B010380 01288801 50812864 F0104000 64F09040 0064F010
800064F0 908000FF FFFF0000 FFFFFF00 00FFFFFF 0000FFFF FF000030 82020C62
12820241 2183026F 618B0102 800201F4 88018881 8201F464 F0104000 64F09040
0064F010 800064F0 908000FF FFFF0000 FFFFFF00 00FFFFFF 0000FFFF FF0000FF
FFFF0000 FFFFFF00 00FFFFFF 0000FFFF FF0000FF FFFF0000 FFFFFF00 00FFFFFF
0000FFFF FF0000FF FFFF0000 FFFFFF00 00FFFFFF 0000FFFF FF0000FF FFFF0000
FFFFFF00 00FFFFFF 0000FFFF FF0000FF FFFF0000 FFFFFF00 00FFFFFF 0000FFFF
FF0000FF FFFF0000 FFFFFF00 00FFFFFF 0000FFFF FF0000FF FFFF0000 FFFFFF00
00FFFFFF 0000FFFF FF0000FF FFFF0000 FFFFFF00 00FFFFFF 0000FFFF FF0000FF
FFFF0000 FFFFFF00 00FFFFFF 0000FFFF FF0000FF FFFF0000 FFFFFF00 00FFFFFF
0000FFFF FF0000FF FFFF0000 FFFFFF00 00FFFFFF 0000FFFF FF0000FF FFFF0000
FFFFFF00 00FFFFFF 0000FFFF FF0000FF FFFF0000 FFFFFF00 00FFFFFF 0000FFFF
FF0000FF FFFF0000 FFFFFF00 00FFFFFF 0000FFFF FF0000FF FFFF0000 FFFFFF00
00FFFFFF 0000FFFF FF0000FF FFFF0000 FFFFFF00 00FFFFFF 0000FFFF FF0000FF
FFFF0000 FFFFFF00 00FFFFFF 0000FFFF FF0000FF FFFF0000 FFFFFF00 00FFFFFF
0000FFFF FF0000FF FFFF0000 FFFFFF00 00FFFFFF 0000FFFF FF0000FF FFFF0000
FFFFFF00 00FFFFFF 0000FFFF FF0000FF FFFF0000 FFFFFF00 00FFFFFF 0000FFFF
FF0000FF FFFF0000 FFFFFF00 00FFFFFF 0000FFFF FF0000FF FFFF0000 FFFFFF00
00FFFFFF 0000FFFF FF000030 3D621182 02412183 026F628B 01028001 28880198
812864F0 10400064 F0904000 64F01080 0064F090 8000FFFF FF0000FF FFFF0000
FFFFFF00 00FFFFFF 00003013 62118202 41218302 6F318B01 02800101 88019030
15621082 02412183 026F468B 01018001 11880081 01003015 62138204 42210014
83026FB7 8B010180 01508801 08301262 10820241 2183026F C38B0103 80010488
00305062 12820442 21001C83 026F408B 01038001 38880081 1C000000 00000000
00000000 00000000 00000000 00000000 00000000 00811C00 00000000 00000000
00000000 00000000 00000000 00000000 00000030 2F621282 04422100 0D83026F
4E8B0103 80014188 00810100 02010C81 01000201 0C810100 02010C81 01000201
0C810100 30146212 82044221 00188302 6F498B01 028001F0 8800302F 62128204
4221000D 83026F4C 8B010280 01418800 81010002 010C8101 0002010C 81010002
010C8101 0002010C 81010030 15621382 04422100 0F83026F 4F8B0103 80014B88
01B03081 DE621482 04462100 2883026F 808B0106 80020320 8801A002 01218105
00000000 00020123 81050000 00000002 01238105 00000000 00020123 81050000
00000002 01238105 00000000 00020123 81050000 00000002 01238105 00000000
00020123 81050000 00000002 01238105 00000000 00020123 81050000 00000002
01238105 00000000 00020123 81050000 00000002 01238105 00000000 00020123
81050000 00000002 01238105 00000000 00020123 81050000 00000002 01238105
00000000 00020123 81050000 00000002 01238105 00000000 00020123 81050000
00000030 19621782 04462100 0383026F 828B0107 80010388 00A503C1 01003081
CA621482 04462100 2783026F 818B0106 8002030C 8801A802 01218104 00000000
02012381 04000000 00020123 81040000 00000201 23810400 00000002 01238104
00000000 02012381 04000000 00020123 81040000 00000201 23810400 00000002
01238104 00000000 02012381 04000000 00020123 81040000 00000201 23810400
00000002 01238104 00000000 02012381 04000000 00020123 81040000 00000201
23810400 00000002 01238104 00000000 02012381 04000000 00020123 81040000
00000201 23810400 00000030 19621782 04462100 0383026F 838B0107 80010388
00A503C1 0100302F 62128204 42210028 83026F42 8B010380 01C88800 02010C81
16FDFFFF FFFFFFFF FFFFFFFF FFFF0891 68311010 2105F030 12621082 02412183
026F458B 01038001 14880030 12621082 02412183 026FD08B 01028001 17880030
12621082 02412183 026FD28B 01088001 17880030 14621282 04422100 0D83026F
D18B0103 80010D88 00301962 12820442 21000483 026FCE8B 01038001 04880081
03000000 30126210 82024121 83026F32 8B010280 01068800 30126210 82024121
83026F2C 8B010380 01108800 30166210 82024121 83026FB5 8B010280 01028800
81020000 30156210 82024121 83026FB6 8B010380 01018800 81010030 12621082
02412183 026FB38B 01028001 04880030 1B621082 02412183 026FB48B 01028001
07880081 07000000 000000FC 30166211 82024121 83026F56 8B010880 01018801
28810100 30146212 82044221 00118302 6FD38B01 02800155 88003015 62108202
41218302 6F578B01 088001C8 88008101 00301562 13820442 21000E83 026FC58B
01018001 708801C8 30156213 82044221 00088302 6FC68B01 01800140 8801D030
15621382 04422100 1C83026F 3B8B0108 80020118 88003023 62128204 4221000D
83026F4B 8B010880 01278800 81010002 010C8101 0002010C 81010030 12621082
02412183 026F508B 01038001 04880030 13621182 02412183 026F488B 01028001
14880170 301A6218 82044621 00038302 6F398B01 0780013C 8801E0A5 03C10100
30176210 82024121 83026F37 8B010880 01038800 81030000 00301962 10820241
2183026F 418B0108 80010588 00020103 81020000 30196211 82024121 83026FCD
8B010280 01078801 D88104A3 05800330 4D621282 04422100 0D83026F CF8B0103
80018288 00810100 02010C81 01000201 0C810100 02010C81 01000201 0C810100
02010C81 01000201 0C810100 02010C81 01000201 0C810100 02010C81 01003012
62108202 41218302 6FB18B01 02800104 8800301B 62108202 41218302 6FB28B01
02800107 88008107 00000000 0000FC30 14800062 10820278 2183027F 108B0102
C6010188 00308201 4A621382 04422100 3083026F 068B0101 80020240 88008110
80010190 0080011E A4068301 0A950108 02012081 1680011B A4068301 01950108
800104A4 0683010A 95010802 011A8116 840132A4 06830101 95010880 011BA406
83010195 01080201 1A810B80 011FA406 83010195 01080201 25811680 0103A406
83010195 01088001 1CA40683 010A9501 0802011A 81108001 1B900080 0104A406
83010A95 01080201 2081118C 02A0E890 00800107 A4068301 0A950108 02011F81
16800101 A4068301 01950108 80011EA4 0683010A 95010802 011A8121 800103A4
06830101 95010880 0104A406 83010A95 01088001 18A40683 01819501 0802010F
81218001 01A40683 01019501 08800102 A4068301 81950108 80011CA4 0683010A
95010802 010F811B 84013297 00800103 A4068301 01950108 800118A4 0683010A
95010802 0115810B 80011FA4 0683010A 95010830 14621282 04422100 1483026F
228B0102 80016488 00301462 12820446 21000383 026F218B 01038001 0F880030
12621082 02412183 026F208B 01048001 09880030 25621282 04422100 1483029F
9B8B0105 80012888 00810580 75358BDD 02010F81 05807535 8BDD3053 62128204
4221004C 83029F9C 8B010680 014C8800 813DA81E C0034F39 02C4034F 5A08C603
4F5105C5 034F4104 C9034F61 11C1034F 310DA905 CA034F71 0CAA14C2 034F4A06
C7034F4B 03C8034F 4C01CB03 4F4F0730 1E621082 02412183 029F9D8B 01068001
0A880081 0A9EFFBF FDFF3EDC 03400130 12621082 02412183 026FF08B 01018001
80880030 12621082 02782183 025F508B 0107C601 01880030 29621282 04422100
0A83024F 208B0108 80012888 00810100 02010981 01000201 09810100 02010981
01003013 62118202 41218302 4F218B01 08800204 00880030 13621182 02412183
024F228B 01088002 04008800 30136211 82024121 83024F23 8B010880 02040088
00301362 11820241 2183024F 248B0108 80020400 88003029 80027F10 62108202
41218302 6F548B01 08800117 88008111 850F8000 55005300 49004D53 615E9475
28301262 10820278 2183025F 3A8B0107 C6010188 00301662 14820442 21001C83
024F398B 01058002 05788801 10301662 14820442 21000F83 024F5A8B 01058002
02EE8801 40301662 14820442 21001283 024F008B 01058002 02408801 48301662
14820442 21002883 024F718B 01058002 07D08801 60301562 13820442 21000183
024F318B 01058001 32880150 301A6218 82044221 00028302 4F618B01 05800164
880188A5 03C10100 30176211 82024121 83024F24 8B010580 01028801 70810200
00301962 11820241 2183024F 228B0105 80010488 01808104 00000000 30176211
82024121 83024F23 8B010580 01028801 78810200 00301A62 18820442 21000283
024F418B 01058001 64880120 A503C101 00303C62 13820442 21000D83 024F4A8B
01058001 5B880130 81010002 010C8101 0002010C 81010002 010C8101 0002010C
81010002 010C8101 0002010C 81010030 15621382 04422100 0F83024F 4F8B0105
80014B88 0138301A 62188204 42210004 83024F51 8B010580 01C88801 28A503C1
01003015 62138204 42210018 83024F4C 8B010580 01608801 08301F80 027F1062
19820442 2100B083 026F3C8B 01058002 22608800 A504C102 00FF3012 62108202
41218302 6F438B01 05800102 8800301B 62198204 4221001E 83026F47 8B010580
0205DC88 00A504C1 0200FF30 15621382 04462100 1C83026F 448B010B 80020118
88003023 62128204 4221000D 83026F4B 8B010A80 01278800 81010002 010C8101
0002010C 81010030 2F621282 04422100 0D83026F 4C8B0108 80014188 00810100
02010C81 01000201 0C810100 02010C81 01000201 0C810100 30176212 82044221
00FF8302 6F538B01 0C8001FF 88008101 00301480 00621082 02782183 027F208B
0102C601 01880030 22621282 02412183 026F388B 032F060A 80010A88 00020101
810933FF FF3F003F 03303C30 1F621282 02412183 026F078B 032F060B 80010988
00810908 49061020 06261596 301C6212 82024121 83026F7E 8B032F06 0C80010B
88000201 088103FE FF013019 62128202 41218302 6FAD8B03 2F060880 01038800
81030000 00301862 12820241 2183026F 788B032F 060A8001 02880081 02020030
17621282 02412183 026FAE8B 032F0608 80010188 00810103 30146212 82024121
83026F74 8B032F06 0D800110 88003014 62128202 41218302 6F058B03 2F060E80
01048800 301A6212 82024121 83026F20 8B032F06 0D800109 88000201 08810107
30276212 82024121 83026F54 8B032F06 0A800117 88008111 850F8000 55005300
49004D53 615E9475 28302B62 12820241 2183026F 7B8B032F 060D8001 1E880081
1564F000 64F02064 F04064F0 7064F080 64F03064 F011301A 62138202 41218302
6F308B03 2F060D80 02012C88 00810364 F0103014 62128202 41218302 6F318B03
2F060A80 01018800 301A6212 82024121 83026F52 8B032F06 0D800109 88000201
08810107 301C6212 82024121 83026F53 8B032F06 0D80010E 88000201 0B8103FE
FF013014 62128202 41218302 6FB78B03 2F060880 010C8800 301B6219 82044621
00038302 6F398B03 2F060F80 013C8800 A503C101 00301962 12820241 2183026F
378B032F 06108001 03880081 03000000 301B6212 82024121 83026F41 8B032F06
10800105 88000201 03810200 00301462 12820241 2183026F 458B032F 060D8001
14880030 14621282 02412183 026F3E8B 032F060A 80010188 00301462 12820241
2183026F 3F8B032F 060A8001 01880030 17621282 02412183 026F468B 032F0608
80011188 00810100 30146212 82024121 83026F48 8B032F06 0A800114 8800A182
014CA005 80008101 08A18201 41301A80 027FF062 14820241 2183026F 388B0102
880120C7 047F109F 9D301562 13820242 2183026F 3C8B0103 8800C704 7F106F3C
30156213 82024121 83026F43 8B010388 00C7047F 106F4330 15621382 02422183
026F478B 01038800 C7047F10 6F47301B 80047F10 5F3A6213 82024221 83024F30
8B010888 00C7047F 109F9C30 16621482 02422183 024F4B8B 01058801 18C7047F
109F9B30 1B80027F 10621582 02422183 026F3A8B 01098800 C7067F10 5F3A4F39
30156213 82024221 83026F40 8B010588 00C7047F F06F4030 15621382 02422183
026F3B8B 010A8800 C7047FF0 6F3B3015 62138202 42218302 6F428B01 058800C7
047FF06F 42301762 15820242 2183026F 4A8B0105 8800C706 7F105F3A 4F4A3015
62138202 42218302 6F498B01 088800C7 047FF06F 49301762 15820242 2183026F
4F8B0105 8800C706 7F105F3A 4F4FA682 02BFA005 80008101 09A1504F 07A00000
01515350 4F08A000 00015153 50414F08 A0000001 51000000 4F08A000 00015100
00008203 82FC8083 010FC90B 81028000 81020255 8201F0EA 12801001 00100000
02010006 000000B2 010000A2 82021C30 22950138 82010183 01013017 30158001
808610D9 BE655005 BEB77532 4D53DEA6 99F13A30 22950134 82010283 01013017
30158001 80861052 DABF691A FD0E2B54 0CA6A09D EE3BF930 229501C8 82010383
01013017 30158001 808610F7 5D1211F0 9D3BD5DE B5C3726C 5C71E930 22950138
82010183 01023017 30158001 80861031 580DB9C6 17ED485F D9B30912 3BA2EC30
22950134 82010283 01023017 30158001 808610AE B60E9870 3B6C8B34 3DAEFC2E
E6409930 229501C8 82010383 01023017 30158001 808610AB 1F22EBB0 C85708A5
31BDE675 8782F430 22950138 82010183 01033017 30158001 8086105B 65D650F4
10BE5435 D26BC777 8AA4F130 22950134 82010283 01033017 30158001 808610EF
99C25144 86B864AE 2943DAD7 92989530 229501C8 82010383 01033017 30158001
808610C5 3210DB6B 300F790A 998C81D2 F0B42C30 22950138 82010183 01043017
30158001 808610B4 589C2516 A245AD77 A1226064 AC55DE30 22950134 82010283
01043017 30158001 808610BF 594DEF53 715FABF5 3283546B 0AE90F30 229501C8
82010383 01043017 30158001 8086103F 4C3E7FE1 47FE15C8 F170D7DB 8FBFFD30
22950138 82010183 01203017 30158001 80861045 6E637279 7074696F 6E536563
72657430 22950134 82010283 01203017 30158001 80861050 6572736F 6E616C69
73617469 6F6E4B30 229501C8 82010383 01203017 30158001 8086104B 6579456E
63727970 74696F6E 4B6579A3 44044200 703F663D 733B0607 2A864886 FC6B0160
0B06092A 864886FC 6B020202 63090607 2A864886 FC6B0364 0B06092A 864886FC
6B040255 640B0609 2A864886 FC6B0480 00A746A0 05800081 010A4F09 A0000005
59101000 014F08A0 00000151 000000A0 050403B0 001E8101 12040100 04010030
188010A0 00000087 1002FF86 FFFF89FF FFFFFF81 01008201 00A72CA0 05800081
010B4F09 A0000005 59101000 024F08A0 00000151 000000A0 050403B0 001D8101
12040100 040100AA 07A00580 0081010C