80D8008146018011100BD84F4BFEF04975C7508C53B137B894037977A68011100BD84F4BFEF04975C7508C53B137B894037977A68011100BD84F4BFEF04975C7508C53B137B894037977A6()
80D800812F4085111073ECF36C0DE197659FD6B886C2FEC44203A0C9A580111073ECF36C0DE197659FD6B886C2FEC44203271BD5()
A0E0000127001100113F0010000000000100000000000000002F060102000000000000000000000400010000(9000)
A0E0FF0028000A00132F0601060000000100000000300000002F06010100000000000000000580017F90000000 (9000)
A0DC01043080017F90008401D490008C02A0E89000FFFFFFFFFFFFFFFFFFFFFFFFFFFFFFFFFFFFFFFFFFFFFFFFFFFFFFFFFFFFFFFF (9000)
A0DC02043080017F90008401D490008C02A0E89000FFFFFFFFFFFFFFFFFFFFFFFFFFFFFFFFFFFFFFFFFFFFFFFFFFFFFFFFFFFFFFFF (9000)
A0DC03043080017F90008401D490008C02A0E89000FFFFFFFFFFFFFFFFFFFFFFFFFFFFFFFFFFFFFFFFFFFFFFFFFFFFFFFFFFFFFFFF (9000)
A0DC04043080017F90008401D490008C02A0E89000FFFFFFFFFFFFFFFFFFFFFFFFFFFFFFFFFFFFFFFFFFFFFFFFFFFFFFFFFFFFFFFF (9000)
A0DC05043080017F90008401D490008C02A0E89000FFFFFFFFFFFFFFFFFFFFFFFFFFFFFFFFFFFFFFFFFFFFFFFFFFFFFFFFFFFFFFFF (9000)
A0E000012300030004220D01000000000100000000100000002F0601030000000000000000000000 (9000)
A0E200001001933F57845F706921AA80FFFFFF2A62 (9000)
A0E0FF002300050004220F01000000000100000000080000002F0601040000000000000000000000 (9000)
A0DC0104080000000000000000 (9000)
80D400000A620883022F0680020390 (9000)
A0A40000022F06 (9000)
A0DC010430800101900080011EA40683010A9501088401D4A40683010A950108FFFFFFFFFFFFFFFFFFFFFFFFFFFFFFFFFFFFFFFFFF (9000)
A0DC0204308C02A0E89000800107A40683010A950108FFFFFFFFFFFFFFFFFFFFFFFFFFFFFFFFFFFFFFFFFFFFFFFFFFFFFFFFFFFFFF (9000)
A0DC030430800104A40683010A950108FFFFFFFFFFFFFFFFFFFFFFFFFFFFFFFFFFFFFFFFFFFFFFFFFFFFFFFFFFFFFFFFFFFFFFFFFF (9000)
A0DC040430800104A40683010A9501088401D4A40683010A950108FFFFFFFFFFFFFFFFFFFFFFFFFFFFFFFFFFFFFFFFFFFFFFFFFFFF (9000)
A0DC0504308001019000FFFFFFFFFFFFFFFFFFFFFFFFFFFFFFFFFFFFFFFFFFFFFFFFFFFFFFFFFFFFFFFFFFFFFFFFFFFFFFFFFFFFFF (9000)
A0DC06043080011B9700800104A40683010A950108FFFFFFFFFFFFFFFFFFFFFFFFFFFFFFFFFFFFFFFFFFFFFFFFFFFFFFFFFFFFFFFF (9000)
A0DC070430800101900080011EA40683010A950108FFFFFFFFFFFFFFFFFFFFFFFFFFFFFFFFFFFFFFFFFFFFFFFFFFFFFFFFFFFFFFFF (9000)
A0DC08043080011FA40683010A950108FFFFFFFFFFFFFFFFFFFFFFFFFFFFFFFFFFFFFFFFFFFFFFFFFFFFFFFFFFFFFFFFFFFFFFFFFF (9000)
A0DC090430840132A40683010A950108800101A40683010195010880011EA40683010A950108FFFFFFFFFFFFFFFFFFFFFFFFFFFFFF (9000)
A0DC0A0430800101A40683010195010880011EA40683010A950108FFFFFFFFFFFFFFFFFFFFFFFFFFFFFFFFFFFFFFFFFFFFFFFFFFFF (9000)
A0DC0B0430800111A40683010195010880010EA40683010A950108FFFFFFFFFFFFFFFFFFFFFFFFFFFFFFFFFFFFFFFFFFFFFFFFFFFF (9000)
A0DC0C0430800113A40683010195010880010CA40683010A950108FFFFFFFFFFFFFFFFFFFFFFFFFFFFFFFFFFFFFFFFFFFFFFFFFFFF (9000)
A0DC0D0430800103A40683010195010880011CA40683010A950108FFFFFFFFFFFFFFFFFFFFFFFFFFFFFFFFFFFFFFFFFFFFFFFFFFFF (9000)
A0DC0E04308001019000800102A40683010195010880011CA40683010A950108FFFFFFFFFFFFFFFFFFFFFFFFFFFFFFFFFFFFFFFFFF (9000)
A0DC0F04308C02A0E890008001079000FFFFFFFFFFFFFFFFFFFFFFFFFFFFFFFFFFFFFFFFFFFFFFFFFFFFFFFFFFFFFFFFFFFFFFFFFF (9000)
A0DC100430840132A40683010A950108800103A40683010195010880011CA40683010A950108FFFFFFFFFFFFFFFFFFFFFFFFFFFFFF (9000)
A0DC110430840132A406830101950108800101A406830101950108800102A406830181950108800118A40683010A950108FFFFFFFF (9000)
A0DC120430800101A406830101950108800102A40683018195010880011CA40683010A950108FFFFFFFFFFFFFFFFFFFFFFFFFFFFFF (9000)
A0DC1304308001019000800102970080011CA40683010A950108FFFFFFFFFFFFFFFFFFFFFFFFFFFFFFFFFFFFFFFFFFFFFFFFFFFFFF (9000)
A0A40000023F00 (9000)
A0A4000002220D (9000)
A0E000012300040004220E01000000000100000000100000002F0601060000000000000000000000 (9000)
A0E20000100230303030FFFFFFFF3380FFFFFF6B8C (9000)
A0E20000100230303030FFFFFFFFAA80FFFFFFE57A (9000)
A0E20000100430303030FFFFFFFF3380FFFFFF60EB (9000)
A0E20000100430303030FFFFFFFFAA80FFFFFFEE1D (9000)
A0E0000123000D0004220501000000000100000000100000002F0601060000000000000000000000 (9000)
A0E20000100230303030303030303300FFFFFF9BD7 (9000)
A0E2000010023030303030303030AA00FFFFFF1521 (9000)
A0E20000100430303030FFFFFFFF3380FFFFFF60EB (9000)
A0E20000100430303030FFFFFFFFAA80FFFFFFEE1D (9000)
A0E0000123000E0002220601000000000100000000100000002F0601060000000000000000000000 (9000)
A0E20000100230303030FFFFFFFF3380FFFFFF6B8C (9000)
A0E20000100230303030FFFFFFFFAA80FFFFFFE57A (9000)
80D400000A62088302220F80020020 (9000)
A0E0FF002300090004220701000000000100000000190000002F0601070000000000000000000000 (9000)
A0DC0104190CFFFFFFFFFFFFFFFFFFFFFFFF000000003F00000700000000 (9000)
A0DC02041907A00000000900010000000000000000003F000107F0100000 (9000)
A0DC03041910A0000000871002FF49FFFF89061000FF7F4F0207F0100000 (9000)
A0DC0404190CA0000000871004FFFFFFFF89000000007FF20707F0100000 (9000)
A0E0000127000600027FDE10000000000100000000000000002F060102000000000000000000000400010000 (9000)
A0E0000023000800006F0301000000000100000000200000002F0601080000000000000000000000 (9000)
A0E0FF0023000000046F30010000000001000000003D0000002F0601080000000000000000000000 (9000)
A0DC01043D03B00000000000000000FFFFFFFFFFFFFFFFFFFFFFFFFF008016010C0CFFFFFFFFFFFFFFFFFFFFFFFF00000000160100000000000000003F0000000000 (9000)
A0DC02043D03B00001000000000000FFFFFFFFFFFFFFFFFFFFFFFFFF008016030C0CFFFFFFFFFFFFFFFFFFFFFFFF00000000160300000000000000007F4F00000000 (9000)
A0DC03043D03B00010000000000000FFFFFFFFFFFFFFFFFFFFFFFFFF008016020C0CFFFFFFFFFFFFFFFFFFFFFFFF00000000160200000000000000003F0000000000 (9000)
A0DC04043D03B00020000000000000FFFFFFFFFFFFFFFFFFFFFFFFFF008016040C0CFFFFFFFFFFFFFFFFFFFFFFFF00000000160400000000000000007FF200000000 (9000)
A0A40000023F00 (9000)
A0E0000127000000587F4F20000000000100000000000000002F060102000000000000000000000400010101 (9000)
A0A40000023F00 (9000)
A0E0000127000000157F1010000000000100000000000000002F060102000000000000000000000400010000 (9000)
A0A40000023F00 (9000)
A0E0000127000000377F2010000000000100000000000000002F060102000000000000000000000400010000 (9000)
A0A40000023F00 (9000)
A0E0000127000000127FF220000000000100000000000000002F06010F000000000000000000000400010101 (9000)
A0A40000023F00 (9000)
A0E00001230000000A2FE200020000000100000000000000002F0601130000000000000000000000 (9000)
A0E0FF0023000000022F00011E0000000100000000280000002F0601070000000000000000000000 (9000)
A0DC01042861264F10A0000000871002FF49FFFF89061000FF5012434F4D5052494F4E2054657374205553494D (9000)
A0DC02042861144F0CA0000000871004FFFFFFFF8950044953494DFFFFFFFFFFFFFFFFFFFFFFFFFFFFFFFFFFFF (9000)
A0E0000123000000082F0500050000000200000000000000002F06010E0000000000000000000000 (9000)
A0E000012300000001220C01000000000100000000120000002F0601060000000000000000000000 (9000)
A0E0000123000000202FF200000000000100000000000000002F0601080000000000000000000000 (9000)
A0EA000020030030FF00FF0000000077010001008B00000000808A0000FF40960000000012 (9000)
A0A40000023F00 (9000)
A0A40000027F4F (9000)
A0E0FF00280000000B6F0601170000000100000000300000006F06010100000000000000000580017F90000000 (9000)
A0DC0B043080011B9700800104A40683010A950108FFFFFFFFFFFFFFFFFFFFFFFFFFFFFFFFFFFFFFFFFFFFFFFFFFFFFFFFFFFFFFFF (9000)
A0DC0A0430800101970080011EA40683010A950108FFFFFFFFFFFFFFFFFFFFFFFFFFFFFFFFFFFFFFFFFFFFFFFFFFFFFFFFFFFFFFFF (9000)
A0DC0904308C02A0E890008001079000FFFFFFFFFFFFFFFFFFFFFFFFFFFFFFFFFFFFFFFFFFFFFFFFFFFFFFFFFFFFFFFFFFFFFFFFFF (9000)
A0DC080430800101A406830101950108800102A40683018195010880011CA40683010A950108FFFFFFFFFFFFFFFFFFFFFFFFFFFFFF (9000)
A0DC070430840132A406830101950108800101A406830101950108800102A406830181950108800118A40683010A950108FFFFFFFF (9000)
A0DC0604308401329700800103A406830101950108800118A40683010A950108FFFFFFFFFFFFFFFFFFFFFFFFFFFFFFFFFFFFFFFFFF (9000)
A0DC0504308001019000800102A40683010195010880011CA40683010A950108FFFFFFFFFFFFFFFFFFFFFFFFFFFFFFFFFFFFFFFFFF (9000)
A0DC040430800103A40683010195010880011CA40683010A950108FFFFFFFFFFFFFFFFFFFFFFFFFFFFFFFFFFFFFFFFFFFFFFFFFFFF (9000)
A0DC030430800101A40683010195010880011EA40683010A950108FFFFFFFFFFFFFFFFFFFFFFFFFFFFFFFFFFFFFFFFFFFFFFFFFFFF (9000)
A0DC0204308C02A0E89000800107A40683010A950108FFFFFFFFFFFFFFFFFFFFFFFFFFFFFFFFFFFFFFFFFFFFFFFFFFFFFFFFFFFFFF (9000)
A0DC010430800101900080011EA40683010A950108FFFFFFFFFFFFFFFFFFFFFFFFFFFFFFFFFFFFFFFFFFFFFFFFFFFFFFFFFFFFFFFF (9000)
A0E0000127000000055F3C10000000000100000000000000006F060102000000000000000000000400010101 (9000)
A0E0000123000000014F4000000000000200000000000000006F0601030000000000000000000000 (9000)
A0E0FF0023000000014F4101000000000200000000320000006F0601030000000000000000000000 (9000)
A0E0FF0023000000014F4201000000000200000000050000006F0601030000000000000000000000 (9000)
A0E0FF0023000000014F4301000000000200000000640000006F0601030000000000000000000000 (9000)
A0E0000123000000964F4400000000000200000000000000006F0601030000000000000000000000 (9000)
A0A40000027F4F (9000)
A0E0000123000000646FDE00000000000100000000000000006F0601010000000000000000000000 (9000)
A0EA000064FFFFFFFFFFFFFFFFFFFFFFFFFFFFFFFFFFFFFFFFFFFFFFFFFFFFFFFFFFFFFFFFFFFFFFFFFFFFFFFFFFFFFFFFFFFFFFFFFFFFFFFFFFFFFFFFFFFFFFFFFFFFFFFFFFFFFFFFFFFFFFFFFFFFFFFFFFFFFFFFFFFFFFFFFFFFFFFFFFFFFFFFFFFFFFFFFFFFFFFF (9000)
A0E0FF0023000000026FDF01000000000100000000320000006F0601010000000000000000000000 (9000)
A0E0FF0023000000016FE201000000000100000000320000006F0601030000000000000000000000 (9000)
A0E0000123000000016FDC00000000000100000000000000006F0601030000000000000000000000 (9000)
A0EA00000100 (9000)
A0E0FF0023000000016FDD010000000001000000000F0000006F0601030000000000000000000000 (9000)
A0E00001270000000B5F4010000000000100000000000000006F060102000000000000000000000400010101 (9000)
A0E0000123000000644F4100010000000100000000000000006F0601040000000000000000000000 (9000)
A0EA000064FFFFFFFFFFFFFFFFFFFFFFFFFFFFFFFFFFFFFFFFFFFFFFFFFFFFFFFFFFFFFFFFFFFFFFFFFFFFFFFFFFFFFFFFFFFFFFFFFFFFFFFFFFFFFFFFFFFFFFFFFFFFFFFFFFFFFFFFFFFFFFFFFFFFFFFFFFFFFFFFFFFFFFFFFFFFFFFFFFFFFFFFFFFFFFFFFFFFFFFF (9000)
A0E00001230000001E4F4200020000000100000000000000006F0601040000000000000000000000 (9000)
A0EA00001EFFFFFFFFFFFFFFFFFFFFFFFFFFFFFFFFFFFFFFFFFFFFFFFFFFFFFFFFFFFF (9000)
A0E00001230000001E4F4300030000000100000000000000006F0601030000000000000000000000 (9000)
A0EA00001EFFFFFFFFFFFFFFFFFFFFFFFFFFFFFFFFFFFFFFFFFFFFFFFFFFFFFFFFFFFF (9000)
A0E0FF0023000000054F4401040000000100000000640000006F0601040000000000000000000000 (9000)
A0E0FF0023000000054F4501050000000100000000640000006F0601030000000000000000000000 (9000)
A0E0000123000000644F4600060000000100000000000000006F0601040000000000000000000000 (9000)
A0EA000064FFFFFFFFFFFFFFFFFFFFFFFFFFFFFFFFFFFFFFFFFFFFFFFFFFFFFFFFFFFFFFFFFFFFFFFFFFFFFFFFFFFFFFFFFFFFFFFFFFFFFFFFFFFFFFFFFFFFFFFFFFFFFFFFFFFFFFFFFFFFFFFFFFFFFFFFFFFFFFFFFFFFFFFFFFFFFFFFFFFFFFFFFFFFFFFFFFFFFFFF (9000)
A0E0FF0023000000054F4701070000000100000000640000006F0601030000000000000000000000 (9000)
A0E0000123000000014F4800080000000100000000000000006F0601030000000000000000000000 (9000)
A0EA00000100 (9000)
A0E0000123000000014F4900090000000100000000000000006F0601030000000000000000000000 (9000)
A0EA00000100 (9000)
A0E0000123000000034F4A000A0000000100000000000000006F0601040000000000000000000000 (9000)
A0EA000003FFFFFF (9000)
A0E0000123000000014F4B000B0000000100000000000000006F0601030000000000000000000000 (9000)
A0EA00000100 (9000)
A0A40000027F4F (9000)
A0E0000123000000096F0700070000000200000000000000006F0601030000000000000000000000 (9000)
A0E00001230000000B6F7E000B0000000200000000000000006F0601040000000000000000000000 (9000)
A0E00001230000000E6F73000C0000000200000000000000006F0601040000000000000000000000 (9000)
A0E0000123000000046FAD00030000000200000000000000006F0601010000000000000000000000 (9000)
A0E0000123000000026F7800060000000200000000000000006F0601030000000000000000000000 (9000)
A0E00001230000002E6FC400000000000100000000000000006F0601040000000000000000000000 (9000)
A0EA00002EFFFFFFFFFFFFFFFFFFFFFFFFFFFFFFFFFFFFFFFFFFFFFFFFFFFFFFFFFFFFFFFFFFFFFFFFFFFFFFFFFFFFFFFFFFFF (9000)
A0E0000123000000086F0500020000000100000000000000006F0601050000000000000000000000 (9000)
A0EA000008FFFFFFFFFFFFFFFF (9000)
A0E00001230000000C6F3800040000000100000000000000006F0601030000000000000000000000 (9000)
A0EA00000C9EFFFF9DFFFEFD0308007002 (9000)
A0E0000123000000216F0800080000000100000000000000006F0601040000000000000000000000 (9000)
A0EA00002107FFFFFFFFFFFFFFFFFFFFFFFFFFFFFFFFFFFFFFFFFFFFFFFFFFFFFFFFFFFFFFFF (9000)
A0E0000123000000216F0900090000000100000000000000006F0601040000000000000000000000 (9000)
A0EA00002107FFFFFFFFFFFFFFFFFFFFFFFFFFFFFFFFFFFFFFFFFFFFFFFFFFFFFFFFFFFFFFFF (9000)
A0E0000123000000066F5B000F0000000100000000000000006F0601040000000000000000000000 (9000)
A0EA000006F00000F00000 (9000)
A0E0000123000000036F5C00100000000100000000000000006F0601030000000000000000000000 (9000)
A0EA000003FFFFFF (9000)
A0E0000123000000026F3E00000000000200000000000000006F0601030000000000000000000000 (9000)
A0E0000123000000026F3F00000000000200000000000000006F0601030000000000000000000000 (9000)
A0E0000123000000126F7B000D0000000200000000000000006F0601040000000000000000000000 (9000)
A0E0000127000000045F3B10000000000100000000000000006F060102000000000000000000000400010101 (9000)
A0E0000123000000094F2000010000000200000000000000006F0601040000000000000000000000 (9000)
A0E0000123000000094F5200020000000200000000000000006F0601040000000000000000000000 (9000)
A0E0000123000000104F6300000000000200000000000000006F0601040000000000000000000000 (9000)
A0E0000123000000014F6400000000000200000000000000006F0601030000000000000000000000 (9000)
A0A40000027F4F (9000)
A0E0000123000000FA6F60000A0000000200000000000000006F0601040000000000000000000000 (9000)
A0E0000123000001406F6100110000000200000000000000006F0601030000000000000000000000 (9000)
A0E0000123000000FA6F6200130000000200000000000000006F0601030000000000000000000000 (9000)
A0E0000123000000016F3100120000000200000000000000006F0601030000000000000000000000 (9000)
A0E0000123000000116F4600000000000200000000000000006F0601010000000000000000000000 (9000)
A0E0FF0023000000056FB701010000000100000000120000006F0601010000000000000000000000 (9000)
A0DC010412FFFFFFFFFFFFFFFFFFFFFFFFFFFFFFFFFFFF (9000)
A0DC020412FFFFFFFFFFFFFFFFFFFFFFFFFFFFFFFFFFFF (9000)
A0DC030412FFFFFFFFFFFFFFFFFFFFFFFFFFFFFFFFFFFF (9000)
A0DC040412FFFFFFFFFFFFFFFFFFFFFFFFFFFFFFFFFFFF (9000)
A0DC050412FFFFFFFFFFFFFFFFFFFFFFFFFFFFFFFFFFFF (9000)
A0E0000123000000046FC300000000000100000000000000006F0601040000000000000000000000 (9000)
A0EA000004FFFFFFFF (9000)
A0E0FF0023000000056F40010000000002000000001C0000006F0601040000000000000000000000 (9000)
A0E0FF0023000000026F4E010000000001000000000D0000006F0601040000000000000000000000 (9000)
A0DC01040D00FFFFFFFFFFFFFFFFFFFFFFFF (9000)
A0DC02040D00FFFFFFFFFFFFFFFFFFFFFFFF (9000)
A0E0FF00230000000A6F49010000000002000000001C0000006F0601030000000000000000000000 (9000)
A0E0FF0023000000026F4C010000000002000000000D0000006F0601030000000000000000000000 (9000)
A0E0FF0023000000026F4F011600000001000000000F0000006F0601040000000000000000000000 (9000)
A0E0FF0023000000036F80031400000021000000002A0000006F0601060000000000000000000000 (9000)
A0DC00032AFFFFFFFFFFFFFFFFFFFFFFFFFFFFFFFFFFFFFFFFFFFFFFFFFFFFFFFFFFFFFFFFFFFFFF0000000000FFFF (9000)
A0DC00032AFFFFFFFFFFFFFFFFFFFFFFFFFFFFFFFFFFFFFFFFFFFFFFFFFFFFFFFFFFFFFFFFFFFFFF0000000000FFFF (9000)
A0DC00032AFFFFFFFFFFFFFFFFFFFFFFFFFFFFFFFFFFFFFFFFFFFFFFFFFFFFFFFFFFFFFFFFFFFFFF0000000000FFFF (9000)
A0E0000023000000016F8203000000002100000000030000006F0601070000000000000000000000 (9000)
A0E0FF0023000000036F8103150000002100000000290000006F0601060000000000000000000000 (9000)
A0DC000329FFFFFFFFFFFFFFFFFFFFFFFFFFFFFFFFFFFFFFFFFFFFFFFFFFFFFFFFFFFFFFFFFFFFFF00000000FFFF (9000)
A0DC000329FFFFFFFFFFFFFFFFFFFFFFFFFFFFFFFFFFFFFFFFFFFFFFFFFFFFFFFFFFFFFFFFFFFFFF00000000FFFF (9000)
A0DC000329FFFFFFFFFFFFFFFFFFFFFFFFFFFFFFFFFFFFFFFFFFFFFFFFFFFFFFFFFFFFFFFFFFFFFF00000000FFFF (9000)
A0E0000023000000016F8303000000002100000000030000006F0601070000000000000000000000 (9000)
A0E0000223000000146F3C01000000000200000000B00000006F0601040000000000000000000000 (9000)
A0E0000123000000026F4300000000000200000000000000006F0601040000000000000000000000 (9000)
A0E0000223000000146F47010000000002000000001E0000006F0601040000000000000000000000 (9000)
A0E0FF0023000000026F42010000000002000000002A0000006F0601040000000000000000000000 (9000)
A0E0000123000000206F4500000000000200000000000000006F0601040000000000000000000000 (9000)
A0E0000123000000FA6FD000000000000200000000000000006F0601030000000000000000000000 (9000)
A0E0000123000000FA6FD200000000000200000000000000006F0601080000000000000000000000 (9000)
A0E0FF0023000000026FD1010000000002000000000D0000006F0601040000000000000000000000 (9000)
A0E0FF0023000000026FCE01000000000200000000360000006F0601040000000000000000000000 (9000)
A0E0000023000000036F39031C0000000200000000030000006F0601070000000000000000000000 (9000)
A0E0000123000000036F3700000000000200000000000000006F0601080000000000000000000000 (9000)
A0E0000123000000056F4100000000000200000000000000006F0601080000000000000000000000 (9000)
A0E0000123000000306F3200000000000200000000000000006F0601030000000000000000000000 (9000)
A0E0000123000000106F2C00000000000200000000000000006F0601040000000000000000000000 (9000)
A0E0000123000000026FB500000000000200000000000000006F0601030000000000000000000000 (9000)
A0E0000123000000016FB600000000000200000000000000006F0601040000000000000000000000 (9000)
A0E0000123000000046FB100000000000100000000000000006F0601030000000000000000000000 (9000)
A0EA000004FFFFFFFF (9000)
A0E0000123000000076FB200000000000100000000000000006F0601030000000000000000000000 (9000)
A0EA000007000000000000FC (9000)
A0E0000123000000046FB300000000000100000000000000006F0601030000000000000000000000 (9000)
A0EA000004FFFFFFFF (9000)
A0E0000123000000076FB400000000000100000000000000006F0601030000000000000000000000 (9000)
A0EA000007000000000000FC (9000)
A0E0000123000000016F5600050000000100000000000000006F0601080000000000000000000000 (9000)
A0EA00000100 (9000)
A0E0FF0023000000026FD3010000000002000000000E0000006F0601030000000000000000000000 (9000)
A0E0000127000000035F7010000000000100000000000000006F060109000000000000000000000400010101 (9000)
A0E0000123000000014F3000000000000200000000000000006F0601030000000000000000000000 (9000)
A0E0FF0023000000324F3101000000000200000000140000006F0601040000000000000000000000 (9000)
A0E0FF0023000000144F3201000000000200000000060000006F0601030000000000000000000000 (9000)
A0A40000027F4F (9000)
A0E0FF0023000000026FC7010000000002000000001C0000006F0601040000000000000000000000 (9000)
A0E0FF0023000000026FC8010000000002000000000D0000006F0601040000000000000000000000 (9000)
A0E0000023000000026FC901000000000200000000040000006F0601040000000000000000000000 (9000)
A0E0000023000000026FCA01000000000200000000050000006F0601040000000000000000000000 (9000)
A0E0FF0023000000026FCB01000000000200000000100000006F0601040000000000000000000000 (9000)
A0E0FF0023000000026FCC010000000002000000000D0000006F0601040000000000000000000000 (9000)
A0E0000123000000C86F5700000000000100000000000000006F0601080000000000000000000000 (9000)
A0EA0000C800FFFFFFFFFFFFFFFFFFFFFFFFFFFFFFFFFFFFFFFFFFFFFFFFFFFFFFFFFFFFFFFFFFFFFFFFFFFFFFFFFFFFFFFFFFFFFFFFFFFFFFFFFFFFFFFFFFFFFFFFFFFFFFFFFFFFFFFFFFFFFFFFFFFFFFFFFFFFFFFFFFFFFFFFFFFFFFFFFFFFFFFFFFFFFFFFFFFFFFFFFFFFFFFFFFFFFFFFFFFFFFFFFFFFFFFFFFFFFFFFFFFFFFFFFFFFFFFFFFFFFFFFFFFFFFFFFFFFFFFFFFFFFFFFFFFFFFFFFFFFFFFFFFFFFFFFFFFFFFFFFFFFFFFFFFFFFFFFFFFFFFFFFFFFFFFFFFFFFFFFFFFFFFFFFFFFFFFFFFFFFFFFFFFFFFFFFFFFFF (9000)
A0E0FF00230000000A6FC501190000000200000000140000006F0601010000000000000000000000 (9000)
A0E0FF00230000000A6FC6011A0000000200000000080000006F0601010000000000000000000000 (9000)
A0E00001230000000D6FCD001B0000000200000000000000006F0601030000000000000000000000 (9000)
A0E0FF00230000000A6F3B010000000002000000001C0000006F0601080000000000000000000000 (9000)
A0E0FF0023000000026F4B010000000002000000000D0000006F0601080000000000000000000000 (9000)
A0E0000123000000106F5000000000000200000000000000006F0601040000000000000000000000 (9000)
A0E0000123000000206F48000E0000000200000000000000006F0601030000000000000000000000 (9000)
A0E0FF0023000000026FCF01000000000100000000340000006F0601040000000000000000000000 (9000)
A0DC01043400FFFFFFFFFFFFFFFFFFFFFFFFFFFFFFFFFFFFFFFFFFFFFFFFFFFFFFFFFFFFFFFFFFFFFFFFFFFFFFFFFFFFFFFFFFFFFFFFFFFFFF (9000)
A0DC02043400FFFFFFFFFFFFFFFFFFFFFFFFFFFFFFFFFFFFFFFFFFFFFFFFFFFFFFFFFFFFFFFFFFFFFFFFFFFFFFFFFFFFFFFFFFFFFFFFFFFFFF (9000)
A0E0000123000000136FD600000000000100000000000000006F0601040000000000000000000000 (9000)
A0EA000013FFFFFFFFFFFFFFFFFFFFFFFFFFFFFFFFFFFFFF (9000)
A0E0FF0023000000016FDA010000000001000000001E0000006F0601030000000000000000000000 (9000)
A0E0FF0023000000026FFA01000000000100000000240000006F06010A0000000000000000000000 (9000)
A0DC010424FFFFFFFFFFFFFFFFFFFFFFFFFFFFFFFFFFFFFFFFFFFFFFFFFFFFFFFFFFFFFFFFFFFFFFFF (9000)
A0DC020424FFFFFFFFFFFFFFFFFFFFFFFFFFFFFFFFFFFFFFFFFFFFFFFFFFFFFFFFFFFFFFFFFFFFFFFF (9000)
A0E0000123000000126FE3001E0000000100000000000000006F0601040000000000000000000000 (9000)
A0EA000012FFFFFFFFFFFFFFFFFFFFFFFF02F440FFFE01 (9000)
A0E0FF0023000000016FE401180000000100000000640000006F0601040000000000000000000000 (9000)
A0DC010464FFFFFFFFFFFFFFFFFFFFFFFFFFFFFFFFFFFFFFFFFFFFFFFFFFFFFFFFFFFFFFFFFFFFFFFFFFFFFFFFFFFFFFFFFFFFFFFFFFFFFFFFFFFFFFFFFFFFFFFFFFFFFFFFFFFFFFFFFFFFFFFFFFFFFFFFFFFFFFFFFFFFFFFFFFFFFFFFFFFFFFFFFFFFFFFFFFFFFFFF (9000)
A0E0000127000000065F5010000000000100000000000000006F060102000000000000000000000400010101 (9000)
A0E0FF00230000000A4F8101010000000100000000640000006F0601040000000000000000000000 (9000)
A0DC010464FFFFFFFFFFFFFFFFFFFFFFFFFFFFFFFFFFFFFFFFFFFFFFFFFFFFFFFFFFFFFFFFFFFFFFFFFFFFFFFFFFFFFFFFFFFFFFFFFFFFFFFFFFFFFFFFFFFFFFFFFFFFFFFFFFFFFFFFFFFFFFFFFFFFFFFFFFFFFFFFFFFFFFFFFFFFFFFFFFFFFFFFFFFFFFFFFFFFFFFF (9000)
A0DC020464FFFFFFFFFFFFFFFFFFFFFFFFFFFFFFFFFFFFFFFFFFFFFFFFFFFFFFFFFFFFFFFFFFFFFFFFFFFFFFFFFFFFFFFFFFFFFFFFFFFFFFFFFFFFFFFFFFFFFFFFFFFFFFFFFFFFFFFFFFFFFFFFFFFFFFFFFFFFFFFFFFFFFFFFFFFFFFFFFFFFFFFFFFFFFFFFFFFFFFFF (9000)
A0DC030464FFFFFFFFFFFFFFFFFFFFFFFFFFFFFFFFFFFFFFFFFFFFFFFFFFFFFFFFFFFFFFFFFFFFFFFFFFFFFFFFFFFFFFFFFFFFFFFFFFFFFFFFFFFFFFFFFFFFFFFFFFFFFFFFFFFFFFFFFFFFFFFFFFFFFFFFFFFFFFFFFFFFFFFFFFFFFFFFFFFFFFFFFFFFFFFFFFFFFFFF (9000)
A0DC040464FFFFFFFFFFFFFFFFFFFFFFFFFFFFFFFFFFFFFFFFFFFFFFFFFFFFFFFFFFFFFFFFFFFFFFFFFFFFFFFFFFFFFFFFFFFFFFFFFFFFFFFFFFFFFFFFFFFFFFFFFFFFFFFFFFFFFFFFFFFFFFFFFFFFFFFFFFFFFFFFFFFFFFFFFFFFFFFFFFFFFFFFFFFFFFFFFFFFFFFF (9000)
A0DC050464FFFFFFFFFFFFFFFFFFFFFFFFFFFFFFFFFFFFFFFFFFFFFFFFFFFFFFFFFFFFFFFFFFFFFFFFFFFFFFFFFFFFFFFFFFFFFFFFFFFFFFFFFFFFFFFFFFFFFFFFFFFFFFFFFFFFFFFFFFFFFFFFFFFFFFFFFFFFFFFFFFFFFFFFFFFFFFFFFFFFFFFFFFFFFFFFFFFFFFFF (9000)
A0DC060464FFFFFFFFFFFFFFFFFFFFFFFFFFFFFFFFFFFFFFFFFFFFFFFFFFFFFFFFFFFFFFFFFFFFFFFFFFFFFFFFFFFFFFFFFFFFFFFFFFFFFFFFFFFFFFFFFFFFFFFFFFFFFFFFFFFFFFFFFFFFFFFFFFFFFFFFFFFFFFFFFFFFFFFFFFFFFFFFFFFFFFFFFFFFFFFFFFFFFFFF (9000)
A0DC070464FFFFFFFFFFFFFFFFFFFFFFFFFFFFFFFFFFFFFFFFFFFFFFFFFFFFFFFFFFFFFFFFFFFFFFFFFFFFFFFFFFFFFFFFFFFFFFFFFFFFFFFFFFFFFFFFFFFFFFFFFFFFFFFFFFFFFFFFFFFFFFFFFFFFFFFFFFFFFFFFFFFFFFFFFFFFFFFFFFFFFFFFFFFFFFFFFFFFFFFF (9000)
A0DC080464FFFFFFFFFFFFFFFFFFFFFFFFFFFFFFFFFFFFFFFFFFFFFFFFFFFFFFFFFFFFFFFFFFFFFFFFFFFFFFFFFFFFFFFFFFFFFFFFFFFFFFFFFFFFFFFFFFFFFFFFFFFFFFFFFFFFFFFFFFFFFFFFFFFFFFFFFFFFFFFFFFFFFFFFFFFFFFFFFFFFFFFFFFFFFFFFFFFFFFFF (9000)
A0DC090464FFFFFFFFFFFFFFFFFFFFFFFFFFFFFFFFFFFFFFFFFFFFFFFFFFFFFFFFFFFFFFFFFFFFFFFFFFFFFFFFFFFFFFFFFFFFFFFFFFFFFFFFFFFFFFFFFFFFFFFFFFFFFFFFFFFFFFFFFFFFFFFFFFFFFFFFFFFFFFFFFFFFFFFFFFFFFFFFFFFFFFFFFFFFFFFFFFFFFFFF (9000)
A0DC0A0464FFFFFFFFFFFFFFFFFFFFFFFFFFFFFFFFFFFFFFFFFFFFFFFFFFFFFFFFFFFFFFFFFFFFFFFFFFFFFFFFFFFFFFFFFFFFFFFFFFFFFFFFFFFFFFFFFFFFFFFFFFFFFFFFFFFFFFFFFFFFFFFFFFFFFFFFFFFFFFFFFFFFFFFFFFFFFFFFFFFFFFFFFFFFFFFFFFFFFFFF (9000)
A0E0FF00230000000A4F8201020000000100000000640000006F0601040000000000000000000000 (9000)
A0DC010464FFFFFFFFFFFFFFFFFFFFFFFFFFFFFFFFFFFFFFFFFFFFFFFFFFFFFFFFFFFFFFFFFFFFFFFFFFFFFFFFFFFFFFFFFFFFFFFFFFFFFFFFFFFFFFFFFFFFFFFFFFFFFFFFFFFFFFFFFFFFFFFFFFFFFFFFFFFFFFFFFFFFFFFFFFFFFFFFFFFFFFFFFFFFFFFFFFFFFFFF (9000)
A0DC020464FFFFFFFFFFFFFFFFFFFFFFFFFFFFFFFFFFFFFFFFFFFFFFFFFFFFFFFFFFFFFFFFFFFFFFFFFFFFFFFFFFFFFFFFFFFFFFFFFFFFFFFFFFFFFFFFFFFFFFFFFFFFFFFFFFFFFFFFFFFFFFFFFFFFFFFFFFFFFFFFFFFFFFFFFFFFFFFFFFFFFFFFFFFFFFFFFFFFFFFF (9000)
A0DC030464FFFFFFFFFFFFFFFFFFFFFFFFFFFFFFFFFFFFFFFFFFFFFFFFFFFFFFFFFFFFFFFFFFFFFFFFFFFFFFFFFFFFFFFFFFFFFFFFFFFFFFFFFFFFFFFFFFFFFFFFFFFFFFFFFFFFFFFFFFFFFFFFFFFFFFFFFFFFFFFFFFFFFFFFFFFFFFFFFFFFFFFFFFFFFFFFFFFFFFFF (9000)
A0DC040464FFFFFFFFFFFFFFFFFFFFFFFFFFFFFFFFFFFFFFFFFFFFFFFFFFFFFFFFFFFFFFFFFFFFFFFFFFFFFFFFFFFFFFFFFFFFFFFFFFFFFFFFFFFFFFFFFFFFFFFFFFFFFFFFFFFFFFFFFFFFFFFFFFFFFFFFFFFFFFFFFFFFFFFFFFFFFFFFFFFFFFFFFFFFFFFFFFFFFFFF (9000)
A0DC050464FFFFFFFFFFFFFFFFFFFFFFFFFFFFFFFFFFFFFFFFFFFFFFFFFFFFFFFFFFFFFFFFFFFFFFFFFFFFFFFFFFFFFFFFFFFFFFFFFFFFFFFFFFFFFFFFFFFFFFFFFFFFFFFFFFFFFFFFFFFFFFFFFFFFFFFFFFFFFFFFFFFFFFFFFFFFFFFFFFFFFFFFFFFFFFFFFFFFFFFF (9000)
A0DC060464FFFFFFFFFFFFFFFFFFFFFFFFFFFFFFFFFFFFFFFFFFFFFFFFFFFFFFFFFFFFFFFFFFFFFFFFFFFFFFFFFFFFFFFFFFFFFFFFFFFFFFFFFFFFFFFFFFFFFFFFFFFFFFFFFFFFFFFFFFFFFFFFFFFFFFFFFFFFFFFFFFFFFFFFFFFFFFFFFFFFFFFFFFFFFFFFFFFFFFFF (9000)
A0DC070464FFFFFFFFFFFFFFFFFFFFFFFFFFFFFFFFFFFFFFFFFFFFFFFFFFFFFFFFFFFFFFFFFFFFFFFFFFFFFFFFFFFFFFFFFFFFFFFFFFFFFFFFFFFFFFFFFFFFFFFFFFFFFFFFFFFFFFFFFFFFFFFFFFFFFFFFFFFFFFFFFFFFFFFFFFFFFFFFFFFFFFFFFFFFFFFFFFFFFFFF (9000)
A0DC080464FFFFFFFFFFFFFFFFFFFFFFFFFFFFFFFFFFFFFFFFFFFFFFFFFFFFFFFFFFFFFFFFFFFFFFFFFFFFFFFFFFFFFFFFFFFFFFFFFFFFFFFFFFFFFFFFFFFFFFFFFFFFFFFFFFFFFFFFFFFFFFFFFFFFFFFFFFFFFFFFFFFFFFFFFFFFFFFFFFFFFFFFFFFFFFFFFFFFFFFF (9000)
A0DC090464FFFFFFFFFFFFFFFFFFFFFFFFFFFFFFFFFFFFFFFFFFFFFFFFFFFFFFFFFFFFFFFFFFFFFFFFFFFFFFFFFFFFFFFFFFFFFFFFFFFFFFFFFFFFFFFFFFFFFFFFFFFFFFFFFFFFFFFFFFFFFFFFFFFFFFFFFFFFFFFFFFFFFFFFFFFFFFFFFFFFFFFFFFFFFFFFFFFFFFFF (9000)
A0DC0A0464FFFFFFFFFFFFFFFFFFFFFFFFFFFFFFFFFFFFFFFFFFFFFFFFFFFFFFFFFFFFFFFFFFFFFFFFFFFFFFFFFFFFFFFFFFFFFFFFFFFFFFFFFFFFFFFFFFFFFFFFFFFFFFFFFFFFFFFFFFFFFFFFFFFFFFFFFFFFFFFFFFFFFFFFFFFFFFFFFFFFFFFFFFFFFFFFFFFFFFFF (9000)
A0E0FF00230000000A4F8301030000000100000000640000006F0601040000000000000000000000 (9000)
A0DC010464FFFFFFFFFFFFFFFFFFFFFFFFFFFFFFFFFFFFFFFFFFFFFFFFFFFFFFFFFFFFFFFFFFFFFFFFFFFFFFFFFFFFFFFFFFFFFFFFFFFFFFFFFFFFFFFFFFFFFFFFFFFFFFFFFFFFFFFFFFFFFFFFFFFFFFFFFFFFFFFFFFFFFFFFFFFFFFFFFFFFFFFFFFFFFFFFFFFFFFFF (9000)
A0DC020464FFFFFFFFFFFFFFFFFFFFFFFFFFFFFFFFFFFFFFFFFFFFFFFFFFFFFFFFFFFFFFFFFFFFFFFFFFFFFFFFFFFFFFFFFFFFFFFFFFFFFFFFFFFFFFFFFFFFFFFFFFFFFFFFFFFFFFFFFFFFFFFFFFFFFFFFFFFFFFFFFFFFFFFFFFFFFFFFFFFFFFFFFFFFFFFFFFFFFFFF (9000)
A0DC030464FFFFFFFFFFFFFFFFFFFFFFFFFFFFFFFFFFFFFFFFFFFFFFFFFFFFFFFFFFFFFFFFFFFFFFFFFFFFFFFFFFFFFFFFFFFFFFFFFFFFFFFFFFFFFFFFFFFFFFFFFFFFFFFFFFFFFFFFFFFFFFFFFFFFFFFFFFFFFFFFFFFFFFFFFFFFFFFFFFFFFFFFFFFFFFFFFFFFFFFF (9000)
A0DC040464FFFFFFFFFFFFFFFFFFFFFFFFFFFFFFFFFFFFFFFFFFFFFFFFFFFFFFFFFFFFFFFFFFFFFFFFFFFFFFFFFFFFFFFFFFFFFFFFFFFFFFFFFFFFFFFFFFFFFFFFFFFFFFFFFFFFFFFFFFFFFFFFFFFFFFFFFFFFFFFFFFFFFFFFFFFFFFFFFFFFFFFFFFFFFFFFFFFFFFFF (9000)
A0DC050464FFFFFFFFFFFFFFFFFFFFFFFFFFFFFFFFFFFFFFFFFFFFFFFFFFFFFFFFFFFFFFFFFFFFFFFFFFFFFFFFFFFFFFFFFFFFFFFFFFFFFFFFFFFFFFFFFFFFFFFFFFFFFFFFFFFFFFFFFFFFFFFFFFFFFFFFFFFFFFFFFFFFFFFFFFFFFFFFFFFFFFFFFFFFFFFFFFFFFFFF (9000)
A0DC060464FFFFFFFFFFFFFFFFFFFFFFFFFFFFFFFFFFFFFFFFFFFFFFFFFFFFFFFFFFFFFFFFFFFFFFFFFFFFFFFFFFFFFFFFFFFFFFFFFFFFFFFFFFFFFFFFFFFFFFFFFFFFFFFFFFFFFFFFFFFFFFFFFFFFFFFFFFFFFFFFFFFFFFFFFFFFFFFFFFFFFFFFFFFFFFFFFFFFFFFF (9000)
A0DC070464FFFFFFFFFFFFFFFFFFFFFFFFFFFFFFFFFFFFFFFFFFFFFFFFFFFFFFFFFFFFFFFFFFFFFFFFFFFFFFFFFFFFFFFFFFFFFFFFFFFFFFFFFFFFFFFFFFFFFFFFFFFFFFFFFFFFFFFFFFFFFFFFFFFFFFFFFFFFFFFFFFFFFFFFFFFFFFFFFFFFFFFFFFFFFFFFFFFFFFFF (9000)
A0DC080464FFFFFFFFFFFFFFFFFFFFFFFFFFFFFFFFFFFFFFFFFFFFFFFFFFFFFFFFFFFFFFFFFFFFFFFFFFFFFFFFFFFFFFFFFFFFFFFFFFFFFFFFFFFFFFFFFFFFFFFFFFFFFFFFFFFFFFFFFFFFFFFFFFFFFFFFFFFFFFFFFFFFFFFFFFFFFFFFFFFFFFFFFFFFFFFFFFFFFFFF (9000)
A0DC090464FFFFFFFFFFFFFFFFFFFFFFFFFFFFFFFFFFFFFFFFFFFFFFFFFFFFFFFFFFFFFFFFFFFFFFFFFFFFFFFFFFFFFFFFFFFFFFFFFFFFFFFFFFFFFFFFFFFFFFFFFFFFFFFFFFFFFFFFFFFFFFFFFFFFFFFFFFFFFFFFFFFFFFFFFFFFFFFFFFFFFFFFFFFFFFFFFFFFFFFF (9000)
A0DC0A0464FFFFFFFFFFFFFFFFFFFFFFFFFFFFFFFFFFFFFFFFFFFFFFFFFFFFFFFFFFFFFFFFFFFFFFFFFFFFFFFFFFFFFFFFFFFFFFFFFFFFFFFFFFFFFFFFFFFFFFFFFFFFFFFFFFFFFFFFFFFFFFFFFFFFFFFFFFFFFFFFFFFFFFFFFFFFFFFFFFFFFFFFFFFFFFFFFFFFFFFF (9000)
A0E0FF00230000000A4F8401040000000100000000640000006F0601030000000000000000000000 (9000)
A0DC010464FFFFFFFFFFFFFFFFFFFFFFFFFFFFFFFFFFFFFFFFFFFFFFFFFFFFFFFFFFFFFFFFFFFFFFFFFFFFFFFFFFFFFFFFFFFFFFFFFFFFFFFFFFFFFFFFFFFFFFFFFFFFFFFFFFFFFFFFFFFFFFFFFFFFFFFFFFFFFFFFFFFFFFFFFFFFFFFFFFFFFFFFFFFFFFFFFFFFFFFF (9000)
A0DC020464FFFFFFFFFFFFFFFFFFFFFFFFFFFFFFFFFFFFFFFFFFFFFFFFFFFFFFFFFFFFFFFFFFFFFFFFFFFFFFFFFFFFFFFFFFFFFFFFFFFFFFFFFFFFFFFFFFFFFFFFFFFFFFFFFFFFFFFFFFFFFFFFFFFFFFFFFFFFFFFFFFFFFFFFFFFFFFFFFFFFFFFFFFFFFFFFFFFFFFFF (9000)
A0DC030464FFFFFFFFFFFFFFFFFFFFFFFFFFFFFFFFFFFFFFFFFFFFFFFFFFFFFFFFFFFFFFFFFFFFFFFFFFFFFFFFFFFFFFFFFFFFFFFFFFFFFFFFFFFFFFFFFFFFFFFFFFFFFFFFFFFFFFFFFFFFFFFFFFFFFFFFFFFFFFFFFFFFFFFFFFFFFFFFFFFFFFFFFFFFFFFFFFFFFFFF (9000)
A0DC040464FFFFFFFFFFFFFFFFFFFFFFFFFFFFFFFFFFFFFFFFFFFFFFFFFFFFFFFFFFFFFFFFFFFFFFFFFFFFFFFFFFFFFFFFFFFFFFFFFFFFFFFFFFFFFFFFFFFFFFFFFFFFFFFFFFFFFFFFFFFFFFFFFFFFFFFFFFFFFFFFFFFFFFFFFFFFFFFFFFFFFFFFFFFFFFFFFFFFFFFF (9000)
A0DC050464FFFFFFFFFFFFFFFFFFFFFFFFFFFFFFFFFFFFFFFFFFFFFFFFFFFFFFFFFFFFFFFFFFFFFFFFFFFFFFFFFFFFFFFFFFFFFFFFFFFFFFFFFFFFFFFFFFFFFFFFFFFFFFFFFFFFFFFFFFFFFFFFFFFFFFFFFFFFFFFFFFFFFFFFFFFFFFFFFFFFFFFFFFFFFFFFFFFFFFFF (9000)
A0DC060464FFFFFFFFFFFFFFFFFFFFFFFFFFFFFFFFFFFFFFFFFFFFFFFFFFFFFFFFFFFFFFFFFFFFFFFFFFFFFFFFFFFFFFFFFFFFFFFFFFFFFFFFFFFFFFFFFFFFFFFFFFFFFFFFFFFFFFFFFFFFFFFFFFFFFFFFFFFFFFFFFFFFFFFFFFFFFFFFFFFFFFFFFFFFFFFFFFFFFFFF (9000)
A0DC070464FFFFFFFFFFFFFFFFFFFFFFFFFFFFFFFFFFFFFFFFFFFFFFFFFFFFFFFFFFFFFFFFFFFFFFFFFFFFFFFFFFFFFFFFFFFFFFFFFFFFFFFFFFFFFFFFFFFFFFFFFFFFFFFFFFFFFFFFFFFFFFFFFFFFFFFFFFFFFFFFFFFFFFFFFFFFFFFFFFFFFFFFFFFFFFFFFFFFFFFF (9000)
A0DC080464FFFFFFFFFFFFFFFFFFFFFFFFFFFFFFFFFFFFFFFFFFFFFFFFFFFFFFFFFFFFFFFFFFFFFFFFFFFFFFFFFFFFFFFFFFFFFFFFFFFFFFFFFFFFFFFFFFFFFFFFFFFFFFFFFFFFFFFFFFFFFFFFFFFFFFFFFFFFFFFFFFFFFFFFFFFFFFFFFFFFFFFFFFFFFFFFFFFFFFFF (9000)
A0DC090464FFFFFFFFFFFFFFFFFFFFFFFFFFFFFFFFFFFFFFFFFFFFFFFFFFFFFFFFFFFFFFFFFFFFFFFFFFFFFFFFFFFFFFFFFFFFFFFFFFFFFFFFFFFFFFFFFFFFFFFFFFFFFFFFFFFFFFFFFFFFFFFFFFFFFFFFFFFFFFFFFFFFFFFFFFFFFFFFFFFFFFFFFFFFFFFFFFFFFFFF (9000)
A0DC0A0464FFFFFFFFFFFFFFFFFFFFFFFFFFFFFFFFFFFFFFFFFFFFFFFFFFFFFFFFFFFFFFFFFFFFFFFFFFFFFFFFFFFFFFFFFFFFFFFFFFFFFFFFFFFFFFFFFFFFFFFFFFFFFFFFFFFFFFFFFFFFFFFFFFFFFFFFFFFFFFFFFFFFFFFFFFFFFFFFFFFFFFFFFFFFFFFFFFFFFFFF (9000)
A0E0FF00230000000A4F8501050000000100000000640000006F0601030000000000000000000000 (9000)
A0DC010464FFFFFFFFFFFFFFFFFFFFFFFFFFFFFFFFFFFFFFFFFFFFFFFFFFFFFFFFFFFFFFFFFFFFFFFFFFFFFFFFFFFFFFFFFFFFFFFFFFFFFFFFFFFFFFFFFFFFFFFFFFFFFFFFFFFFFFFFFFFFFFFFFFFFFFFFFFFFFFFFFFFFFFFFFFFFFFFFFFFFFFFFFFFFFFFFFFFFFFFF (9000)
A0DC020464FFFFFFFFFFFFFFFFFFFFFFFFFFFFFFFFFFFFFFFFFFFFFFFFFFFFFFFFFFFFFFFFFFFFFFFFFFFFFFFFFFFFFFFFFFFFFFFFFFFFFFFFFFFFFFFFFFFFFFFFFFFFFFFFFFFFFFFFFFFFFFFFFFFFFFFFFFFFFFFFFFFFFFFFFFFFFFFFFFFFFFFFFFFFFFFFFFFFFFFF (9000)
A0DC030464FFFFFFFFFFFFFFFFFFFFFFFFFFFFFFFFFFFFFFFFFFFFFFFFFFFFFFFFFFFFFFFFFFFFFFFFFFFFFFFFFFFFFFFFFFFFFFFFFFFFFFFFFFFFFFFFFFFFFFFFFFFFFFFFFFFFFFFFFFFFFFFFFFFFFFFFFFFFFFFFFFFFFFFFFFFFFFFFFFFFFFFFFFFFFFFFFFFFFFFF (9000)
A0DC040464FFFFFFFFFFFFFFFFFFFFFFFFFFFFFFFFFFFFFFFFFFFFFFFFFFFFFFFFFFFFFFFFFFFFFFFFFFFFFFFFFFFFFFFFFFFFFFFFFFFFFFFFFFFFFFFFFFFFFFFFFFFFFFFFFFFFFFFFFFFFFFFFFFFFFFFFFFFFFFFFFFFFFFFFFFFFFFFFFFFFFFFFFFFFFFFFFFFFFFFF (9000)
A0DC050464FFFFFFFFFFFFFFFFFFFFFFFFFFFFFFFFFFFFFFFFFFFFFFFFFFFFFFFFFFFFFFFFFFFFFFFFFFFFFFFFFFFFFFFFFFFFFFFFFFFFFFFFFFFFFFFFFFFFFFFFFFFFFFFFFFFFFFFFFFFFFFFFFFFFFFFFFFFFFFFFFFFFFFFFFFFFFFFFFFFFFFFFFFFFFFFFFFFFFFFF (9000)
A0DC060464FFFFFFFFFFFFFFFFFFFFFFFFFFFFFFFFFFFFFFFFFFFFFFFFFFFFFFFFFFFFFFFFFFFFFFFFFFFFFFFFFFFFFFFFFFFFFFFFFFFFFFFFFFFFFFFFFFFFFFFFFFFFFFFFFFFFFFFFFFFFFFFFFFFFFFFFFFFFFFFFFFFFFFFFFFFFFFFFFFFFFFFFFFFFFFFFFFFFFFFF (9000)
A0DC070464FFFFFFFFFFFFFFFFFFFFFFFFFFFFFFFFFFFFFFFFFFFFFFFFFFFFFFFFFFFFFFFFFFFFFFFFFFFFFFFFFFFFFFFFFFFFFFFFFFFFFFFFFFFFFFFFFFFFFFFFFFFFFFFFFFFFFFFFFFFFFFFFFFFFFFFFFFFFFFFFFFFFFFFFFFFFFFFFFFFFFFFFFFFFFFFFFFFFFFFF (9000)
A0DC080464FFFFFFFFFFFFFFFFFFFFFFFFFFFFFFFFFFFFFFFFFFFFFFFFFFFFFFFFFFFFFFFFFFFFFFFFFFFFFFFFFFFFFFFFFFFFFFFFFFFFFFFFFFFFFFFFFFFFFFFFFFFFFFFFFFFFFFFFFFFFFFFFFFFFFFFFFFFFFFFFFFFFFFFFFFFFFFFFFFFFFFFFFFFFFFFFFFFFFFFF (9000)
A0DC090464FFFFFFFFFFFFFFFFFFFFFFFFFFFFFFFFFFFFFFFFFFFFFFFFFFFFFFFFFFFFFFFFFFFFFFFFFFFFFFFFFFFFFFFFFFFFFFFFFFFFFFFFFFFFFFFFFFFFFFFFFFFFFFFFFFFFFFFFFFFFFFFFFFFFFFFFFFFFFFFFFFFFFFFFFFFFFFFFFFFFFFFFFFFFFFFFFFFFFFFF (9000)
A0DC0A0464FFFFFFFFFFFFFFFFFFFFFFFFFFFFFFFFFFFFFFFFFFFFFFFFFFFFFFFFFFFFFFFFFFFFFFFFFFFFFFFFFFFFFFFFFFFFFFFFFFFFFFFFFFFFFFFFFFFFFFFFFFFFFFFFFFFFFFFFFFFFFFFFFFFFFFFFFFFFFFFFFFFFFFFFFFFFFFFFFFFFFFFFFFFFFFFFFFFFFFFF (9000)
A0E0FF00230000000A4F8601060000000100000000640000006F0601030000000000000000000000 (9000)
A0DC010464FFFFFFFFFFFFFFFFFFFFFFFFFFFFFFFFFFFFFFFFFFFFFFFFFFFFFFFFFFFFFFFFFFFFFFFFFFFFFFFFFFFFFFFFFFFFFFFFFFFFFFFFFFFFFFFFFFFFFFFFFFFFFFFFFFFFFFFFFFFFFFFFFFFFFFFFFFFFFFFFFFFFFFFFFFFFFFFFFFFFFFFFFFFFFFFFFFFFFFFF (9000)
A0DC020464FFFFFFFFFFFFFFFFFFFFFFFFFFFFFFFFFFFFFFFFFFFFFFFFFFFFFFFFFFFFFFFFFFFFFFFFFFFFFFFFFFFFFFFFFFFFFFFFFFFFFFFFFFFFFFFFFFFFFFFFFFFFFFFFFFFFFFFFFFFFFFFFFFFFFFFFFFFFFFFFFFFFFFFFFFFFFFFFFFFFFFFFFFFFFFFFFFFFFFFF (9000)
A0DC030464FFFFFFFFFFFFFFFFFFFFFFFFFFFFFFFFFFFFFFFFFFFFFFFFFFFFFFFFFFFFFFFFFFFFFFFFFFFFFFFFFFFFFFFFFFFFFFFFFFFFFFFFFFFFFFFFFFFFFFFFFFFFFFFFFFFFFFFFFFFFFFFFFFFFFFFFFFFFFFFFFFFFFFFFFFFFFFFFFFFFFFFFFFFFFFFFFFFFFFFF (9000)
A0DC040464FFFFFFFFFFFFFFFFFFFFFFFFFFFFFFFFFFFFFFFFFFFFFFFFFFFFFFFFFFFFFFFFFFFFFFFFFFFFFFFFFFFFFFFFFFFFFFFFFFFFFFFFFFFFFFFFFFFFFFFFFFFFFFFFFFFFFFFFFFFFFFFFFFFFFFFFFFFFFFFFFFFFFFFFFFFFFFFFFFFFFFFFFFFFFFFFFFFFFFFF (9000)
A0DC050464FFFFFFFFFFFFFFFFFFFFFFFFFFFFFFFFFFFFFFFFFFFFFFFFFFFFFFFFFFFFFFFFFFFFFFFFFFFFFFFFFFFFFFFFFFFFFFFFFFFFFFFFFFFFFFFFFFFFFFFFFFFFFFFFFFFFFFFFFFFFFFFFFFFFFFFFFFFFFFFFFFFFFFFFFFFFFFFFFFFFFFFFFFFFFFFFFFFFFFFF (9000)
A0DC060464FFFFFFFFFFFFFFFFFFFFFFFFFFFFFFFFFFFFFFFFFFFFFFFFFFFFFFFFFFFFFFFFFFFFFFFFFFFFFFFFFFFFFFFFFFFFFFFFFFFFFFFFFFFFFFFFFFFFFFFFFFFFFFFFFFFFFFFFFFFFFFFFFFFFFFFFFFFFFFFFFFFFFFFFFFFFFFFFFFFFFFFFFFFFFFFFFFFFFFFF (9000)
A0DC070464FFFFFFFFFFFFFFFFFFFFFFFFFFFFFFFFFFFFFFFFFFFFFFFFFFFFFFFFFFFFFFFFFFFFFFFFFFFFFFFFFFFFFFFFFFFFFFFFFFFFFFFFFFFFFFFFFFFFFFFFFFFFFFFFFFFFFFFFFFFFFFFFFFFFFFFFFFFFFFFFFFFFFFFFFFFFFFFFFFFFFFFFFFFFFFFFFFFFFFFF (9000)
A0DC080464FFFFFFFFFFFFFFFFFFFFFFFFFFFFFFFFFFFFFFFFFFFFFFFFFFFFFFFFFFFFFFFFFFFFFFFFFFFFFFFFFFFFFFFFFFFFFFFFFFFFFFFFFFFFFFFFFFFFFFFFFFFFFFFFFFFFFFFFFFFFFFFFFFFFFFFFFFFFFFFFFFFFFFFFFFFFFFFFFFFFFFFFFFFFFFFFFFFFFFFF (9000)
A0DC090464FFFFFFFFFFFFFFFFFFFFFFFFFFFFFFFFFFFFFFFFFFFFFFFFFFFFFFFFFFFFFFFFFFFFFFFFFFFFFFFFFFFFFFFFFFFFFFFFFFFFFFFFFFFFFFFFFFFFFFFFFFFFFFFFFFFFFFFFFFFFFFFFFFFFFFFFFFFFFFFFFFFFFFFFFFFFFFFFFFFFFFFFFFFFFFFFFFFFFFFF (9000)
A0DC0A0464FFFFFFFFFFFFFFFFFFFFFFFFFFFFFFFFFFFFFFFFFFFFFFFFFFFFFFFFFFFFFFFFFFFFFFFFFFFFFFFFFFFFFFFFFFFFFFFFFFFFFFFFFFFFFFFFFFFFFFFFFFFFFFFFFFFFFFFFFFFFFFFFFFFFFFFFFFFFFFFFFFFFFFFFFFFFFFFFFFFFFFFFFFFFFFFFFFFFFFFF (9000)
A0A40000027F4F (9000)
A0E0000123000000126FFC00000000000200000000000000006F06010B0000000000000000000000 (9000)
A0E0000123000000686FFD00000000000200000000000000006F06010B0000000000000000000000 (9000)
A0E0000123000000216FFE01000000000200000000060000006F06010B0000000000000000000000 (9000)
A0E00001230000000C6F6900000000000200000000000000006F06010B0000000000000000000000 (9000)
A0A40000023F00 (9000)
A0A40000027F10 (9000)
A0E0FF0028000000096F0601000000000100000000300000006F06010100000000000000000580017F90000000 (9000)
A0DC0904308401329700800103A406830101950108800118A40683010A950108FFFFFFFFFFFFFFFFFFFFFFFFFFFFFFFFFFFFFFFFFF (9000)
A0DC080430800101A406830101950108800102A40683018195010880011CA40683010A950108FFFFFFFFFFFFFFFFFFFFFFFFFFFFFF (9000)
A0DC070430800103A406830101950108800104A40683010A950108800118A406830181950108FFFFFFFFFFFFFFFFFFFFFFFFFFFFFF (9000)
A0DC06043080011FA40683010A950108FFFFFFFFFFFFFFFFFFFFFFFFFFFFFFFFFFFFFFFFFFFFFFFFFFFFFFFFFFFFFFFFFFFFFFFFFF (9000)
A0DC050430800101A40683010195010880011EA40683010A950108FFFFFFFFFFFFFFFFFFFFFFFFFFFFFFFFFFFFFFFFFFFFFFFFFFFF (9000)
A0DC040430800103A40683010195010880011CA40683010A950108FFFFFFFFFFFFFFFFFFFFFFFFFFFFFFFFFFFFFFFFFFFFFFFFFFFF (9000)
A0DC0304308C02A0E89000800107A40683010A950108FFFFFFFFFFFFFFFFFFFFFFFFFFFFFFFFFFFFFFFFFFFFFFFFFFFFFFFFFFFFFF (9000)
A0DC020430800101900080011AA406830101950108800104A40683010A950108FFFFFFFFFFFFFFFFFFFFFFFFFFFFFFFFFFFFFFFFFF (9000)
A0DC010430800101900080011EA40683010A950108FFFFFFFFFFFFFFFFFFFFFFFFFFFFFFFFFFFFFFFFFFFFFFFFFFFFFFFFFFFFFFFF (9000)
A0E0FF0023000000056FE0010000000001000000001C0000006F0601020000000000000000000000 (9000)
A0E0FF0023000000056FE101000000000100000000C80000006F0601020000000000000000000000 (9000)
A0E0000127000000025F3C10000000000100000000000000006F060103000000000000000000000400010000 (9000)
A0E00001230000000A4F2000000000000100000000000000006F0601040000000000000000000000 (9000)
A0EA00000AFFFFFFFFFFFFFFFFFFFF (9000)
A0E0000123000000154F2100000000000100000000000000006F0601040000000000000000000000 (9000)
A0EA000015FFFFFFFFFFFFFFFFFFFFFFFFFFFFFFFFFFFFFFFFFF (9000)
A0A40000027F10 (9000)
A0E0000127000000015F5010000000000100000000000000006F060103000000000000000000000400010000 (9000)
A0E0FF0023000000144F20010000000001000000000A0000006F0601050000000000000000000000 (9000)
A0A40000027F10 (9000)
A0E0000123000000166F5400000000000200000000000000006F0601060000000000000000000000 (9000)
A0E00001270000000C5F3A10000000000100000000000000006F060103000000000000000000000400010000 (9000)
A0E0FF0023000000FA4F3A011A00000002000000001C0000006F0601040000000000000000000000 (9000)
A0E0FF0023000000FA4F07010700000001000000000F0000006F0601040000000000000000000000 (9000)
A0E0FF0023000000644F0801080000000100000000120000006F0601040000000000000000000000 (9000)
A0E0FF0023000000FA4F0901090000000100000000280000006F0601040000000000000000000000 (9000)
A0E0FF0023000000FA4F0101010000000100000000010000006F0601040000000000000000000000 (9000)
A0E0000023000B00FA4F0301030000000100000000020000006F0601040000000000000000000000 (9000)
A0E0FF0023000000014F30010000000001000000004E0000006F0601050000000000000000000000 (9000)
A0DC01044EA81EC0034F3A1AC4034F0707CA034F0909C1034F0101C6034F0404C5034F0303A905C3034F0808AA14C8034F0B05CB034F3D1DC2034F0202C7034F0506FFFFFFFFFFFFFFFFFFFFFFFFFFFFFFFFFF (9000)
A0E0FF0023000000144F02010200000002000000000D0000006F0601040000000000000000000000 (9000)
A0E0FF0023000000054F3D011D00000002000000000F0000006F0601040000000000000000000000 (9000)
A0E0000023000000FA4F0401040000000100000000050000006F0601040000000000000000000000 (9000)
A0E0FF0023000000FA4F0B010500000001000000000C0000006F0601040000000000000000000000 (9000)
A0E0FF00230000000A4F05010600000001000000000C0000006F0601040000000000000000000000 (9000)
A0A40000027F10 (9000)
A0E0FF0023000000056F44030000000021000000001C0000006F0601090000000000000000000000 (9000)
A0E0FF0023000000056FE501000000000100000000320000006F0601040000000000000000000000 (9000)
A0A40000023F00 (9000)
A0A40000027F20 (9000)
A0E0000127000000055F3C10000000000100000000000000002F060102000000000000000000000400010000 (9000)
A0A40000027F20 (9000)
A0E00001230000000F6F3800000000000100000000000000002F06010A0000000000000000000000 (9000)
A0EA00000FFF33FFFF3FFF3F0FFFFCFCFFF0FF33 (9000)
A0E0000123000000016FAE00000000000100000000000000002F0601070000000000000000000000 (9000)
A0EA00000103 (9000)
A0E0000123000000106F7400000000000100000000000000002F06010D0000000000000000000000 (9000)
A0EA000010FFFFFFFFFFFFFFFFFFFFFFFFFFFFFFFF (9000)
A0E0000123000000666F3000000000000100000000000000002F06010D0000000000000000000000 (9000)
A0EA00006632F41032F42032F43032F44032F45032F46032F47032F48032F49032F40132F41132F42132F43132F44132F45132F46132F47132F48132F49132F40232F41232F42232F43232F44232F45232F46232F47232F48232F49232F40332F41332F42332F43332F443 (9000)
A0E0000123000000046FB100000000000100000000000000002F06010A0000000000000000000000 (9000)
A0EA000004FFFFFFFF (9000)
A0E0000123000000076FB200000000000100000000000000002F06010A0000000000000000000000 (9000)
A0EA000007000000000000FC (9000)
A0E0000123000000046FB300000000000100000000000000002F06010A0000000000000000000000 (9000)
A0EA000004FFFFFFFF (9000)
A0E0000123000000076FB400000000000100000000000000002F06010A0000000000000000000000 (9000)
A0EA000007000000000000FC (9000)
A0E0000127000000035F7010000000000100000000000000002F06010F000000000000000000000400010000 (9000)
A0A40000027F20 (9000)
A0E00001230000000F6FB700000000000100000000000000002F0601070000000000000000000000 (9000)
A0EA00000FFFFFFFFFFFFFFFFFFFFFFFFFFFFFFF (9000)
A0A40000023F00 (9000)
A0A40000027FF2 (9000)
A0E0FF0028000000086F0601170000000100000000300000006F06010100000000000000000580017F90000000 (9000)
A0DC05043080011B9700800104A40683010A950108FFFFFFFFFFFFFFFFFFFFFFFFFFFFFFFFFFFFFFFFFFFFFFFFFFFFFFFFFFFFFFFF (9000)
A0DC040430800101970080011EA40683010A950108FFFFFFFFFFFFFFFFFFFFFFFFFFFFFFFFFFFFFFFFFFFFFFFFFFFFFFFFFFFFFFFF (9000)
A0DC030430800103A40683010195010880011CA40683010A950108FFFFFFFFFFFFFFFFFFFFFFFFFFFFFFFFFFFFFFFFFFFFFFFFFFFF (9000)
A0DC020430800101A40683010195010880011EA40683010A950108FFFFFFFFFFFFFFFFFFFFFFFFFFFFFFFFFFFFFFFFFFFFFFFFFFFF (9000)
A0DC010430800101900080011EA40683010A950108FFFFFFFFFFFFFFFFFFFFFFFFFFFFFFFFFFFFFFFFFFFFFFFFFFFFFFFFFFFFFFFF (9000)
A0E0000123000000026F0700070000000100000000000000006F0601020000000000000000000000 (9000)
A0EA000002E200 (9000)
A0E0000123000000036FAD00030000000100000000000000006F0601010000000000000000000000 (9000)
A0EA000003800000 (9000)
A0E0000123000000646F0300050000000100000000000000006F0601020000000000000000000000 (9000)
A0EA0000648000FFFFFFFFFFFFFFFFFFFFFFFFFFFFFFFFFFFFFFFFFFFFFFFFFFFFFFFFFFFFFFFFFFFFFFFFFFFFFFFFFFFFFFFFFFFFFFFFFFFFFFFFFFFFFFFFFFFFFFFFFFFFFFFFFFFFFFFFFFFFFFFFFFFFFFFFFFFFFFFFFFFFFFFFFFFFFFFFFFFFFFFFFFFFFFFFFFFF (9000)
A0E0FF00230000000A6F0401040000000100000000640000006F0601020000000000000000000000 (9000)
A0DC01046480357369703A30303130313031323334353637383940696D732E6D6E633030312E6D63633030312E336770706E6574776F726B2E6F7267FFFFFFFFFFFFFFFFFFFFFFFFFFFFFFFFFFFFFFFFFFFFFFFFFFFFFFFFFFFFFFFFFFFFFFFFFFFFFFFFFFFFFFFFFF (9000)
A0DC020464801E7369703A2B313132333435363738393040746573742E336770702E636F6DFF3030312E336770706E6574776F726B2E6F7267FFFFFFFFFFFFFFFFFFFFFFFFFFFFFFFFFFFFFFFFFFFFFFFFFFFFFFFFFFFFFFFFFFFFFFFFFFFFFFFFFFFFFFFFFFFFFFFF (9000)
A0DC03046480167369703A7573657240746573742E336770702E636F6DFF633030312E6D63633030312E336770706E6574776F726B2E6F7267FFFFFFFFFFFFFFFFFFFFFFFFFFFFFFFFFFFFFFFFFFFFFFFFFFFFFFFFFFFFFFFFFFFFFFFFFFFFFFFFFFFFFFFFFFFFFFFF (9000)
A0E0000123000000666F0200020000000100000000000000006F0601020000000000000000000000 (9000)
A0EA000066FFFFFFFFFFFFFFFFFFFFFFFFFFFFFFFFFFFFFFFFFFFFFFFFFFFFFFFFFFFFFFFFFFFFFFFFFFFFFFFFFFFFFFFFFFFFFFFFFFFFFFFFFFFFFFFFFFFFFFFFFFFFFFFFFFFFFFFFFFFFFFFFFFFFFFFFFFFFFFFFFFFFFFFFFFFFFFFFFFFFFFFFFFFFFFFFFFFFFFFFFFFF (9000)
A0E0FF00230000000A6F0901000000000100000000640000006F0601020000000000000000000000 (9000)
A0E0000123000000136FD500000000000100000000000000006F0601030000000000000000000000 (9000)
A0EA000013FFFFFFFFFFFFFFFFFFFFFFFFFFFFFFFFFFFFFF (9000)
A0E0FF0023000000056FD701000000000100000000500000006F0601020000000000000000000000 (9000)
A0E0FF0023000000066FFA01000000000100000000240000006F0601040000000000000000000000 (9000)
A0DC010424FFFFFFFFFFFFFFFFFFFFFFFFFFFFFFFFFFFFFFFFFFFFFFFFFFFFFFFFFFFFFFFFFFFFFFFF (9000)
A0DC020424FFFFFFFFFFFFFFFFFFFFFFFFFFFFFFFFFFFFFFFFFFFFFFFFFFFFFFFFFFFFFFFFFFFFFFFF (9000)
A0DC030424FFFFFFFFFFFFFFFFFFFFFFFFFFFFFFFFFFFFFFFFFFFFFFFFFFFFFFFFFFFFFFFFFFFFFFFF (9000)
A0DC040424FFFFFFFFFFFFFFFFFFFFFFFFFFFFFFFFFFFFFFFFFFFFFFFFFFFFFFFFFFFFFFFFFFFFFFFF (9000)
A0DC050424FFFFFFFFFFFFFFFFFFFFFFFFFFFFFFFFFFFFFFFFFFFFFFFFFFFFFFFFFFFFFFFFFFFFFFFF (9000)
A0DC060424FFFFFFFFFFFFFFFFFFFFFFFFFFFFFFFFFFFFFFFFFFFFFFFFFFFFFFFFFFFFFFFFFFFFFFFF (9000)
A0E0FF0023000000026F42010000000001000000002A0000006F0601030000000000000000000000 (9000)
A0E0000223000000146F47010000000001000000001E0000006F0601030000000000000000000000 (9000)
A0E0000223000000146F3C01000000000100000000B00000006F0601030000000000000000000000 (9000)
A0E0000123000000026F4300000000000100000000000000006F0601030000000000000000000000 (9000)
A0EA000002FFFF (9000)
A0A40000027FDE (9000)
A0A40000023F00 (9000)
A0A40000027F4F (9000)
A0A40000025F3C (9000)
A0A40000027F4F (9000)
A0A40000025F40 (9000)
A0A40000027F4F (9000)
A0A40000025F3B (9000)
A0A40000027F4F (9000)
A0A40000025F70 (9000)
A0A40000027F4F (9000)
A0A40000025F50 (9000)
A0A40000027F4F (9000)
A0A40000023F00 (9000)
A0A40000027F10 (9000)
A0A40000025F3C (9000)
A0A40000027F10 (9000)
A0A40000025F50 (9000)
A0A40000027F10 (9000)
A0A40000025F3A (9000)
A0A40000027F10 (9000)
A0E0000123000000006F3A81000000002100000000000000006F06010700007F105F3A4F3A000000 (9000)
A0E0000123000000006F4081000000002100000000000000006F06010400007F4F6F400000000000 (9000)
A0E0000123000000006F4981000000002100000000000000006F06010500007F4F6F490000000000 (9000)
A0E0000123000000006F3B81000000002100000000000000006F06010800007F4F6F3B0000000000 (9000)
A0E0000123000000006F3C81000000002100000000000000006F06010400007F4F6F3C0000000000 (9000)
A0E0000123000000006F4380000000002100000000000000006F06010400007F4F6F430000000000 (9000)
A0E0000123000000006F4781000000002100000000000000006F06010400007F4F6F470000000000 (9000)
A0E0000123000000006F4281000000002100000000000000006F06010400007F4F6F420000000000 (9000)
A0E0000123000000006F4A81000000002100000000000000006F06010400007F105F3A4F02000000 (9000)
A0E0000123000000006F4F81000000002100000000000000006F06010400007F105F3A4F3D000000 (9000)
A0E0000123000000006F4C81000000002100000000000000006F06010500007F4F6F4C0000000000 (9000)
A0E0000123000000006F4B81000000002100000000000000006F06010800007F4F6F4B0000000000 (9000)
A0A40000023F00 (9000)
A0A40000027F20 (9000)
A0A40000025F3C (9000)
A0E0000123000000004F4080000000002100000000000000002F06010900007F4F5F3C4F40000000 (9000)
A0E0000123000000004F4181000000002100000000000000002F06010900007F4F5F3C4F41000000 (9000)
A0E0000123000000004F4281000000002100000000000000002F06010900007F4F5F3C4F42000000 (9000)
A0E0000123000000004F4381000000002100000000000000002F06010900007F4F5F3C4F43000000 (9000)
A0E0000123000000004F4480000000002100000000000000002F06010900007F4F5F3C4F44000000 (9000)
A0A40000027F20 (9000)
A0E0000123000000006F0780000000002100000000000000002F06010B00007F4F6F070000000000 (9000)
A0E0000123000000006F7E80000000002100000000000000002F06010C00007F4F6F7E0000000000 (9000)
A0E0000123000000006FAD80000000002100000000000000002F06010700007F4F6FAD0000000000 (9000)
A0E0000123000000006F7880000000002100000000000000002F06010A00007F4F6F780000000000 (9000)
A0E0000123000000006F0580000000002100000000000000002F06010E00002F0500000000000000 (9000)
A0E0000123000000006F2080000000002100000000000000002F06010D00007F4F5F3B4F20000000 (9000)
A0E0000123000000006F3E80000000002100000000000000002F06010A00007F4F6F3E0000000000 (9000)
A0E0000123000000006F3F80000000002100000000000000002F06010A00007F4F6F3F0000000000 (9000)
A0E0000123000000006F5480000000002100000000000000002F06010800007F106F540000000000 (9000)
A0E0000123000000006F7B80000000002100000000000000002F06010D00007F4F6F7B0000000000 (9000)
A0E0000123000000006F3180000000002100000000000000002F06010A00007F4F6F310000000000 (9000)
A0E0000123000000006F5280000000002100000000000000002F06010D00007F4F5F3B4F52000000 (9000)
A0E0000123000000006F5380000000002100000000000000002F06010D00007F4F6F730000000000 (9000)
A0E0000123000000006F3280000000002100000000000000002F06010A00007F4F6F320000000000 (9000)
A0E0000123000000006F2C80000000002100000000000000002F06010D00007F4F6F2C0000000000 (9000)
A0E0000123000000006FB580000000002100000000000000002F06010A00007F4F6FB50000000000 (9000)
A0E0000123000000006FB680000000002100000000000000002F06010D00007F4F6FB60000000000 (9000)
A0E0000123000000006F5181000000002100000000000000002F06010A00007F4F6FD30000000000 (9000)
A0A40000025F70 (9000)
A0E0000123000000004F3080000000002100000000000000002F06010900007F4F5F704F30000000 (9000)
A0E0000123000000004F3181000000002100000000000000002F06011000007F4F5F704F31000000 (9000)
A0E0000123000000004F3281000000002100000000000000002F06010900007F4F5F704F32000000 (9000)
A0A40000027F20 (9000)
A0E0000123000000006FCA81000000002100000000000000002F06010D00007F4F6FCA0000000000 (9000)
A0E0000123000000006FCC81000000002100000000000000002F06010D00007F4F6FCC0000000000 (9000)
A0E0000123000000006FCB81000000002100000000000000002F06010D00007F4F6FCB0000000000 (9000)
A0E0000123000000006FC981000000002100000000000000002F06010D00007F4F6FC90000000000 (9000)
A0E0000123000000006FC881000000002100000000000000002F06010D00007F4F6FC80000000000 (9000)
A0E0000123000000006FC781000000002100000000000000002F06010D00007F4F6FC70000000000 (9000)
A0E0000123000000006F6080000000002100000000000000002F06010D00007F4F6F600000000000 (9000)
A0E0000123000000006F6180000000002100000000000000002F06010A00007F4F6F610000000000 (9000)
A0E0000123000000006F6280000000002100000000000000002F06010A00007F4F6F620000000000 (9000)
A0E0000123000000006F6380000000002100000000000000002F06010D00007F4F5F3B4F63000000 (9000)
A0E0000123000000006F6480000000002100000000000000002F06010A00007F4F5F3B4F64000000 (9000)
A0E0000123000000006FC581000000002100000000000000002F06010700007F4F6FC50000000000 (9000)
A0E0000123000000006FC681000000002100000000000000002F06010700007F4F6FC60000000000 (9000)
A0E0000123000000006F4680000000002100000000000000002F06010700007F4F6F460000000000 (9000)
A0E0000123000000006FCD80000000002100000000000000002F06010A00007F4F6FCD0000000000 (9000)
A0E0000123000000006F3983000000000100000000000000002F06011100007F4F6F390000000000 (9000)
A0E0000123000000006F3780000000002100000000000000002F06011200007F4F6F370000000000 (9000)
A0E0000123000000006F4180000000002100000000000000002F06011200007F4F6F410000000000 (9000)
A0E0000123000000006FD080000000002100000000000000002F06010A00007F4F6FD00000000000 (9000)
A0E0000123000000006FD181000000002100000000000000002F06010D00007F4F6FD10000000000 (9000)
A0E0000123000000006FCE81000000002100000000000000002F06010D00007F4F6FCE0000000000 (9000)
A0E0000123000000006FD280000000002100000000000000002F06011200007F4F6FD20000000000 (9000)
A0E0000123000000006F4580000000002100000000000000002F06010D00007F4F6F450000000000 (9000)
A0E0000123000000006F5080000000002100000000000000002F06010D00007F4F6F500000000000 (9000)
A0E0000123000000006F4880000000002100000000000000002F06010A00007F4F6F480000000000 (9000)
A0E0000123000000006FFD80000000002100000000000000002F06010600007F4F6FFD0000000000 (9000)
A0A40000023F00 (9000)
A0A40000027FF2 (9000)
A0E0000123000000006FFC80000000002100000000000000006F06010500007F4F6FFC0000000000 (9000)
A0E0000123000000006FFD80000000002100000000000000006F06010500007F4F6FFD0000000000 (9000)
A0E0000123000000006FFE81000000002100000000000000006F06010500007F4F6FFE0000000000 (9000)
A0E0000123000000006F6980000000002100000000000000006F06010500007F4F6F690000000000 (9000)
A0A40000023F00 (9000)
A0A40000027FDE (9000)
A0A40000023F00 (9000)
A0A40000027F4F (9000)
A0A40000025F3C (9000)
A0A40000024F40 (9000)
A044000000 (9000)
A0EA00000100 (9000)
A0A40000024F41 (9000)
A044000000 (9000)
A0A40000024F42 (9000)
A044000000 (9000)
A0A40000024F43 (9000)
A044000000 (9000)
A0A40000024F44 (9000)
A044000000 (9000)
A0EA000096FFFFFFFFFFFFFFFFFFFFFFFFFFFFFFFFFFFFFFFFFFFFFFFFFFFFFFFFFFFFFFFFFFFFFFFFFFFFFFFFFFFFFFFFFFFFFFFFFFFFFFFFFFFFFFFFFFFFFFFFFFFFFFFFFFFFFFFFFFFFFFFFFFFFFFFFFFFFFFFFFFFFFFFFFFFFFFFFFFFFFFFFFFFFFFFFFFFFFFFFFFFFFFFFFFFFFFFFFFFFFFFFFFFFFFFFFFFFFFFFFFFFFFFFFFFFFFFFFFFFFFFFFFFFFFFFFFFFFFFFFFFFFFFFFFFFFFFFFFFF (9000)
A0A40000027F4F (9000)
A0A40000025F40 (9000)
A0A40000027F4F (9000)
A0A40000026F07 (9000)
A044000000 (9000)
A0A40000026F7E (9000)
A044000000 (9000)
A0EA00000BFFFFFFFF02F4400000FF01 (9000)
A0A40000026F73 (9000)
A044000000 (9000)
A0EA00000EFFFFFFFFFFFFFF02F440FFFEFF01 (9000)
A0A40000026FAD (9000)
A044000000 (9000)
A0EA00000480000002 (9000)
A0A40000026F78 (9000)
A044000000 (9000)
A0EA0000020001 (9000)
A0A40000026F3E (9000)
A044000000 (9000)
A0EA000002FFFF (9000)
A0A40000026F3F (9000)
A044000000 (9000)
A0EA000002FFFF (9000)
A0A40000026F7B (9000)
A044000000 (9000)
A0EA000012FFFFFFFFFFFFFFFFFFFFFFFFFFFFFFFFFFFF (9000)
A0A40000025F3B (9000)
A0A40000024F20 (9000)
A044000000 (9000)
A0EA000009FFFFFFFFFFFFFFFF07 (9000)
A0A40000024F52 (9000)
A044000000 (9000)
A0EA000009FFFFFFFFFFFFFFFF07 (9000)
A0A40000024F63 (9000)
A044000000 (9000)
A0EA000010FFFFFFFFFFFFFFFFFFFFFFFFFFFFFFFF (9000)
A0A40000024F64 (9000)
A044000000 (9000)
A0EA00000100 (9000)
A0A40000027F4F (9000)
A0A40000026F60 (9000)
A044000000 (9000)
A0EA0000E6FFFFFF0000FFFFFF0000FFFFFF0000FFFFFF0000FFFFFF0000FFFFFF0000FFFFFF0000FFFFFF0000FFFFFF0000FFFFFF0000FFFFFF0000FFFFFF0000FFFFFF0000FFFFFF0000FFFFFF0000FFFFFF0000FFFFFF0000FFFFFF0000FFFFFF0000FFFFFF0000FFFFFF0000FFFFFF0000FFFFFF0000FFFFFF0000FFFFFF0000FFFFFF0000FFFFFF0000FFFFFF0000FFFFFF0000FFFFFF0000FFFFFF0000FFFFFF0000FFFFFF0000FFFFFF0000FFFFFF0000FFFFFF0000FFFFFF0000FFFFFF0000FFFFFF0000FFFFFF0000FFFFFF0000FFFFFF0000FFFFFF0000FFFFFF0000FFFFFF0000FFFFFF0000 (9000)
A0A40000026F61 (9000)
A044000000 (9000)
A0EA0000EB02F440808062F220808032F451808002F801808072F077808062F810808012F410808022F201808002F610808056F510808022F810808072F210808012F607808032F210808042F620808042F750808002F250808042F080808042F210808032F810808062F010808032F030808022F610808042F450808082F010808092F304808042F820808082F410808072F810808082F620808006F220808072F620808005F530808004F402808004F411808004F472808004F468808004F448808004F450808004F406808004F431808004F464808004F434808004F403808004F566808004F488808004F4518080 (9000)
A0EA00005504F410808004F576808035F010808054F460808005F291808072F420808032F455808024F620808045F210808024F430808036F920808026F020808056F110808046F340808046F040808036F010808024F7208080 (9000)
A0A40000026F62 (9000)
A044000000 (9000)
A0EA0000E6FFFFFF0000FFFFFF0000FFFFFF0000FFFFFF0000FFFFFF0000FFFFFF0000FFFFFF0000FFFFFF0000FFFFFF0000FFFFFF0000FFFFFF0000FFFFFF0000FFFFFF0000FFFFFF0000FFFFFF0000FFFFFF0000FFFFFF0000FFFFFF0000FFFFFF0000FFFFFF0000FFFFFF0000FFFFFF0000FFFFFF0000FFFFFF0000FFFFFF0000FFFFFF0000FFFFFF0000FFFFFF0000FFFFFF0000FFFFFF0000FFFFFF0000FFFFFF0000FFFFFF0000FFFFFF0000FFFFFF0000FFFFFF0000FFFFFF0000FFFFFF0000FFFFFF0000FFFFFF0000FFFFFF0000FFFFFF0000FFFFFF0000FFFFFF0000FFFFFF0000FFFFFF0000 (9000)
A0A40000026F31 (9000)
A044000000 (9000)
A0EA00000114 (9000)
A0A40000026F46 (9000)
A044000000 (9000)
A0EA00001100414E5249545355FFFFFFFFFFFFFFFFFF (9000)
A0A40000026F40 (9000)
A044000000 (9000)
A0A40000026F49 (9000)
A044000000 (9000)
A0A40000026F4C (9000)
A044000000 (9000)
A0DC01040D00FFFFFFFFFFFFFFFFFFFFFFFF (9000)
A0DC02040D00FFFFFFFFFFFFFFFFFFFFFFFF (9000)
A0A40000026F3C (9000)
A044000000 (9000)
A0A40000026F43 (9000)
A044000000 (9000)
A0EA000002FFFF (9000)
A0A40000026F47 (9000)
A044000000 (9000)
A0A40000026F42 (9000)
A044000000 (9000)
A0DC01042A4173706964657220534D5363FFFFE1FFFFFFFFFFFFFFFFFFFFFFFF0791135604993800FFFFFFFF0000A9 (9000)
A0DC02042A4173706964657220534D5363FFFFE1FFFFFFFFFFFFFFFFFFFFFFFF0791135604993800FFFFFFFF0000A9 (9000)
A0A40000026F45 (9000)
A044000000 (9000)
A0EA000020FFFFFFFFFFFFFFFFFFFFFFFFFFFFFFFFFFFFFFFFFFFFFFFFFFFFFFFFFFFFFFFF (9000)
A0A40000026FD0 (9000)
A044000000 (9000)
A0EA0000E6FFFFFFFFFFFFFFFFFFFFFFFFFFFFFFFFFFFFFFFFFFFFFFFFFFFFFFFFFFFFFFFFFFFFFFFFFFFFFFFFFFFFFFFFFFFFFFFFFFFFFFFFFFFFFFFFFFFFFFFFFFFFFFFFFFFFFFFFFFFFFFFFFFFFFFFFFFFFFFFFFFFFFFFFFFFFFFFFFFFFFFFFFFFFFFFFFFFFFFFFFFFFFFFFFFFFFFFFFFFFFFFFFFFFFFFFFFFFFFFFFFFFFFFFFFFFFFFFFFFFFFFFFFFFFFFFFFFFFFFFFFFFFFFFFFFFFFFFFFFFFFFFFFFFFFFFFFFFFFFFFFFFFFFFFFFFFFFFFFFFFFFFFFFFFFFFFFFFFFFFFFFFFFFFFFFFFFFFFFFFFFFFFFFFFFFFFFFFFFFFFFFFFFFFFFFFFFFFFFFFFFFFFFFFFFFFFFFFFFFFFFFFFFFFFFFFFFFFFFFF (9000)
A0A40000026FD2 (9000)
A044000000 (9000)
A0EA0000E6FFFFFFFFFFFFFFFFFFFFFFFFFFFFFFFFFFFFFFFFFFFFFFFFFFFFFFFFFFFFFFFFFFFFFFFFFFFFFFFFFFFFFFFFFFFFFFFFFFFFFFFFFFFFFFFFFFFFFFFFFFFFFFFFFFFFFFFFFFFFFFFFFFFFFFFFFFFFFFFFFFFFFFFFFFFFFFFFFFFFFFFFFFFFFFFFFFFFFFFFFFFFFFFFFFFFFFFFFFFFFFFFFFFFFFFFFFFFFFFFFFFFFFFFFFFFFFFFFFFFFFFFFFFFFFFFFFFFFFFFFFFFFFFFFFFFFFFFFFFFFFFFFFFFFFFFFFFFFFFFFFFFFFFFFFFFFFFFFFFFFFFFFFFFFFFFFFFFFFFFFFFFFFFFFFFFFFFFFFFFFFFFFFFFFFFFFFFFFFFFFFFFFFFFFFFFFFFFFFFFFFFFFFFFFFFFFFFFFFFFFFFFFFFFFFFFFFFFFFFF (9000)
A0A40000026FD1 (9000)
A044000000 (9000)
A0DC01040D8001FF81008206148106811081 (9000)
A0A40000026FCE (9000)
A044000000 (9000)
A0DC010436000001FFFFFFFFFFFFFFFFFFFFFFFFFFFFFFFFFFFFFFFFFFFFFFFFFFFFFFFFFFFFFFFFFFFFFFFFFFFFFFFFFFFFFFFFFFFFFFFFFFFFFF (9000)
A0DC020436000001FFFFFFFFFFFFFFFFFFFFFFFFFFFFFFFFFFFFFFFFFFFFFFFFFFFFFFFFFFFFFFFFFFFFFFFFFFFFFFFFFFFFFFFFFFFFFFFFFFFFFF (9000)
A0A40000026F39 (9000)
A044000000 (9000)
A0A40000026F37 (9000)
A044000000 (9000)
A0EA000003000000 (9000)
A0A40000026F41 (9000)
A044000000 (9000)
A0EA000005FFFFFF0000 (9000)
A0A40000026F32 (9000)
A044000000 (9000)
A0EA000030FFFFFFFFFFFFFFFFFFFFFFFFFFFFFFFFFFFFFFFFFFFFFFFFFFFFFFFFFFFFFFFFFFFFFFFFFFFFFFFFFFFFFFFFFFFFFFFF (9000)
A0A40000026F2C (9000)
A044000000 (9000)
A0EA000010FFFFFFFFFFFFFFFFFFFFFFFFFFFFFFFF (9000)
A0A40000026FB5 (9000)
A044000000 (9000)
A0EA0000020000 (9000)
A0A40000026FB6 (9000)
A044000000 (9000)
A0EA00000100 (9000)
A0A40000026FD3 (9000)
A044000000 (9000)
A0A40000025F70 (9000)
A0A40000024F30 (9000)
A044000000 (9000)
A0EA00000100 (9000)
A0A40000024F31 (9000)
A044000000 (9000)
A0A40000024F32 (9000)
A044000000 (9000)
A0A40000027F4F (9000)
A0A40000026FC7 (9000)
A044000000 (9000)
A0A40000026FC8 (9000)
A044000000 (9000)
A0DC01040D00FFFFFFFFFFFFFFFFFFFFFFFF (9000)
A0DC02040D00FFFFFFFFFFFFFFFFFFFFFFFF (9000)
A0A40000026FC9 (9000)
A044000000 (9000)
A0A40000026FCA (9000)
A044000000 (9000)
A0A40000026FCB (9000)
A044000000 (9000)
A0DC0104100100FFFFFFFFFFFFFFFFFFFFFFFFFFFF (9000)
A0DC0204100100FFFFFFFFFFFFFFFFFFFFFFFFFFFF (9000)
A0A40000026FCC (9000)
A044000000 (9000)
A0DC01040D00FFFFFFFFFFFFFFFFFFFFFFFF (9000)
A0DC02040D00FFFFFFFFFFFFFFFFFFFFFFFF (9000)
A0A40000026FC5 (9000)
A044000000 (9000)
A0A40000026FC6 (9000)
A044000000 (9000)
A0A40000026FCD (9000)
A044000000 (9000)
A0EA00000DA30B8009FFFFFFFFFFFFFFFFFF (9000)
A0A40000026F3B (9000)
A044000000 (9000)
A0A40000026F4B (9000)
A044000000 (9000)
A0DC01040D00FFFFFFFFFFFFFFFFFFFFFFFF (9000)
A0DC02040D00FFFFFFFFFFFFFFFFFFFFFFFF (9000)
A0A40000026F50 (9000)
A044000000 (9000)
A0EA000010FFFFFFFFFFFFFFFFFFFFFFFFFFFFFFFF (9000)
A0A40000026F48 (9000)
A044000000 (9000)
A0EA000020FFFFFFFFFFFFFFFFFFFFFFFFFFFFFFFFFFFFFFFFFFFFFFFFFFFFFFFFFFFFFFFF (9000)
A0A40000025F50 (9000)
A0A40000027F4F (9000)
A0A40000026FFC (9000)
A044000000 (9000)
A0A40000026FFD (9000)
A044000000 (9000)
A0A40000026FFE (9000)
A044000000 (9000)
A0E2000006000000000000 (9000)
A0E2000006000000000000 (9000)
A0E2000006000000000000 (9000)
A0E2000006000000000000 (9000)
A0E2000006000000000000 (9000)
A0E2000006000000000000 (9000)
A0E2000006000000000000 (9000)
A0E2000006000000000000 (9000)
A0E2000006000000000000 (9000)
A0E2000006000000000000 (9000)
A0E2000006000000000000 (9000)
A0E2000006000000000000 (9000)
A0E2000006000000000000 (9000)
A0E2000006000000000000 (9000)
A0E2000006000000000000 (9000)
A0E2000006000000000000 (9000)
A0E2000006000000000000 (9000)
A0E2000006000000000000 (9000)
A0E2000006000000000000 (9000)
A0E2000006000000000000 (9000)
A0E2000006000000000000 (9000)
A0E2000006000000000000 (9000)
A0E2000006000000000000 (9000)
A0E2000006000000000000 (9000)
A0E2000006000000000000 (9000)
A0E2000006000000000000 (9000)
A0E2000006000000000000 (9000)
A0E2000006000000000000 (9000)
A0E2000006000000000000 (9000)
A0E2000006000000000000 (9000)
A0E2000006000000000000 (9000)
A0E2000006000000000000 (9000)
A0E200000600FFFFFFFFFF (9000)
A0A40000026F69 (9000)
A044000000 (9000)
A0EA00000CFFFFFFFFFFE0FFFFFFFFFFE0 (9000)
A0A40000023F00 (9000)
A0A40000027F10 (9000)
A0A40000025F3C (9000)
A0A40000027F10 (9000)
A0A40000025F50 (9000)
A0A40000027F10 (9000)
A0A40000026F54 (9000)
A044000000 (9000)
A0EA0000168500FFFFFFFFFFFFFFFFFFFFFFFFFFFFFFFFFFFFFFFF (9000)
A0A40000025F3A (9000)
A0A40000024F3A (9000)
A044000000 (9000)
A0A40000024F02 (9000)
A044000000 (9000)
A0DC01040D00FFFFFFFFFFFFFFFFFFFFFFFF (9000)
A0DC02040D00FFFFFFFFFFFFFFFFFFFFFFFF (9000)
A0DC03040D00FFFFFFFFFFFFFFFFFFFFFFFF (9000)
A0DC04040D00FFFFFFFFFFFFFFFFFFFFFFFF (9000)
A0DC05040D00FFFFFFFFFFFFFFFFFFFFFFFF (9000)
A0DC06040D00FFFFFFFFFFFFFFFFFFFFFFFF (9000)
A0DC07040D00FFFFFFFFFFFFFFFFFFFFFFFF (9000)
A0DC08040D00FFFFFFFFFFFFFFFFFFFFFFFF (9000)
A0DC09040D00FFFFFFFFFFFFFFFFFFFFFFFF (9000)
A0DC0A040D00FFFFFFFFFFFFFFFFFFFFFFFF (9000)
A0DC0B040D00FFFFFFFFFFFFFFFFFFFFFFFF (9000)
A0DC0C040D00FFFFFFFFFFFFFFFFFFFFFFFF (9000)
A0DC0D040D00FFFFFFFFFFFFFFFFFFFFFFFF (9000)
A0DC0E040D00FFFFFFFFFFFFFFFFFFFFFFFF (9000)
A0DC0F040D00FFFFFFFFFFFFFFFFFFFFFFFF (9000)
A0DC10040D00FFFFFFFFFFFFFFFFFFFFFFFF (9000)
A0DC11040D00FFFFFFFFFFFFFFFFFFFFFFFF (9000)
A0DC12040D00FFFFFFFFFFFFFFFFFFFFFFFF (9000)
A0DC13040D00FFFFFFFFFFFFFFFFFFFFFFFF (9000)
A0DC14040D00FFFFFFFFFFFFFFFFFFFFFFFF (9000)
A0A40000024F3D (9000)
A044000000 (9000)
A0A40000027F10 (9000)
A0A40000023F00 (9000)
A0A40000027F20 (9000)
A0A40000025F3C (9000)
A0A40000027F20 (9000)
A0A40000025F70 (9000)
A0A40000027F20 (9000)
A0A40000023F00 (9000)
A0A40000027FF2 (9000)
A0A40000023F00 (9000)
A0A40000022F05 (9000)
A044000000 (9000)
A0EA000008FFFFFFFFFFFFFFFF (9000)
A020000008933F57845F706921 (9000)
A0A40800047F4F6F07 (9000) ;IMSI
A0EA000009 082940409703600386 (9000)
A0A40000026FFC (9000) ;KI
A0EA000012 22597BA0380063499BEA67574C73ED98 F6 6E (9000)
A0A40000026FFD (9000) ;OPC
A0EA00006801 DBA8299BB1B6AAB91A393AF6F1EB03F1 91 D5 40002040600000000000000000000000000000000000000000000000000000000000000001000000000000000000000000000000020000000000000000000000000000000400000000000000000000000000000008 (9000)
A0A40800022FE2 (9000) ; ICCID
A0EA00000A 980193000000118621F9 (9000)
A0A4000002220C (9000)
A0E2000012 0E2AF90BDAB5A567943C6DEEAAA666E0 3B65 (9000)
A020000008933F57845F706921 (9000)
A0A40000023F00 (9000)
A0A4080002220D (9000)
A0DC01041001933F57845F706921AA80FFFFFF2A62 (9000)
A0A4000002220E (9000)
A0DC0104100231323334FFFFFFFF3380FFFFFFFDCA (9000)
A0DC020410023131313131313131AA80FFFFFF6832 (9000)
A0DC0304100435363738FFFFFFFF3380FFFFFF48ED (9000)
A0DC040410043232323232323232AA80FFFFFF9309 (9000)
A0A40000022205 (9000)
A0DC0104100230303030303030303300FFFFFF9BD7 (9000)
A0DC020410023030303030303030AA00FFFFFF1521 (9000)
A0DC0304100431323334FFFFFFFF3380FFFFFFF6AD (9000)
A0DC040410043131313131313131AA80FFFFFF6355 (9000)
A0A40000022206 (9000)
A0DC0104100235363738FFFFFFFF3380FFFFFF438A (9000)
A0DC020410023232323232323232AA80FFFFFF986E (9000)
A020000008933F57845F706921 (9000)
A02600010831323334FFFFFFFF (9000)
80E28800223A071FA11D3501034718077075626C6963340B6D326D696E7465726E657403636F6D(9000)
80E2880026DF6D230406204FE330735E2A80B1E43F2A607D14A8A6C5EABAB3594AAA6DBD4054D3F191CA89(9000)